^D:\3QANHHUNG\CLIENT\COCOS2D-X-2.2.0\COCOSDENSHION\PROJ.WIN32\DEBUG.WIN32\MCIPLAYER.OBJ|D:\3QANHHUNG\CLIENT\COCOS2D-X-2.2.0\COCOSDENSHION\PROJ.WIN32\DEBUG.WIN32\SIMPLEAUDIOENGINE.OBJ
D:\3QANHHUNG\CLIENT\COCOS2D-X-2.2.0\PROJECTS\THREEKINGDOMS\PROJ.WIN32\DEBUG.WIN32\LIBCOCOSDENSHION.DLL
D:\3QANHHUNG\CLIENT\COCOS2D-X-2.2.0\PROJECTS\THREEKINGDOMS\PROJ.WIN32\DEBUG.WIN32\LIBCOCOSDENSHION.PDB
