{
  "classname": "CCNode",
  "name": null,
  "canedit": true,
  "objecttag": 10000,
  "rotation": 0,
  "scalex": 1,
  "scaley": 1,
  "visible": 1,
  "x": 0,
  "y": 0,
  "zorder": 1,
  "gameobjects": [
    {
      "__type": "ComGameObjectSurrogate:#EditorCommon.JsonModel",
      "classname": "CCNode",
      "name": null,
      "canedit": false,
      "objecttag": 10003,
      "rotation": 0,
      "scalex": 1,
      "scaley": 1,
      "visible": 1,
      "x": 896,
      "y": 512,
      "zorder": 1,
      "gameobjects": [],
      "components": [
        {
          "__type": "ComSpriteSurrogate:#EditorCommon.JsonModel.Component",
          "classname": "CCSprite",
          "name": "CCSprite",
          "file": null,
          "fileData": {
            "path": "images/bg.png",
            "plistFile": null,
            "resourceType": 0
          }
        }
      ]
    },
    {
      "__type": "ComGameObjectSurrogate:#EditorCommon.JsonModel",
      "classname": "CCNode",
      "name": null,
      "canedit": true,
      "objecttag": 10009,
      "rotation": 0,
      "scalex": 0.5999999,
      "scaley": 0.5999999,
      "visible": 1,
      "x": 1218.9364013671875,
      "y": 136.88392639160156,
      "zorder": 1,
      "gameobjects": [],
      "components": [
        {
          "__type": "ComParticleSystemSurrogate:#EditorCommon.JsonModel.Component",
          "classname": "CCParticleSystemQuad",
          "name": "CCParticleSystemQuad",
          "file": null,
          "fileData": {
            "path": "animation/texiao/particledesigner/jian.plist",
            "plistFile": null,
            "resourceType": 0
          }
        }
      ]
    },
    {
      "__type": "ComGameObjectSurrogate:#EditorCommon.JsonModel",
      "classname": "CCNode",
      "name": "_Copy",
      "canedit": true,
      "objecttag": 10010,
      "rotation": 0,
      "scalex": 0.5999999,
      "scaley": 0.5999999,
      "visible": 1,
      "x": 72.9046630859375,
      "y": 487.23806762695312,
      "zorder": 1,
      "gameobjects": [],
      "components": [
        {
          "__type": "ComParticleSystemSurrogate:#EditorCommon.JsonModel.Component",
          "classname": "CCParticleSystemQuad",
          "name": "CCParticleSystemQuad",
          "file": null,
          "fileData": {
            "path": "animation/texiao/particledesigner/jian.plist",
            "plistFile": null,
            "resourceType": 0
          }
        }
      ]
    },
    {
      "__type": "ComGameObjectSurrogate:#EditorCommon.JsonModel",
      "classname": "CCNode",
      "name": "_Copy",
      "canedit": true,
      "objecttag": 10011,
      "rotation": 0,
      "scalex": 0.5999999,
      "scaley": 0.5999999,
      "visible": 1,
      "x": 874.17340087890625,
      "y": 260.694580078125,
      "zorder": 1,
      "gameobjects": [],
      "components": [
        {
          "__type": "ComParticleSystemSurrogate:#EditorCommon.JsonModel.Component",
          "classname": "CCParticleSystemQuad",
          "name": "CCParticleSystemQuad",
          "file": null,
          "fileData": {
            "path": "animation/texiao/particledesigner/jian.plist",
            "plistFile": null,
            "resourceType": 0
          }
        }
      ]
    },
    {
      "__type": "ComGameObjectSurrogate:#EditorCommon.JsonModel",
      "classname": "CCNode",
      "name": null,
      "canedit": true,
      "objecttag": 10020,
      "rotation": 0,
      "scalex": 1,
      "scaley": 1,
      "visible": 1,
      "x": 1215,
      "y": 413,
      "zorder": 1,
      "gameobjects": [],
      "components": [
        {
          "__type": "ComParticleSystemSurrogate:#EditorCommon.JsonModel.Component",
          "classname": "CCParticleSystemQuad",
          "name": "CCParticleSystemQuad",
          "file": null,
          "fileData": {
            "path": "animation/texiao/particledesigner/shuiwen1.plist",
            "plistFile": null,
            "resourceType": 0
          }
        }
      ]
    },
    {
      "__type": "ComGameObjectSurrogate:#EditorCommon.JsonModel",
      "classname": "CCNode",
      "name": null,
      "canedit": true,
      "objecttag": 10021,
      "rotation": 0,
      "scalex": 1,
      "scaley": 1,
      "visible": 1,
      "x": 1006,
      "y": 629,
      "zorder": 1,
      "gameobjects": [],
      "components": [
        {
          "__type": "ComParticleSystemSurrogate:#EditorCommon.JsonModel.Component",
          "classname": "CCParticleSystemQuad",
          "name": "CCParticleSystemQuad",
          "file": null,
          "fileData": {
            "path": "animation/texiao/particledesigner/shuiwen1.plist",
            "plistFile": null,
            "resourceType": 0
          }
        }
      ]
    },
    {
      "__type": "ComGameObjectSurrogate:#EditorCommon.JsonModel",
      "classname": "CCNode",
      "name": "_Copy",
      "canedit": true,
      "objecttag": 10022,
      "rotation": 0,
      "scalex": 1,
      "scaley": 1,
      "visible": 1,
      "x": 1005,
      "y": 486,
      "zorder": 1,
      "gameobjects": [],
      "components": [
        {
          "__type": "ComParticleSystemSurrogate:#EditorCommon.JsonModel.Component",
          "classname": "CCParticleSystemQuad",
          "name": "CCParticleSystemQuad",
          "file": null,
          "fileData": {
            "path": "animation/texiao/particledesigner/shuiwen1.plist",
            "plistFile": null,
            "resourceType": 0
          }
        }
      ]
    },
    {
      "__type": "ComGameObjectSurrogate:#EditorCommon.JsonModel",
      "classname": "CCNode",
      "name": null,
      "canedit": true,
      "objecttag": 10025,
      "rotation": 0,
      "scalex": 1.2,
      "scaley": 1.2,
      "visible": 1,
      "x": 1198.75,
      "y": 764,
      "zorder": 1,
      "gameobjects": [],
      "components": [
        {
          "__type": "ComParticleSystemSurrogate:#EditorCommon.JsonModel.Component",
          "classname": "CCParticleSystemQuad",
          "name": "CCParticleSystemQuad",
          "file": null,
          "fileData": {
            "path": "animation/texiao/particledesigner/xiaoxingxing1.plist",
            "plistFile": null,
            "resourceType": 0
          }
        }
      ]
    },
    {
      "__type": "ComGameObjectSurrogate:#EditorCommon.JsonModel",
      "classname": "CCNode",
      "name": "_Copy",
      "canedit": true,
      "objecttag": 10026,
      "rotation": 0,
      "scalex": 1.30000007,
      "scaley": 1.30000007,
      "visible": 1,
      "x": 856.48077392578125,
      "y": 444.11541748046875,
      "zorder": 1,
      "gameobjects": [],
      "components": [
        {
          "__type": "ComParticleSystemSurrogate:#EditorCommon.JsonModel.Component",
          "classname": "CCParticleSystemQuad",
          "name": "CCParticleSystemQuad",
          "file": null,
          "fileData": {
            "path": "animation/texiao/particledesigner/xiaoxingxing1.plist",
            "plistFile": null,
            "resourceType": 0
          }
        }
      ]
    },
    {
      "__type": "ComGameObjectSurrogate:#EditorCommon.JsonModel",
      "classname": "CCNode",
      "name": null,
      "canedit": true,
      "objecttag": 10032,
      "rotation": 0,
      "scalex": 0.199999928,
      "scaley": 0.399999917,
      "visible": 1,
      "x": 75.999885559082031,
      "y": 437,
      "zorder": 1,
      "gameobjects": [],
      "components": [
        {
          "__type": "ComParticleSystemSurrogate:#EditorCommon.JsonModel.Component",
          "classname": "CCParticleSystemQuad",
          "name": "CCParticleSystemQuad",
          "file": null,
          "fileData": {
            "path": "animation/texiao/particledesigner/baiyan2.plist",
            "plistFile": null,
            "resourceType": 0
          }
        }
      ]
    },
    {
      "__type": "ComGameObjectSurrogate:#EditorCommon.JsonModel",
      "classname": "CCNode",
      "name": "_Copy",
      "canedit": true,
      "objecttag": 10033,
      "rotation": 0,
      "scalex": 0.199999928,
      "scaley": 0.399999917,
      "visible": 1,
      "x": 874,
      "y": 214,
      "zorder": 1,
      "gameobjects": [],
      "components": [
        {
          "__type": "ComParticleSystemSurrogate:#EditorCommon.JsonModel.Component",
          "classname": "CCParticleSystemQuad",
          "name": "CCParticleSystemQuad",
          "file": null,
          "fileData": {
            "path": "animation/texiao/particledesigner/baiyan2.plist",
            "plistFile": null,
            "resourceType": 0
          }
        }
      ]
    },
    {
      "__type": "ComGameObjectSurrogate:#EditorCommon.JsonModel",
      "classname": "CCNode",
      "name": "_Copy_Copy",
      "canedit": true,
      "objecttag": 10034,
      "rotation": 0,
      "scalex": 1.2,
      "scaley": 1.2,
      "visible": 1,
      "x": 369.076904296875,
      "y": 919.1153564453125,
      "zorder": 1,
      "gameobjects": [],
      "components": [
        {
          "__type": "ComParticleSystemSurrogate:#EditorCommon.JsonModel.Component",
          "classname": "CCParticleSystemQuad",
          "name": "CCParticleSystemQuad",
          "file": null,
          "fileData": {
            "path": "animation/texiao/particledesigner/xiaoxingxing1.plist",
            "plistFile": null,
            "resourceType": 0
          }
        }
      ]
    },
    {
      "__type": "ComGameObjectSurrogate:#EditorCommon.JsonModel",
      "classname": "CCNode",
      "name": "_Copy",
      "canedit": true,
      "objecttag": 10035,
      "rotation": 0,
      "scalex": 0.199999928,
      "scaley": 0.399999917,
      "visible": 1,
      "x": 1217.15380859375,
      "y": 87.3846206665039,
      "zorder": 1,
      "gameobjects": [],
      "components": [
        {
          "__type": "ComParticleSystemSurrogate:#EditorCommon.JsonModel.Component",
          "classname": "CCParticleSystemQuad",
          "name": "CCParticleSystemQuad",
          "file": null,
          "fileData": {
            "path": "animation/texiao/particledesigner/baiyan2.plist",
            "plistFile": null,
            "resourceType": 0
          }
        }
      ]
    }
  ],
  "CanvasSize": {
    "_height": 1024,
    "_width": 1792
  },
  "Version": "1.1.0.0",
  "components": [
    {
      "__type": "ComSceneSurrogate:#EditorCommon.JsonModel.Component",
      "classname": "CCScene",
      "name": "CCScene",
      "scenename": "hrd21"
    },
    {
      "__type": "ComSimpleAudioSurrogate:#EditorCommon.JsonModel.Component",
      "classname": "CCBackgroundAudio",
      "name": "CCBackgroundAudio",
      "file": null,
      "fileData": {
        "path": null,
        "plistFile": null,
        "resourceType": 0
      },
      "loop": 0
    }
  ]
}