{
  "classname": "CCNode",
  "name": null,
  "canedit": false,
  "objecttag": 10001,
  "rotation": 0,
  "scalex": 1,
  "scaley": 1,
  "visible": 1,
  "x": 0,
  "y": 0,
  "zorder": 1,
  "gameobjects": [
    {
      "__type": "ComGameObjectSurrogate:#EditorCommon.JsonModel",
      "classname": "CCNode",
      "name": null,
      "canedit": false,
      "objecttag": 10097,
      "rotation": 0,
      "scalex": 1,
      "scaley": 1,
      "visible": 1,
      "x": 896.5,
      "y": 512,
      "zorder": 1,
      "gameobjects": [],
      "components": [
        {
          "__type": "ComSpriteSurrogate:#EditorCommon.JsonModel.Component",
          "classname": "CCSprite",
          "name": "CCSprite",
          "file": null,
          "fileData": {
            "path": null,
            "plistFile": null,
            "resourceType": 0
          }
        }
      ]
    },
    {
      "__type": "ComGameObjectSurrogate:#EditorCommon.JsonModel",
      "classname": "CCNode",
      "name": null,
      "canedit": true,
      "objecttag": 10026,
      "rotation": 0,
      "scalex": 0.799999952,
      "scaley": 0.799999952,
      "visible": 1,
      "x": 143.62428283691406,
      "y": 213.02055358886719,
      "zorder": 2,
      "gameobjects": [],
      "components": [
        {
          "__type": "ComParticleSystemSurrogate:#EditorCommon.JsonModel.Component",
          "classname": "CCParticleSystemQuad",
          "name": "CCParticleSystemQuad",
          "file": null,
          "fileData": {
            "path": "animation/texiao/particledesigner/lanyan3.plist",
            "plistFile": null,
            "resourceType": 0
          }
        }
      ]
    },
    {
      "__type": "ComGameObjectSurrogate:#EditorCommon.JsonModel",
      "classname": "CCNode",
      "name": "_Copy",
      "canedit": true,
      "objecttag": 10027,
      "rotation": 0,
      "scalex": 0.299999923,
      "scaley": 0.299999923,
      "visible": 1,
      "x": 1085.291015625,
      "y": 972.068115234375,
      "zorder": 2,
      "gameobjects": [],
      "components": [
        {
          "__type": "ComParticleSystemSurrogate:#EditorCommon.JsonModel.Component",
          "classname": "CCParticleSystemQuad",
          "name": "CCParticleSystemQuad",
          "file": null,
          "fileData": {
            "path": "animation/texiao/particledesigner/lanyan3.plist",
            "plistFile": null,
            "resourceType": 0
          }
        }
      ]
    },
    {
      "__type": "ComGameObjectSurrogate:#EditorCommon.JsonModel",
      "classname": "CCNode",
      "name": "_Copy",
      "canedit": true,
      "objecttag": 10030,
      "rotation": 0,
      "scalex": 1,
      "scaley": 1,
      "visible": 1,
      "x": 42.052978515625,
      "y": 949.9490966796875,
      "zorder": 2,
      "gameobjects": [],
      "components": [
        {
          "__type": "ComParticleSystemSurrogate:#EditorCommon.JsonModel.Component",
          "classname": "CCParticleSystemQuad",
          "name": "CCParticleSystemQuad",
          "file": null,
          "fileData": {
            "path": "animation/texiao/particledesigner/lanyan1.plist",
            "plistFile": null,
            "resourceType": 0
          }
        }
      ]
    },
    {
      "__type": "ComGameObjectSurrogate:#EditorCommon.JsonModel",
      "classname": "CCNode",
      "name": "_Copy_Copy",
      "canedit": true,
      "objecttag": 10032,
      "rotation": 0,
      "scalex": 0.799999952,
      "scaley": 0.799999952,
      "visible": 1,
      "x": 425.76715087890625,
      "y": 73.734832763671875,
      "zorder": 2,
      "gameobjects": [],
      "components": [
        {
          "__type": "ComParticleSystemSurrogate:#EditorCommon.JsonModel.Component",
          "classname": "CCParticleSystemQuad",
          "name": "CCParticleSystemQuad",
          "file": null,
          "fileData": {
            "path": "animation/texiao/particledesigner/lanyan3.plist",
            "plistFile": null,
            "resourceType": 0
          }
        }
      ]
    },
    {
      "__type": "ComGameObjectSurrogate:#EditorCommon.JsonModel",
      "classname": "CCNode",
      "name": "_Copy_Copy",
      "canedit": true,
      "objecttag": 10033,
      "rotation": 0,
      "scalex": 0.299999923,
      "scaley": 0.299999923,
      "visible": 1,
      "x": 1648.9814453125,
      "y": 891.5919189453125,
      "zorder": 2,
      "gameobjects": [],
      "components": [
        {
          "__type": "ComParticleSystemSurrogate:#EditorCommon.JsonModel.Component",
          "classname": "CCParticleSystemQuad",
          "name": "CCParticleSystemQuad",
          "file": null,
          "fileData": {
            "path": "animation/texiao/particledesigner/lanyan3.plist",
            "plistFile": null,
            "resourceType": 0
          }
        }
      ]
    },
    {
      "__type": "ComGameObjectSurrogate:#EditorCommon.JsonModel",
      "classname": "CCNode",
      "name": "_Copy_Copy",
      "canedit": true,
      "objecttag": 10034,
      "rotation": 0,
      "scalex": 0.299999923,
      "scaley": 0.299999923,
      "visible": 1,
      "x": 320.52896118164062,
      "y": 791.35400390625,
      "zorder": 2,
      "gameobjects": [],
      "components": [
        {
          "__type": "ComParticleSystemSurrogate:#EditorCommon.JsonModel.Component",
          "classname": "CCParticleSystemQuad",
          "name": "CCParticleSystemQuad",
          "file": null,
          "fileData": {
            "path": "animation/texiao/particledesigner/lanyan3.plist",
            "plistFile": null,
            "resourceType": 0
          }
        }
      ]
    },
    {
      "__type": "ComGameObjectSurrogate:#EditorCommon.JsonModel",
      "classname": "CCNode",
      "name": "_Copy_Copy_Copy",
      "canedit": true,
      "objecttag": 10036,
      "rotation": 0,
      "scalex": 0.299999923,
      "scaley": 0.299999923,
      "visible": 1,
      "x": 861.4814453125,
      "y": 154.09196472167969,
      "zorder": 2,
      "gameobjects": [],
      "components": [
        {
          "__type": "ComParticleSystemSurrogate:#EditorCommon.JsonModel.Component",
          "classname": "CCParticleSystemQuad",
          "name": "CCParticleSystemQuad",
          "file": null,
          "fileData": {
            "path": "animation/texiao/particledesigner/lanyan3.plist",
            "plistFile": null,
            "resourceType": 0
          }
        }
      ]
    },
    {
      "__type": "ComGameObjectSurrogate:#EditorCommon.JsonModel",
      "classname": "CCNode",
      "name": "_Copy_Copy_Copy",
      "canedit": true,
      "objecttag": 10037,
      "rotation": 0,
      "scalex": 0.299999923,
      "scaley": 0.299999923,
      "visible": 1,
      "x": 1134.6956787109375,
      "y": 510.282470703125,
      "zorder": 2,
      "gameobjects": [],
      "components": [
        {
          "__type": "ComParticleSystemSurrogate:#EditorCommon.JsonModel.Component",
          "classname": "CCParticleSystemQuad",
          "name": "CCParticleSystemQuad",
          "file": null,
          "fileData": {
            "path": "animation/texiao/particledesigner/lanyan3.plist",
            "plistFile": null,
            "resourceType": 0
          }
        }
      ]
    },
    {
      "__type": "ComGameObjectSurrogate:#EditorCommon.JsonModel",
      "classname": "CCNode",
      "name": "_Copy_Copy_Copy",
      "canedit": true,
      "objecttag": 10038,
      "rotation": 0,
      "scalex": 0.299999923,
      "scaley": 0.299999923,
      "visible": 1,
      "x": 867.909912109375,
      "y": 510.52056884765625,
      "zorder": 2,
      "gameobjects": [],
      "components": [
        {
          "__type": "ComParticleSystemSurrogate:#EditorCommon.JsonModel.Component",
          "classname": "CCParticleSystemQuad",
          "name": "CCParticleSystemQuad",
          "file": null,
          "fileData": {
            "path": "animation/texiao/particledesigner/lanyan3.plist",
            "plistFile": null,
            "resourceType": 0
          }
        }
      ]
    },
    {
      "__type": "ComGameObjectSurrogate:#EditorCommon.JsonModel",
      "classname": "CCNode",
      "name": "_Copy_Copy_Copy",
      "canedit": true,
      "objecttag": 10039,
      "rotation": 0,
      "scalex": 0.299999923,
      "scaley": 0.299999923,
      "visible": 1,
      "x": 1423.9813232421875,
      "y": 995.1634521484375,
      "zorder": 2,
      "gameobjects": [],
      "components": [
        {
          "__type": "ComParticleSystemSurrogate:#EditorCommon.JsonModel.Component",
          "classname": "CCParticleSystemQuad",
          "name": "CCParticleSystemQuad",
          "file": null,
          "fileData": {
            "path": "animation/texiao/particledesigner/lanyan3.plist",
            "plistFile": null,
            "resourceType": 0
          }
        }
      ]
    },
    {
      "__type": "ComGameObjectSurrogate:#EditorCommon.JsonModel",
      "classname": "CCNode",
      "name": "_Copy_Copy_Copy",
      "canedit": true,
      "objecttag": 10040,
      "rotation": 0,
      "scalex": 0.299999923,
      "scaley": 0.299999923,
      "visible": 1,
      "x": 622.4337158203125,
      "y": 418.13967895507812,
      "zorder": 2,
      "gameobjects": [],
      "components": [
        {
          "__type": "ComParticleSystemSurrogate:#EditorCommon.JsonModel.Component",
          "classname": "CCParticleSystemQuad",
          "name": "CCParticleSystemQuad",
          "file": null,
          "fileData": {
            "path": "animation/texiao/particledesigner/lanyan3.plist",
            "plistFile": null,
            "resourceType": 0
          }
        }
      ]
    },
    {
      "__type": "ComGameObjectSurrogate:#EditorCommon.JsonModel",
      "classname": "CCNode",
      "name": "_Copy_Copy_Copy_Copy",
      "canedit": true,
      "objecttag": 10043,
      "rotation": 0,
      "scalex": 0.299999923,
      "scaley": 0.299999923,
      "visible": 1,
      "x": 83.981338500976562,
      "y": 701.115966796875,
      "zorder": 2,
      "gameobjects": [],
      "components": [
        {
          "__type": "ComParticleSystemSurrogate:#EditorCommon.JsonModel.Component",
          "classname": "CCParticleSystemQuad",
          "name": "CCParticleSystemQuad",
          "file": null,
          "fileData": {
            "path": "animation/texiao/particledesigner/lanyan3.plist",
            "plistFile": null,
            "resourceType": 0
          }
        }
      ]
    },
    {
      "__type": "ComGameObjectSurrogate:#EditorCommon.JsonModel",
      "classname": "CCNode",
      "name": "_Copy",
      "canedit": true,
      "objecttag": 10047,
      "rotation": 0,
      "scalex": 0.4999999,
      "scaley": 0.4999999,
      "visible": 1,
      "x": 975.76715087890625,
      "y": 488.0205078125,
      "zorder": 2,
      "gameobjects": [],
      "components": [
        {
          "__type": "ComParticleSystemSurrogate:#EditorCommon.JsonModel.Component",
          "classname": "CCParticleSystemQuad",
          "name": "CCParticleSystemQuad",
          "file": null,
          "fileData": {
            "path": "animation/texiao/particledesigner/huo2.plist",
            "plistFile": null,
            "resourceType": 0
          }
        }
      ]
    },
    {
      "__type": "ComGameObjectSurrogate:#EditorCommon.JsonModel",
      "classname": "CCNode",
      "name": null,
      "canedit": true,
      "objecttag": 10049,
      "rotation": 0,
      "scalex": 0.4999999,
      "scaley": 0.4999999,
      "visible": 1,
      "x": 1068.9814453125,
      "y": 614.8062744140625,
      "zorder": 2,
      "gameobjects": [],
      "components": [
        {
          "__type": "ComParticleSystemSurrogate:#EditorCommon.JsonModel.Component",
          "classname": "CCParticleSystemQuad",
          "name": "CCParticleSystemQuad",
          "file": null,
          "fileData": {
            "path": "animation/texiao/particledesigner/yunyu.plist",
            "plistFile": null,
            "resourceType": 0
          }
        }
      ]
    },
    {
      "__type": "ComGameObjectSurrogate:#EditorCommon.JsonModel",
      "classname": "CCNode",
      "name": null,
      "canedit": true,
      "objecttag": 10050,
      "rotation": 0,
      "scalex": 0.6999999,
      "scaley": 0.6999999,
      "visible": 1,
      "x": 313.26718139648438,
      "y": 89.8062515258789,
      "zorder": 2,
      "gameobjects": [],
      "components": [
        {
          "__type": "ComParticleSystemSurrogate:#EditorCommon.JsonModel.Component",
          "classname": "CCParticleSystemQuad",
          "name": "CCParticleSystemQuad",
          "file": null,
          "fileData": {
            "path": "animation/texiao/particledesigner/huo1.plist",
            "plistFile": null,
            "resourceType": 0
          }
        }
      ]
    },
    {
      "__type": "ComGameObjectSurrogate:#EditorCommon.JsonModel",
      "classname": "CCNode",
      "name": null,
      "canedit": true,
      "objecttag": 10051,
      "rotation": 0,
      "scalex": 0.799999952,
      "scaley": 0.799999952,
      "visible": 1,
      "x": 1009.695556640625,
      "y": 446.94900512695312,
      "zorder": 2,
      "gameobjects": [],
      "components": [
        {
          "__type": "ComParticleSystemSurrogate:#EditorCommon.JsonModel.Component",
          "classname": "CCParticleSystemQuad",
          "name": "CCParticleSystemQuad",
          "file": null,
          "fileData": {
            "path": "animation/texiao/particledesigner/huo2.plist",
            "plistFile": null,
            "resourceType": 0
          }
        }
      ]
    },
    {
      "__type": "ComGameObjectSurrogate:#EditorCommon.JsonModel",
      "classname": "CCNode",
      "name": "_Copy_Copy_Copy_Copy",
      "canedit": true,
      "objecttag": 10054,
      "rotation": 0,
      "scalex": 0.299999923,
      "scaley": 0.299999923,
      "visible": 1,
      "x": 1136.4814453125,
      "y": 157.66340637207031,
      "zorder": 2,
      "gameobjects": [],
      "components": [
        {
          "__type": "ComParticleSystemSurrogate:#EditorCommon.JsonModel.Component",
          "classname": "CCParticleSystemQuad",
          "name": "CCParticleSystemQuad",
          "file": null,
          "fileData": {
            "path": "animation/texiao/particledesigner/lanyan3.plist",
            "plistFile": null,
            "resourceType": 0
          }
        }
      ]
    },
    {
      "__type": "ComGameObjectSurrogate:#EditorCommon.JsonModel",
      "classname": "CCNode",
      "name": "_Copy",
      "canedit": true,
      "objecttag": 10028,
      "rotation": 0,
      "scalex": 0.4999999,
      "scaley": 0.4999999,
      "visible": 1,
      "x": 971.9814453125,
      "y": 731.8062744140625,
      "zorder": 2,
      "gameobjects": [],
      "components": [
        {
          "__type": "ComParticleSystemSurrogate:#EditorCommon.JsonModel.Component",
          "classname": "CCParticleSystemQuad",
          "name": "CCParticleSystemQuad",
          "file": null,
          "fileData": {
            "path": "animation/texiao/particledesigner/yunyu.plist",
            "plistFile": null,
            "resourceType": 0
          }
        }
      ]
    },
    {
      "__type": "ComGameObjectSurrogate:#EditorCommon.JsonModel",
      "classname": "CCNode",
      "name": "_Copy_Copy",
      "canedit": true,
      "objecttag": 10032,
      "rotation": 0,
      "scalex": 0.4999999,
      "scaley": 0.4999999,
      "visible": 1,
      "x": 874.9814453125,
      "y": 615.8062744140625,
      "zorder": 2,
      "gameobjects": [],
      "components": [
        {
          "__type": "ComParticleSystemSurrogate:#EditorCommon.JsonModel.Component",
          "classname": "CCParticleSystemQuad",
          "name": "CCParticleSystemQuad",
          "file": null,
          "fileData": {
            "path": "animation/texiao/particledesigner/yunyu.plist",
            "plistFile": null,
            "resourceType": 0
          }
        }
      ]
    },
    {
      "__type": "ComGameObjectSurrogate:#EditorCommon.JsonModel",
      "classname": "CCNode",
      "name": "_Copy_Copy_Copy_Copy_Copy",
      "canedit": true,
      "objecttag": 10098,
      "rotation": 0,
      "scalex": 0.299999923,
      "scaley": 0.299999923,
      "visible": 1,
      "x": 1375.7672119140625,
      "y": 386.23483276367188,
      "zorder": 2,
      "gameobjects": [],
      "components": [
        {
          "__type": "ComParticleSystemSurrogate:#EditorCommon.JsonModel.Component",
          "classname": "CCParticleSystemQuad",
          "name": "CCParticleSystemQuad",
          "file": null,
          "fileData": {
            "path": "animation/texiao/particledesigner/lanyan3.plist",
            "plistFile": null,
            "resourceType": 0
          }
        }
      ]
    },
    {
      "__type": "ComGameObjectSurrogate:#EditorCommon.JsonModel",
      "classname": "CCNode",
      "name": null,
      "canedit": false,
      "objecttag": 10108,
      "rotation": 0,
      "scalex": 1,
      "scaley": 1,
      "visible": 1,
      "x": 896,
      "y": 512,
      "zorder": 1,
      "gameobjects": [],
      "components": [
        {
          "__type": "ComSpriteSurrogate:#EditorCommon.JsonModel.Component",
          "classname": "CCSprite",
          "name": "CCSprite",
          "file": null,
          "fileData": {
            "path": "images/bg.png",
            "plistFile": null,
            "resourceType": 0
          }
        }
      ]
    },
    {
      "__type": "ComGameObjectSurrogate:#EditorCommon.JsonModel",
      "classname": "CCNode",
      "name": "_Copy_Copy",
      "canedit": true,
      "objecttag": 10109,
      "rotation": 0,
      "scalex": 0.299999923,
      "scaley": 0.299999923,
      "visible": 1,
      "x": 1406.1243896484375,
      "y": 773.73480224609375,
      "zorder": 2,
      "gameobjects": [],
      "components": [
        {
          "__type": "ComParticleSystemSurrogate:#EditorCommon.JsonModel.Component",
          "classname": "CCParticleSystemQuad",
          "name": "CCParticleSystemQuad",
          "file": null,
          "fileData": {
            "path": "animation/texiao/particledesigner/lanyan3.plist",
            "plistFile": null,
            "resourceType": 0
          }
        }
      ]
    }
  ],
  "CanvasSize": {
    "_height": 1024,
    "_width": 1792
  },
  "Version": "1.1.0.0",
  "components": [
    {
      "__type": "ComSceneSurrogate:#EditorCommon.JsonModel.Component",
      "classname": "CCScene",
      "name": "CCScene",
      "scenename": "jzgy1"
    },
    {
      "__type": "ComSimpleAudioSurrogate:#EditorCommon.JsonModel.Component",
      "classname": "CCBackgroundAudio",
      "name": "CCBackgroundAudio",
      "file": null,
      "fileData": {
        "path": null,
        "plistFile": null,
        "resourceType": 0
      },
      "loop": 0
    }
  ]
}