{
  "classname": null,
  "name": null,
  "animation": {
    "classname": null,
    "name": "AnimationManager",
    "actionlist": []
  },
  "designHeight": 417,
  "designWidth": 608,
  "textures": [],
  "version": "1.1.0.0",
  "widgetTree": {
    "classname": "Panel",
    "name": null,
    "children": [
      {
        "classname": "Label",
        "name": null,
        "children": [],
        "options": {
          "__type": "ComGUILabelSurrogate:#EditorCommon.JsonModel.Component.GUI",
          "classname": "Label",
          "name": "youqingtishi",
          "ZOrder": 3,
          "actiontag": 119,
          "anchorPointX": 0.5,
          "anchorPointY": 0.5,
          "classType": null,
          "colorB": 13,
          "colorG": 93,
          "colorR": 47,
          "flipX": false,
          "flipY": false,
          "height": 0,
          "ignoreSize": true,
          "layoutParameter": null,
          "opacity": 255,
          "positionPercentX": 0.6677631,
          "positionPercentY": 0.112709835,
          "positionType": 0,
          "rotation": 0,
          "scaleX": 1,
          "scaleY": 1,
          "sizePercentX": 0.53,
          "sizePercentY": 0.03,
          "sizeType": 0,
          "tag": 17,
          "touchAble": false,
          "useMergedTexture": false,
          "visible": true,
          "width": 0,
          "x": 406,
          "y": 47,
          "fontName": "黑体",
          "fontSize": 14,
          "fontType": 1,
          "text": "友情提示：家族等级越高，可购买的道具种类越多。",
          "touchScaleEnable": false
        }
      },
      {
        "classname": "Panel",
        "name": null,
        "children": [
          {
            "classname": "Panel",
            "name": null,
            "children": [
              {
                "classname": "ImageView",
                "name": null,
                "children": [],
                "options": {
                  "__type": "ComGUIImageViewSurrogate:#EditorCommon.JsonModel.Component.GUI",
                  "classname": "ImageView",
                  "name": "ImageView_94",
                  "ZOrder": -1,
                  "actiontag": 94,
                  "anchorPointX": 0,
                  "anchorPointY": 0,
                  "classType": null,
                  "colorB": 255,
                  "colorG": 255,
                  "colorR": 255,
                  "flipX": false,
                  "flipY": false,
                  "height": 417,
                  "ignoreSize": false,
                  "layoutParameter": null,
                  "opacity": 255,
                  "positionPercentX": 0,
                  "positionPercentY": 0,
                  "positionType": 0,
                  "rotation": 0,
                  "scaleX": 1,
                  "scaleY": 1,
                  "sizePercentX": 1,
                  "sizePercentY": 1,
                  "sizeType": 0,
                  "tag": 37,
                  "touchAble": false,
                  "useMergedTexture": false,
                  "visible": true,
                  "width": 608,
                  "x": 0,
                  "y": 0,
                  "capInsetsHeight": 1,
                  "capInsetsWidth": 1,
                  "capInsetsX": 30,
                  "capInsetsY": 30,
                  "fileName": null,
                  "fileNameData": {
                    "path": "shadow_0.png",
                    "plistFile": null,
                    "resourceType": 0
                  },
                  "scale9Enable": true,
                  "scale9Height": 417,
                  "scale9Width": 608
                }
              },
              {
                "classname": "Panel",
                "name": null,
                "children": [
                  {
                    "classname": "ImageView",
                    "name": null,
                    "children": [],
                    "options": {
                      "__type": "ComGUIImageViewSurrogate:#EditorCommon.JsonModel.Component.GUI",
                      "classname": "ImageView",
                      "name": "ImageView_26",
                      "ZOrder": 0,
                      "actiontag": 26,
                      "anchorPointX": 0.5,
                      "anchorPointY": 0.5,
                      "classType": null,
                      "colorB": 255,
                      "colorG": 255,
                      "colorR": 255,
                      "flipX": false,
                      "flipY": false,
                      "height": 19,
                      "ignoreSize": false,
                      "layoutParameter": null,
                      "opacity": 255,
                      "positionPercentX": 0.258333325,
                      "positionPercentY": 0.8825,
                      "positionType": 0,
                      "rotation": 0,
                      "scaleX": 1.1,
                      "scaleY": 1,
                      "sizePercentX": 0.299999982,
                      "sizePercentY": 0.049999997,
                      "sizeType": 0,
                      "tag": 6,
                      "touchAble": false,
                      "useMergedTexture": false,
                      "visible": true,
                      "width": 182,
                      "x": 155,
                      "y": 353,
                      "capInsetsHeight": 0,
                      "capInsetsWidth": 0,
                      "capInsetsX": 0,
                      "capInsetsY": 0,
                      "fileName": null,
                      "fileNameData": {
                        "path": "mo_2.png",
                        "plistFile": null,
                        "resourceType": 0
                      },
                      "scale9Enable": false,
                      "scale9Height": 19,
                      "scale9Width": 182
                    }
                  },
                  {
                    "classname": "LabelBMFont",
                    "name": null,
                    "children": [],
                    "options": {
                      "__type": "ComGUILabelBMFontSurrogate:#EditorCommon.JsonModel.Component.GUI",
                      "classname": "LabelBMFont",
                      "name": "LabelBMFont_28",
                      "ZOrder": 0,
                      "actiontag": 28,
                      "anchorPointX": 0.5,
                      "anchorPointY": 0.5,
                      "classType": null,
                      "colorB": 255,
                      "colorG": 255,
                      "colorR": 255,
                      "flipX": false,
                      "flipY": false,
                      "height": 35,
                      "ignoreSize": true,
                      "layoutParameter": null,
                      "opacity": 255,
                      "positionPercentX": 0.24666667,
                      "positionPercentY": 0.8925,
                      "positionType": 0,
                      "rotation": 0,
                      "scaleX": 1.2,
                      "scaleY": 1.2,
                      "sizePercentX": 0.19,
                      "sizePercentY": 0.0899999961,
                      "sizeType": 0,
                      "tag": 8,
                      "touchAble": false,
                      "useMergedTexture": false,
                      "visible": true,
                      "width": 116,
                      "x": 148,
                      "y": 357,
                      "fileNameData": {
                        "path": "font/ziti_1.fnt",
                        "plistFile": null,
                        "resourceType": 0
                      },
                      "text": "家族商店"
                    }
                  },
                  {
                    "classname": "ImageView",
                    "name": null,
                    "children": [],
                    "options": {
                      "__type": "ComGUIImageViewSurrogate:#EditorCommon.JsonModel.Component.GUI",
                      "classname": "ImageView",
                      "name": "ImageView_32",
                      "ZOrder": 0,
                      "actiontag": 32,
                      "anchorPointX": 0.5,
                      "anchorPointY": 0.5,
                      "classType": null,
                      "colorB": 255,
                      "colorG": 255,
                      "colorR": 255,
                      "flipX": false,
                      "flipY": false,
                      "height": 277,
                      "ignoreSize": false,
                      "layoutParameter": null,
                      "opacity": 255,
                      "positionPercentX": 0.4983333,
                      "positionPercentY": 0.5,
                      "positionType": 0,
                      "rotation": 0,
                      "scaleX": 1,
                      "scaleY": 1,
                      "sizePercentX": 0.859999955,
                      "sizePercentY": 0.69,
                      "sizeType": 0,
                      "tag": 9,
                      "touchAble": false,
                      "useMergedTexture": false,
                      "visible": true,
                      "width": 515,
                      "x": 299,
                      "y": 200,
                      "capInsetsHeight": 1,
                      "capInsetsWidth": 1,
                      "capInsetsX": 16,
                      "capInsetsY": 16,
                      "fileName": null,
                      "fileNameData": {
                        "path": "no1_di.png",
                        "plistFile": null,
                        "resourceType": 0
                      },
                      "scale9Enable": true,
                      "scale9Height": 277,
                      "scale9Width": 515
                    }
                  },
                  {
                    "classname": "Label",
                    "name": null,
                    "children": [],
                    "options": {
                      "__type": "ComGUILabelSurrogate:#EditorCommon.JsonModel.Component.GUI",
                      "classname": "Label",
                      "name": "Label_34",
                      "ZOrder": 0,
                      "actiontag": 34,
                      "anchorPointX": 0.5,
                      "anchorPointY": 0,
                      "classType": null,
                      "colorB": 13,
                      "colorG": 93,
                      "colorR": 47,
                      "flipX": false,
                      "flipY": false,
                      "height": 0,
                      "ignoreSize": true,
                      "layoutParameter": null,
                      "opacity": 255,
                      "positionPercentX": 0.196666673,
                      "positionPercentY": 0.08,
                      "positionType": 0,
                      "rotation": 0,
                      "scaleX": 1,
                      "scaleY": 1,
                      "sizePercentX": 0.21,
                      "sizePercentY": 0.04,
                      "sizeType": 0,
                      "tag": 11,
                      "touchAble": false,
                      "useMergedTexture": false,
                      "visible": true,
                      "width": 0,
                      "x": 118,
                      "y": 32,
                      "fontName": "黑体",
                      "fontSize": 18,
                      "fontType": 1,
                      "text": "我的剩余贡献：",
                      "touchScaleEnable": false
                    }
                  },
                  {
                    "classname": "Label",
                    "name": null,
                    "children": [],
                    "options": {
                      "__type": "ComGUILabelSurrogate:#EditorCommon.JsonModel.Component.GUI",
                      "classname": "Label",
                      "name": "Label_activityValue",
                      "ZOrder": 0,
                      "actiontag": 35,
                      "anchorPointX": 0,
                      "anchorPointY": 0,
                      "classType": null,
                      "colorB": 13,
                      "colorG": 93,
                      "colorR": 47,
                      "flipX": false,
                      "flipY": false,
                      "height": 0,
                      "ignoreSize": true,
                      "layoutParameter": null,
                      "opacity": 255,
                      "positionPercentX": 0.291666657,
                      "positionPercentY": 0.08,
                      "positionType": 0,
                      "rotation": 0,
                      "scaleX": 1,
                      "scaleY": 1,
                      "sizePercentX": 0.04,
                      "sizePercentY": 0.04,
                      "sizeType": 0,
                      "tag": 12,
                      "touchAble": false,
                      "useMergedTexture": false,
                      "visible": true,
                      "width": 0,
                      "x": 175,
                      "y": 32,
                      "fontName": "黑体",
                      "fontSize": 18,
                      "fontType": 1,
                      "text": "123",
                      "touchScaleEnable": false
                    }
                  }
                ],
                "options": {
                  "__type": "ComGUIPanelSurrogate:#EditorCommon.JsonModel.Component.GUI",
                  "classname": "Panel",
                  "name": "Panel_honorShop",
                  "ZOrder": 3,
                  "actiontag": 25,
                  "anchorPointX": 0,
                  "anchorPointY": 0,
                  "classType": null,
                  "colorB": 255,
                  "colorG": 255,
                  "colorR": 255,
                  "flipX": false,
                  "flipY": false,
                  "height": 400,
                  "ignoreSize": false,
                  "layoutParameter": null,
                  "opacity": 255,
                  "positionPercentX": 0.00493421,
                  "positionPercentY": 0.01438849,
                  "positionType": 0,
                  "rotation": 0,
                  "scaleX": 1,
                  "scaleY": 1,
                  "sizePercentX": 0.98999995,
                  "sizePercentY": 0.96,
                  "sizeType": 0,
                  "tag": 5,
                  "touchAble": false,
                  "useMergedTexture": false,
                  "visible": true,
                  "width": 600,
                  "x": 3,
                  "y": 6,
                  "backGroundImage": null,
                  "backGroundImageData": null,
                  "backGroundScale9Enable": false,
                  "bgColorB": 255,
                  "bgColorG": 200,
                  "bgColorOpacity": 0,
                  "bgColorR": 150,
                  "bgEndColorB": 255,
                  "bgEndColorG": 0,
                  "bgEndColorR": 0,
                  "bgStartColorB": 255,
                  "bgStartColorG": 255,
                  "bgStartColorR": 255,
                  "capInsetsHeight": 0,
                  "capInsetsWidth": 0,
                  "capInsetsX": 0,
                  "capInsetsY": 0,
                  "clipAble": false,
                  "colorType": 1,
                  "layoutType": 0,
                  "vectorX": 0,
                  "vectorY": -0.5
                }
              },
              {
                "classname": "Button",
                "name": null,
                "children": [],
                "options": {
                  "__type": "ComGUIButtonSurrogate:#EditorCommon.JsonModel.Component.GUI",
                  "classname": "Button",
                  "name": "Button_close",
                  "ZOrder": 2,
                  "actiontag": 24,
                  "anchorPointX": 0.5,
                  "anchorPointY": 0.5,
                  "classType": null,
                  "colorB": 255,
                  "colorG": 255,
                  "colorR": 255,
                  "flipX": false,
                  "flipY": false,
                  "height": 50,
                  "ignoreSize": true,
                  "layoutParameter": null,
                  "opacity": 255,
                  "positionPercentX": 0.9325658,
                  "positionPercentY": 0.92086333,
                  "positionType": 0,
                  "rotation": 0,
                  "scaleX": 1,
                  "scaleY": 1,
                  "sizePercentX": 0.08,
                  "sizePercentY": 0.12,
                  "sizeType": 0,
                  "tag": 4,
                  "touchAble": false,
                  "useMergedTexture": false,
                  "visible": true,
                  "width": 50,
                  "x": 567,
                  "y": 384,
                  "capInsetsHeight": 0,
                  "capInsetsWidth": 0,
                  "capInsetsX": 0,
                  "capInsetsY": 0,
                  "disabled": null,
                  "disabledData": {
                    "path": null,
                    "plistFile": null,
                    "resourceType": 0
                  },
                  "normal": null,
                  "normalData": {
                    "path": "close.png",
                    "plistFile": null,
                    "resourceType": 0
                  },
                  "pressed": null,
                  "pressedData": {
                    "path": "close.png",
                    "plistFile": null,
                    "resourceType": 0
                  },
                  "scale9Enable": false,
                  "scale9Height": 50,
                  "scale9Width": 50
                }
              },
              {
                "classname": "ImageView",
                "name": null,
                "children": [
                  {
                    "classname": "ImageView",
                    "name": null,
                    "children": [],
                    "options": {
                      "__type": "ComGUIImageViewSurrogate:#EditorCommon.JsonModel.Component.GUI",
                      "classname": "ImageView",
                      "name": "ImageView_23",
                      "ZOrder": 0,
                      "actiontag": 23,
                      "anchorPointX": 0.5,
                      "anchorPointY": 0.5,
                      "classType": null,
                      "colorB": 255,
                      "colorG": 255,
                      "colorR": 255,
                      "flipX": false,
                      "flipY": false,
                      "height": 60,
                      "ignoreSize": true,
                      "layoutParameter": null,
                      "opacity": 255,
                      "positionPercentX": 0.8476821,
                      "positionPercentY": 0.885,
                      "positionType": 0,
                      "rotation": 0,
                      "scaleX": 1,
                      "scaleY": 1,
                      "sizePercentX": 0.179999992,
                      "sizePercentY": 0.149999991,
                      "sizeType": 0,
                      "tag": 3,
                      "touchAble": false,
                      "useMergedTexture": false,
                      "visible": true,
                      "width": 108,
                      "x": 512,
                      "y": 354,
                      "capInsetsHeight": 0,
                      "capInsetsWidth": 0,
                      "capInsetsX": 0,
                      "capInsetsY": 0,
                      "fileName": null,
                      "fileNameData": {
                        "path": "tietu_flower.png",
                        "plistFile": null,
                        "resourceType": 0
                      },
                      "scale9Enable": false,
                      "scale9Height": 60,
                      "scale9Width": 108
                    }
                  }
                ],
                "options": {
                  "__type": "ComGUIImageViewSurrogate:#EditorCommon.JsonModel.Component.GUI",
                  "classname": "ImageView",
                  "name": "ImageView_22",
                  "ZOrder": 1,
                  "actiontag": 22,
                  "anchorPointX": 0,
                  "anchorPointY": 0,
                  "classType": null,
                  "colorB": 255,
                  "colorG": 255,
                  "colorR": 255,
                  "flipX": false,
                  "flipY": false,
                  "height": 400,
                  "ignoreSize": false,
                  "layoutParameter": null,
                  "opacity": 255,
                  "positionPercentX": 0.00493421,
                  "positionPercentY": 0.01438849,
                  "positionType": 0,
                  "rotation": 0,
                  "scaleX": 1,
                  "scaleY": 1,
                  "sizePercentX": 0.98999995,
                  "sizePercentY": 0.96,
                  "sizeType": 0,
                  "tag": 2,
                  "touchAble": false,
                  "useMergedTexture": false,
                  "visible": true,
                  "width": 604,
                  "x": 3,
                  "y": 6,
                  "capInsetsHeight": 0,
                  "capInsetsWidth": 0,
                  "capInsetsX": 0,
                  "capInsetsY": 0,
                  "fileName": null,
                  "fileNameData": {
                    "path": "dikuang_new.png",
                    "plistFile": null,
                    "resourceType": 0
                  },
                  "scale9Enable": true,
                  "scale9Height": 400,
                  "scale9Width": 604
                }
              }
            ],
            "options": {
              "__type": "ComGUIPanelSurrogate:#EditorCommon.JsonModel.Component.GUI",
              "classname": "Panel",
              "name": "Panel_20",
              "ZOrder": 1,
              "actiontag": -1,
              "anchorPointX": 0,
              "anchorPointY": 0,
              "classType": null,
              "colorB": 255,
              "colorG": 255,
              "colorR": 255,
              "flipX": false,
              "flipY": false,
              "height": 417,
              "ignoreSize": false,
              "layoutParameter": null,
              "opacity": 255,
              "positionPercentX": 0,
              "positionPercentY": 0,
              "positionType": 0,
              "rotation": 0,
              "scaleX": 1,
              "scaleY": 1,
              "sizePercentX": 1,
              "sizePercentY": 1,
              "sizeType": 0,
              "tag": 1,
              "touchAble": false,
              "useMergedTexture": false,
              "visible": true,
              "width": 608,
              "x": 0,
              "y": 0,
              "backGroundImage": null,
              "backGroundImageData": null,
              "backGroundScale9Enable": false,
              "bgColorB": 255,
              "bgColorG": 200,
              "bgColorOpacity": 0,
              "bgColorR": 150,
              "bgEndColorB": 255,
              "bgEndColorG": 0,
              "bgEndColorR": 0,
              "bgStartColorB": 255,
              "bgStartColorG": 255,
              "bgStartColorR": 255,
              "capInsetsHeight": 0,
              "capInsetsWidth": 0,
              "capInsetsX": 0,
              "capInsetsY": 0,
              "clipAble": false,
              "colorType": 1,
              "layoutType": 0,
              "vectorX": 0,
              "vectorY": -0.5
            }
          }
        ],
        "options": {
          "__type": "ComGUIPanelSurrogate:#EditorCommon.JsonModel.Component.GUI",
          "classname": "Panel",
          "name": "Panel_20",
          "ZOrder": 1,
          "actiontag": 20,
          "anchorPointX": 0,
          "anchorPointY": 0,
          "classType": null,
          "colorB": 255,
          "colorG": 255,
          "colorR": 255,
          "flipX": false,
          "flipY": false,
          "height": 417,
          "ignoreSize": false,
          "layoutParameter": null,
          "opacity": 255,
          "positionPercentX": 0,
          "positionPercentY": 0,
          "positionType": 0,
          "rotation": 0,
          "scaleX": 1,
          "scaleY": 1,
          "sizePercentX": 1,
          "sizePercentY": 1,
          "sizeType": 0,
          "tag": 1,
          "touchAble": false,
          "useMergedTexture": false,
          "visible": true,
          "width": 608,
          "x": 0,
          "y": 0,
          "backGroundImage": null,
          "backGroundImageData": null,
          "backGroundScale9Enable": false,
          "bgColorB": 255,
          "bgColorG": 200,
          "bgColorOpacity": 0,
          "bgColorR": 150,
          "bgEndColorB": 255,
          "bgEndColorG": 0,
          "bgEndColorR": 0,
          "bgStartColorB": 255,
          "bgStartColorG": 255,
          "bgStartColorR": 255,
          "capInsetsHeight": 0,
          "capInsetsWidth": 0,
          "capInsetsX": 0,
          "capInsetsY": 0,
          "clipAble": false,
          "colorType": 1,
          "layoutType": 0,
          "vectorX": 0,
          "vectorY": -0.5
        }
      }
    ],
    "options": {
      "__type": "ComGUIPanelSurrogate:#EditorCommon.JsonModel.Component.GUI",
      "classname": "Panel",
      "name": "Panel_20",
      "ZOrder": 0,
      "actiontag": -1,
      "anchorPointX": 0,
      "anchorPointY": 0,
      "classType": null,
      "colorB": 255,
      "colorG": 255,
      "colorR": 255,
      "flipX": false,
      "flipY": false,
      "height": 417,
      "ignoreSize": false,
      "layoutParameter": null,
      "opacity": 255,
      "positionPercentX": 0,
      "positionPercentY": 0,
      "positionType": 0,
      "rotation": 0,
      "scaleX": 1,
      "scaleY": 1,
      "sizePercentX": 0.01,
      "sizePercentY": 0.01,
      "sizeType": 0,
      "tag": 1,
      "touchAble": false,
      "useMergedTexture": false,
      "visible": true,
      "width": 608,
      "x": 0,
      "y": 0,
      "backGroundImage": null,
      "backGroundImageData": null,
      "backGroundScale9Enable": false,
      "bgColorB": 255,
      "bgColorG": 200,
      "bgColorOpacity": 0,
      "bgColorR": 150,
      "bgEndColorB": 255,
      "bgEndColorG": 0,
      "bgEndColorR": 0,
      "bgStartColorB": 255,
      "bgStartColorG": 255,
      "bgStartColorR": 255,
      "capInsetsHeight": 0,
      "capInsetsWidth": 0,
      "capInsetsX": 0,
      "capInsetsY": 0,
      "clipAble": false,
      "colorType": 1,
      "layoutType": 0,
      "vectorX": 0,
      "vectorY": -0.5
    }
  }
}