{
  "classname": null,
  "name": null,
  "animation": {
    "classname": null,
    "name": "AnimationManager",
    "actionlist": []
  },
  "designHeight": 430,
  "designWidth": 640,
  "textures": [],
  "version": "1.1.0.0",
  "widgetTree": {
    "classname": "Panel",
    "name": null,
    "children": [
      {
        "classname": "Label",
        "name": null,
        "children": [],
        "options": {
          "__type": "ComGUILabelSurrogate:#EditorCommon.JsonModel.Component.GUI",
          "classname": "Label",
          "name": "Label_214",
          "ZOrder": 2,
          "actiontag": 214,
          "anchorPointX": 0.5,
          "anchorPointY": 0.5,
          "classType": null,
          "colorB": 13,
          "colorG": 93,
          "colorR": 47,
          "flipX": false,
          "flipY": false,
          "height": 0,
          "ignoreSize": true,
          "layoutParameter": null,
          "opacity": 255,
          "positionPercentX": 0.7203125,
          "positionPercentY": 0.09302325,
          "positionType": 0,
          "rotation": 0,
          "scaleX": 1,
          "scaleY": 1,
          "sizePercentX": 0.399999976,
          "sizePercentY": 0.04,
          "sizeType": 0,
          "tag": 45,
          "touchAble": false,
          "useMergedTexture": false,
          "visible": true,
          "width": 0,
          "x": 461,
          "y": 40,
          "fontName": "黑体",
          "fontSize": 16,
          "fontType": 1,
          "text": "友情提示：按昨日最高关卡数据排名",
          "touchScaleEnable": false
        }
      },
      {
        "classname": "Panel",
        "name": null,
        "children": [
          {
            "classname": "Panel",
            "name": null,
            "children": [
              {
                "classname": "LabelBMFont",
                "name": null,
                "children": [],
                "options": {
                  "__type": "ComGUILabelBMFontSurrogate:#EditorCommon.JsonModel.Component.GUI",
                  "classname": "LabelBMFont",
                  "name": "LabelBMFont_rankingValue",
                  "ZOrder": 0,
                  "actiontag": 134,
                  "anchorPointX": 0,
                  "anchorPointY": 0.5,
                  "classType": null,
                  "colorB": 255,
                  "colorG": 255,
                  "colorR": 255,
                  "flipX": false,
                  "flipY": false,
                  "height": 21,
                  "ignoreSize": true,
                  "layoutParameter": null,
                  "opacity": 255,
                  "positionPercentX": 0.259375,
                  "positionPercentY": 0.095348835,
                  "positionType": 0,
                  "rotation": 0,
                  "scaleX": 1,
                  "scaleY": 1,
                  "sizePercentX": 0.06,
                  "sizePercentY": 0.049999997,
                  "sizeType": 0,
                  "tag": 43,
                  "touchAble": false,
                  "useMergedTexture": false,
                  "visible": true,
                  "width": 36,
                  "x": 166,
                  "y": 41,
                  "fileNameData": {
                    "path": "font/ziti_3.fnt",
                    "plistFile": null,
                    "resourceType": 0
                  },
                  "text": "123"
                }
              },
              {
                "classname": "LabelBMFont",
                "name": null,
                "children": [],
                "options": {
                  "__type": "ComGUILabelBMFontSurrogate:#EditorCommon.JsonModel.Component.GUI",
                  "classname": "LabelBMFont",
                  "name": "LabelBMFont_43_0_0",
                  "ZOrder": 0,
                  "actiontag": 133,
                  "anchorPointX": 0,
                  "anchorPointY": 0.5,
                  "classType": null,
                  "colorB": 255,
                  "colorG": 255,
                  "colorR": 255,
                  "flipX": false,
                  "flipY": false,
                  "height": 21,
                  "ignoreSize": true,
                  "layoutParameter": null,
                  "opacity": 255,
                  "positionPercentX": 0.114062496,
                  "positionPercentY": 0.095348835,
                  "positionType": 0,
                  "rotation": 0,
                  "scaleX": 1,
                  "scaleY": 1,
                  "sizePercentX": 0.16,
                  "sizePercentY": 0.049999997,
                  "sizeType": 0,
                  "tag": 42,
                  "touchAble": false,
                  "useMergedTexture": false,
                  "visible": true,
                  "width": 100,
                  "x": 73,
                  "y": 41,
                  "fileNameData": {
                    "path": "font/ziti_3.fnt",
                    "plistFile": null,
                    "resourceType": 0
                  },
                  "text": "昨日排名："
                }
              },
              {
                "classname": "ImageView",
                "name": null,
                "children": [
                  {
                    "classname": "ImageView",
                    "name": null,
                    "children": [
                      {
                        "classname": "LabelBMFont",
                        "name": null,
                        "children": [],
                        "options": {
                          "__type": "ComGUILabelBMFontSurrogate:#EditorCommon.JsonModel.Component.GUI",
                          "classname": "LabelBMFont",
                          "name": "LabelBMFont_47_0_0",
                          "ZOrder": 0,
                          "actiontag": 62,
                          "anchorPointX": 0,
                          "anchorPointY": 0.5,
                          "classType": null,
                          "colorB": 255,
                          "colorG": 255,
                          "colorR": 255,
                          "flipX": false,
                          "flipY": false,
                          "height": 35,
                          "ignoreSize": true,
                          "layoutParameter": null,
                          "opacity": 255,
                          "positionPercentX": 0.9484536,
                          "positionPercentY": 0,
                          "positionType": 0,
                          "rotation": 0,
                          "scaleX": -0.75,
                          "scaleY": 0.75,
                          "sizePercentX": 1.19999993,
                          "sizePercentY": 1.09,
                          "sizeType": 0,
                          "tag": 33,
                          "touchAble": false,
                          "useMergedTexture": false,
                          "visible": true,
                          "width": 116,
                          "x": 92,
                          "y": 0,
                          "fileNameData": {
                            "path": "font/ziti_1.fnt",
                            "plistFile": null,
                            "resourceType": 0
                          },
                          "text": "关卡用时"
                        }
                      }
                    ],
                    "options": {
                      "__type": "ComGUIImageViewSurrogate:#EditorCommon.JsonModel.Component.GUI",
                      "classname": "ImageView",
                      "name": "ImageView_45_0_0",
                      "ZOrder": 0,
                      "actiontag": 61,
                      "anchorPointX": 0,
                      "anchorPointY": 0.5,
                      "classType": null,
                      "colorB": 255,
                      "colorG": 255,
                      "colorR": 255,
                      "flipX": false,
                      "flipY": false,
                      "height": 32,
                      "ignoreSize": false,
                      "layoutParameter": null,
                      "opacity": 255,
                      "positionPercentX": 0.9928058,
                      "positionPercentY": 0.9342105,
                      "positionType": 0,
                      "rotation": 0,
                      "scaleX": -1,
                      "scaleY": 1,
                      "sizePercentX": 0.17,
                      "sizePercentY": 0.11,
                      "sizeType": 0,
                      "tag": 16,
                      "touchAble": false,
                      "useMergedTexture": false,
                      "visible": true,
                      "width": 97,
                      "x": 552,
                      "y": 284,
                      "capInsetsHeight": 1,
                      "capInsetsWidth": 1,
                      "capInsetsX": 37,
                      "capInsetsY": 4,
                      "fileName": null,
                      "fileNameData": {
                        "path": "button_14.png",
                        "plistFile": null,
                        "resourceType": 0
                      },
                      "scale9Enable": true,
                      "scale9Height": 32,
                      "scale9Width": 97
                    }
                  },
                  {
                    "classname": "ImageView",
                    "name": null,
                    "children": [
                      {
                        "classname": "LabelBMFont",
                        "name": null,
                        "children": [],
                        "options": {
                          "__type": "ComGUILabelBMFontSurrogate:#EditorCommon.JsonModel.Component.GUI",
                          "classname": "LabelBMFont",
                          "name": "LabelBMFont_49_0_0_0_1",
                          "ZOrder": 0,
                          "actiontag": 64,
                          "anchorPointX": 0.5,
                          "anchorPointY": 0.5,
                          "classType": null,
                          "colorB": 255,
                          "colorG": 255,
                          "colorR": 255,
                          "flipX": false,
                          "flipY": false,
                          "height": 35,
                          "ignoreSize": true,
                          "layoutParameter": null,
                          "opacity": 255,
                          "positionPercentX": 0.5,
                          "positionPercentY": 0,
                          "positionType": 0,
                          "rotation": 0,
                          "scaleX": 0.75,
                          "scaleY": 0.75,
                          "sizePercentX": 1.18,
                          "sizePercentY": 1.09,
                          "sizeType": 0,
                          "tag": 35,
                          "touchAble": false,
                          "useMergedTexture": false,
                          "visible": true,
                          "width": 116,
                          "x": 49,
                          "y": 0,
                          "fileNameData": {
                            "path": "font/ziti_1.fnt",
                            "plistFile": null,
                            "resourceType": 0
                          },
                          "text": "最高关卡"
                        }
                      }
                    ],
                    "options": {
                      "__type": "ComGUIImageViewSurrogate:#EditorCommon.JsonModel.Component.GUI",
                      "classname": "ImageView",
                      "name": "ImageView_48_0_0_0_1",
                      "ZOrder": 0,
                      "actiontag": 63,
                      "anchorPointX": 0,
                      "anchorPointY": 0.5,
                      "classType": null,
                      "colorB": 255,
                      "colorG": 255,
                      "colorR": 255,
                      "flipX": false,
                      "flipY": false,
                      "height": 32,
                      "ignoreSize": false,
                      "layoutParameter": null,
                      "opacity": 255,
                      "positionPercentX": 0.6438849,
                      "positionPercentY": 0.9342105,
                      "positionType": 0,
                      "rotation": 0,
                      "scaleX": 1,
                      "scaleY": 1,
                      "sizePercentX": 0.179999992,
                      "sizePercentY": 0.11,
                      "sizeType": 0,
                      "tag": 19,
                      "touchAble": false,
                      "useMergedTexture": false,
                      "visible": true,
                      "width": 98,
                      "x": 358,
                      "y": 284,
                      "capInsetsHeight": 0,
                      "capInsetsWidth": 0,
                      "capInsetsX": 0,
                      "capInsetsY": 0,
                      "fileName": null,
                      "fileNameData": {
                        "path": "button_13.png",
                        "plistFile": null,
                        "resourceType": 0
                      },
                      "scale9Enable": true,
                      "scale9Height": 32,
                      "scale9Width": 98
                    }
                  },
                  {
                    "classname": "ImageView",
                    "name": null,
                    "children": [
                      {
                        "classname": "LabelBMFont",
                        "name": null,
                        "children": [],
                        "options": {
                          "__type": "ComGUILabelBMFontSurrogate:#EditorCommon.JsonModel.Component.GUI",
                          "classname": "LabelBMFont",
                          "name": "LabelBMFont_49_0_0_1",
                          "ZOrder": 0,
                          "actiontag": 66,
                          "anchorPointX": 0.5,
                          "anchorPointY": 0.5,
                          "classType": null,
                          "colorB": 255,
                          "colorG": 255,
                          "colorR": 255,
                          "flipX": false,
                          "flipY": false,
                          "height": 35,
                          "ignoreSize": true,
                          "layoutParameter": null,
                          "opacity": 255,
                          "positionPercentX": 0.5272727,
                          "positionPercentY": 0,
                          "positionType": 0,
                          "rotation": 0,
                          "scaleX": 0.75,
                          "scaleY": 0.75,
                          "sizePercentX": 1.05,
                          "sizePercentY": 1.09,
                          "sizeType": 0,
                          "tag": 37,
                          "touchAble": false,
                          "useMergedTexture": false,
                          "visible": true,
                          "width": 58,
                          "x": 29,
                          "y": 0,
                          "fileNameData": {
                            "path": "font/ziti_1.fnt",
                            "plistFile": null,
                            "resourceType": 0
                          },
                          "text": "等级"
                        }
                      }
                    ],
                    "options": {
                      "__type": "ComGUIImageViewSurrogate:#EditorCommon.JsonModel.Component.GUI",
                      "classname": "ImageView",
                      "name": "ImageView_48_0_0_1",
                      "ZOrder": 0,
                      "actiontag": 65,
                      "anchorPointX": 0,
                      "anchorPointY": 0.5,
                      "classType": null,
                      "colorB": 255,
                      "colorG": 255,
                      "colorR": 255,
                      "flipX": false,
                      "flipY": false,
                      "height": 32,
                      "ignoreSize": false,
                      "layoutParameter": null,
                      "opacity": 255,
                      "positionPercentX": 0.5467626,
                      "positionPercentY": 0.9342105,
                      "positionType": 0,
                      "rotation": 0,
                      "scaleX": 1,
                      "scaleY": 1,
                      "sizePercentX": 0.099999994,
                      "sizePercentY": 0.11,
                      "sizeType": 0,
                      "tag": 19,
                      "touchAble": false,
                      "useMergedTexture": false,
                      "visible": true,
                      "width": 55,
                      "x": 304,
                      "y": 284,
                      "capInsetsHeight": 0,
                      "capInsetsWidth": 0,
                      "capInsetsX": 0,
                      "capInsetsY": 0,
                      "fileName": null,
                      "fileNameData": {
                        "path": "button_13.png",
                        "plistFile": null,
                        "resourceType": 0
                      },
                      "scale9Enable": true,
                      "scale9Height": 32,
                      "scale9Width": 55
                    }
                  },
                  {
                    "classname": "ImageView",
                    "name": null,
                    "children": [
                      {
                        "classname": "LabelBMFont",
                        "name": null,
                        "children": [],
                        "options": {
                          "__type": "ComGUILabelBMFontSurrogate:#EditorCommon.JsonModel.Component.GUI",
                          "classname": "LabelBMFont",
                          "name": "LabelBMFont_49_0_1",
                          "ZOrder": 0,
                          "actiontag": 68,
                          "anchorPointX": 0.5,
                          "anchorPointY": 0.5,
                          "classType": null,
                          "colorB": 255,
                          "colorG": 255,
                          "colorR": 255,
                          "flipX": false,
                          "flipY": false,
                          "height": 35,
                          "ignoreSize": true,
                          "layoutParameter": null,
                          "opacity": 255,
                          "positionPercentX": 0.507936537,
                          "positionPercentY": 0,
                          "positionType": 0,
                          "rotation": 0,
                          "scaleX": 0.75,
                          "scaleY": 0.75,
                          "sizePercentX": 0.919999957,
                          "sizePercentY": 1.09,
                          "sizeType": 0,
                          "tag": 39,
                          "touchAble": false,
                          "useMergedTexture": false,
                          "visible": true,
                          "width": 58,
                          "x": 32,
                          "y": 0,
                          "fileNameData": {
                            "path": "font/ziti_1.fnt",
                            "plistFile": null,
                            "resourceType": 0
                          },
                          "text": "职业"
                        }
                      }
                    ],
                    "options": {
                      "__type": "ComGUIImageViewSurrogate:#EditorCommon.JsonModel.Component.GUI",
                      "classname": "ImageView",
                      "name": "ImageView_48_0_1",
                      "ZOrder": 0,
                      "actiontag": 67,
                      "anchorPointX": 0,
                      "anchorPointY": 0.5,
                      "classType": null,
                      "colorB": 255,
                      "colorG": 255,
                      "colorR": 255,
                      "flipX": false,
                      "flipY": false,
                      "height": 32,
                      "ignoreSize": false,
                      "layoutParameter": null,
                      "opacity": 255,
                      "positionPercentX": 0.4352518,
                      "positionPercentY": 0.9342105,
                      "positionType": 0,
                      "rotation": 0,
                      "scaleX": 1,
                      "scaleY": 1,
                      "sizePercentX": 0.11,
                      "sizePercentY": 0.11,
                      "sizeType": 0,
                      "tag": 19,
                      "touchAble": false,
                      "useMergedTexture": false,
                      "visible": true,
                      "width": 63,
                      "x": 242,
                      "y": 284,
                      "capInsetsHeight": 0,
                      "capInsetsWidth": 0,
                      "capInsetsX": 0,
                      "capInsetsY": 0,
                      "fileName": null,
                      "fileNameData": {
                        "path": "button_13.png",
                        "plistFile": null,
                        "resourceType": 0
                      },
                      "scale9Enable": true,
                      "scale9Height": 32,
                      "scale9Width": 63
                    }
                  },
                  {
                    "classname": "ImageView",
                    "name": null,
                    "children": [
                      {
                        "classname": "LabelBMFont",
                        "name": null,
                        "children": [],
                        "options": {
                          "__type": "ComGUILabelBMFontSurrogate:#EditorCommon.JsonModel.Component.GUI",
                          "classname": "LabelBMFont",
                          "name": "LabelBMFont_47_1",
                          "ZOrder": 0,
                          "actiontag": 70,
                          "anchorPointX": 0,
                          "anchorPointY": 0.5,
                          "classType": null,
                          "colorB": 255,
                          "colorG": 255,
                          "colorR": 255,
                          "flipX": false,
                          "flipY": false,
                          "height": 35,
                          "ignoreSize": true,
                          "layoutParameter": null,
                          "opacity": 255,
                          "positionPercentX": 0.2840909,
                          "positionPercentY": 0,
                          "positionType": 0,
                          "rotation": 0,
                          "scaleX": 0.75,
                          "scaleY": 0.75,
                          "sizePercentX": 0.659999967,
                          "sizePercentY": 1.09,
                          "sizeType": 0,
                          "tag": 41,
                          "touchAble": false,
                          "useMergedTexture": false,
                          "visible": true,
                          "width": 58,
                          "x": 25,
                          "y": 0,
                          "fileNameData": {
                            "path": "font/ziti_1.fnt",
                            "plistFile": null,
                            "resourceType": 0
                          },
                          "text": "排名"
                        }
                      }
                    ],
                    "options": {
                      "__type": "ComGUIImageViewSurrogate:#EditorCommon.JsonModel.Component.GUI",
                      "classname": "ImageView",
                      "name": "ImageView_45_1",
                      "ZOrder": 0,
                      "actiontag": 69,
                      "anchorPointX": 0,
                      "anchorPointY": 0.5,
                      "classType": null,
                      "colorB": 255,
                      "colorG": 255,
                      "colorR": 255,
                      "flipX": false,
                      "flipY": false,
                      "height": 32,
                      "ignoreSize": false,
                      "layoutParameter": null,
                      "opacity": 255,
                      "positionPercentX": 0.008992806,
                      "positionPercentY": 0.9342105,
                      "positionType": 0,
                      "rotation": 0,
                      "scaleX": 1,
                      "scaleY": 1,
                      "sizePercentX": 0.16,
                      "sizePercentY": 0.11,
                      "sizeType": 0,
                      "tag": 16,
                      "touchAble": false,
                      "useMergedTexture": false,
                      "visible": true,
                      "width": 88,
                      "x": 5,
                      "y": 284,
                      "capInsetsHeight": 1,
                      "capInsetsWidth": 1,
                      "capInsetsX": 37,
                      "capInsetsY": 4,
                      "fileName": null,
                      "fileNameData": {
                        "path": "button_14.png",
                        "plistFile": null,
                        "resourceType": 0
                      },
                      "scale9Enable": true,
                      "scale9Height": 32,
                      "scale9Width": 88
                    }
                  },
                  {
                    "classname": "ImageView",
                    "name": null,
                    "children": [
                      {
                        "classname": "LabelBMFont",
                        "name": null,
                        "children": [],
                        "options": {
                          "__type": "ComGUILabelBMFontSurrogate:#EditorCommon.JsonModel.Component.GUI",
                          "classname": "LabelBMFont",
                          "name": "LabelBMFont_49_1",
                          "ZOrder": 0,
                          "actiontag": 72,
                          "anchorPointX": 0.5,
                          "anchorPointY": 0.5,
                          "classType": null,
                          "colorB": 255,
                          "colorG": 255,
                          "colorR": 255,
                          "flipX": false,
                          "flipY": false,
                          "height": 35,
                          "ignoreSize": true,
                          "layoutParameter": null,
                          "opacity": 255,
                          "positionPercentX": 0.470198661,
                          "positionPercentY": 0,
                          "positionType": 0,
                          "rotation": 0,
                          "scaleX": 0.75,
                          "scaleY": 0.75,
                          "sizePercentX": 0.38,
                          "sizePercentY": 1.09,
                          "sizeType": 0,
                          "tag": 43,
                          "touchAble": false,
                          "useMergedTexture": false,
                          "visible": true,
                          "width": 58,
                          "x": 71,
                          "y": 0,
                          "fileNameData": {
                            "path": "font/ziti_1.fnt",
                            "plistFile": null,
                            "resourceType": 0
                          },
                          "text": "名称"
                        }
                      }
                    ],
                    "options": {
                      "__type": "ComGUIImageViewSurrogate:#EditorCommon.JsonModel.Component.GUI",
                      "classname": "ImageView",
                      "name": "ImageView_48_1",
                      "ZOrder": 0,
                      "actiontag": 71,
                      "anchorPointX": 0,
                      "anchorPointY": 0.5,
                      "classType": null,
                      "colorB": 255,
                      "colorG": 255,
                      "colorR": 255,
                      "flipX": false,
                      "flipY": false,
                      "height": 32,
                      "ignoreSize": false,
                      "layoutParameter": null,
                      "opacity": 255,
                      "positionPercentX": 0.16546762,
                      "positionPercentY": 0.9342105,
                      "positionType": 0,
                      "rotation": 0,
                      "scaleX": 1,
                      "scaleY": 1,
                      "sizePercentX": 0.269999981,
                      "sizePercentY": 0.11,
                      "sizeType": 0,
                      "tag": 19,
                      "touchAble": false,
                      "useMergedTexture": false,
                      "visible": true,
                      "width": 151,
                      "x": 92,
                      "y": 284,
                      "capInsetsHeight": 0,
                      "capInsetsWidth": 0,
                      "capInsetsX": 0,
                      "capInsetsY": 0,
                      "fileName": null,
                      "fileNameData": {
                        "path": "button_13.png",
                        "plistFile": null,
                        "resourceType": 0
                      },
                      "scale9Enable": true,
                      "scale9Height": 32,
                      "scale9Width": 151
                    }
                  }
                ],
                "options": {
                  "__type": "ComGUIImageViewSurrogate:#EditorCommon.JsonModel.Component.GUI",
                  "classname": "ImageView",
                  "name": "ImageView_44_0",
                  "ZOrder": 0,
                  "actiontag": 60,
                  "anchorPointX": 0,
                  "anchorPointY": 0,
                  "classType": null,
                  "colorB": 255,
                  "colorG": 255,
                  "colorR": 255,
                  "flipX": false,
                  "flipY": false,
                  "height": 304,
                  "ignoreSize": false,
                  "layoutParameter": null,
                  "opacity": 255,
                  "positionPercentX": 0.103125,
                  "positionPercentY": 0.130232558,
                  "positionType": 0,
                  "rotation": 0,
                  "scaleX": 1,
                  "scaleY": 1,
                  "sizePercentX": 0.87,
                  "sizePercentY": 0.71,
                  "sizeType": 0,
                  "tag": 15,
                  "touchAble": false,
                  "useMergedTexture": false,
                  "visible": true,
                  "width": 556,
                  "x": 66,
                  "y": 56,
                  "capInsetsHeight": 1,
                  "capInsetsWidth": 1,
                  "capInsetsX": 32,
                  "capInsetsY": 32,
                  "fileName": null,
                  "fileNameData": {
                    "path": "LV5_dikuang_miaobian1.png",
                    "plistFile": null,
                    "resourceType": 0
                  },
                  "scale9Enable": true,
                  "scale9Height": 304,
                  "scale9Width": 556
                }
              },
              {
                "classname": "ImageView",
                "name": null,
                "children": [],
                "options": {
                  "__type": "ComGUIImageViewSurrogate:#EditorCommon.JsonModel.Component.GUI",
                  "classname": "ImageView",
                  "name": "ImageView_41_0",
                  "ZOrder": 0,
                  "actiontag": 95,
                  "anchorPointX": 0.5,
                  "anchorPointY": 0.5,
                  "classType": null,
                  "colorB": 255,
                  "colorG": 255,
                  "colorR": 255,
                  "flipX": false,
                  "flipY": false,
                  "height": 31,
                  "ignoreSize": true,
                  "layoutParameter": null,
                  "opacity": 255,
                  "positionPercentX": 0.371875,
                  "positionPercentY": 0.872093,
                  "positionType": 0,
                  "rotation": 0,
                  "scaleX": 1.50000012,
                  "scaleY": 0.5999999,
                  "sizePercentX": 0.32,
                  "sizePercentY": 0.07,
                  "sizeType": 0,
                  "tag": 12,
                  "touchAble": false,
                  "useMergedTexture": false,
                  "visible": true,
                  "width": 202,
                  "x": 238,
                  "y": 375,
                  "capInsetsHeight": 0,
                  "capInsetsWidth": 0,
                  "capInsetsX": 0,
                  "capInsetsY": 0,
                  "fileName": null,
                  "fileNameData": {
                    "path": "mo_2.png",
                    "plistFile": null,
                    "resourceType": 0
                  },
                  "scale9Enable": false,
                  "scale9Height": 31,
                  "scale9Width": 202
                }
              },
              {
                "classname": "LabelBMFont",
                "name": null,
                "children": [],
                "options": {
                  "__type": "ComGUILabelBMFontSurrogate:#EditorCommon.JsonModel.Component.GUI",
                  "classname": "LabelBMFont",
                  "name": "LabelBMFont_43_0",
                  "ZOrder": 0,
                  "actiontag": 94,
                  "anchorPointX": 0.5,
                  "anchorPointY": 0.5,
                  "classType": null,
                  "colorB": 255,
                  "colorG": 255,
                  "colorR": 255,
                  "flipX": false,
                  "flipY": false,
                  "height": 35,
                  "ignoreSize": true,
                  "layoutParameter": null,
                  "opacity": 255,
                  "positionPercentX": 0.2671875,
                  "positionPercentY": 0.8860465,
                  "positionType": 0,
                  "rotation": 0,
                  "scaleX": 1.2,
                  "scaleY": 1.2,
                  "sizePercentX": 0.179999992,
                  "sizePercentY": 0.08,
                  "sizeType": 0,
                  "tag": 39,
                  "touchAble": false,
                  "useMergedTexture": false,
                  "visible": true,
                  "width": 116,
                  "x": 171,
                  "y": 381,
                  "fileNameData": {
                    "path": "font/ziti_1.fnt",
                    "plistFile": null,
                    "resourceType": 0
                  },
                  "text": "初试牛刀"
                }
              },
              {
                "classname": "LabelBMFont",
                "name": null,
                "children": [],
                "options": {
                  "__type": "ComGUILabelBMFontSurrogate:#EditorCommon.JsonModel.Component.GUI",
                  "classname": "LabelBMFont",
                  "name": "LabelBMFont_238",
                  "ZOrder": 0,
                  "actiontag": 238,
                  "anchorPointX": 0.5,
                  "anchorPointY": 0.5,
                  "classType": null,
                  "colorB": 255,
                  "colorG": 255,
                  "colorR": 255,
                  "flipX": false,
                  "flipY": false,
                  "height": 35,
                  "ignoreSize": true,
                  "layoutParameter": null,
                  "opacity": 255,
                  "positionPercentX": 0.453125,
                  "positionPercentY": 0.8860465,
                  "positionType": 0,
                  "rotation": 0,
                  "scaleX": 1.2,
                  "scaleY": 1.2,
                  "sizePercentX": 0.14,
                  "sizePercentY": 0.08,
                  "sizeType": 0,
                  "tag": 27,
                  "touchAble": false,
                  "useMergedTexture": false,
                  "visible": true,
                  "width": 87,
                  "x": 290,
                  "y": 381,
                  "fileNameData": {
                    "path": "font/ziti_1.fnt",
                    "plistFile": null,
                    "resourceType": 0
                  },
                  "text": "排行榜"
                }
              }
            ],
            "options": {
              "__type": "ComGUIPanelSurrogate:#EditorCommon.JsonModel.Component.GUI",
              "classname": "Panel",
              "name": "Panel_integrationRanking",
              "ZOrder": 6,
              "actiontag": 32,
              "anchorPointX": 0,
              "anchorPointY": 0,
              "classType": null,
              "colorB": 255,
              "colorG": 255,
              "colorR": 255,
              "flipX": false,
              "flipY": false,
              "height": 430,
              "ignoreSize": false,
              "layoutParameter": null,
              "opacity": 255,
              "positionPercentX": 0,
              "positionPercentY": 0,
              "positionType": 0,
              "rotation": 0,
              "scaleX": 1,
              "scaleY": 1,
              "sizePercentX": 1,
              "sizePercentY": 1,
              "sizeType": 0,
              "tag": 10,
              "touchAble": false,
              "useMergedTexture": false,
              "visible": true,
              "width": 640,
              "x": 0,
              "y": 0,
              "backGroundImage": null,
              "backGroundImageData": null,
              "backGroundScale9Enable": false,
              "bgColorB": 255,
              "bgColorG": 200,
              "bgColorOpacity": 0,
              "bgColorR": 150,
              "bgEndColorB": 255,
              "bgEndColorG": 0,
              "bgEndColorR": 0,
              "bgStartColorB": 255,
              "bgStartColorG": 255,
              "bgStartColorR": 255,
              "capInsetsHeight": 0,
              "capInsetsWidth": 0,
              "capInsetsX": 0,
              "capInsetsY": 0,
              "clipAble": false,
              "colorType": 1,
              "layoutType": 0,
              "vectorX": 0,
              "vectorY": -0.5
            }
          },
          {
            "classname": "Panel",
            "name": null,
            "children": [
              {
                "classname": "Button",
                "name": null,
                "children": [],
                "options": {
                  "__type": "ComGUIButtonSurrogate:#EditorCommon.JsonModel.Component.GUI",
                  "classname": "Button",
                  "name": "Button_close",
                  "ZOrder": 2,
                  "actiontag": 24,
                  "anchorPointX": 0.5,
                  "anchorPointY": 0.5,
                  "classType": null,
                  "colorB": 255,
                  "colorG": 255,
                  "colorR": 255,
                  "flipX": false,
                  "flipY": false,
                  "height": 64,
                  "ignoreSize": true,
                  "layoutParameter": null,
                  "opacity": 255,
                  "positionPercentX": 0.979687452,
                  "positionPercentY": 0.944186,
                  "positionType": 0,
                  "rotation": 0,
                  "scaleX": 1,
                  "scaleY": 1,
                  "sizePercentX": 0.099999994,
                  "sizePercentY": 0.149999991,
                  "sizeType": 0,
                  "tag": 4,
                  "touchAble": false,
                  "useMergedTexture": false,
                  "visible": true,
                  "width": 64,
                  "x": 627,
                  "y": 406,
                  "capInsetsHeight": 0,
                  "capInsetsWidth": 0,
                  "capInsetsX": 0,
                  "capInsetsY": 0,
                  "disabled": null,
                  "disabledData": {
                    "path": null,
                    "plistFile": null,
                    "resourceType": 0
                  },
                  "normal": null,
                  "normalData": {
                    "path": "close.png",
                    "plistFile": null,
                    "resourceType": 0
                  },
                  "pressed": null,
                  "pressedData": {
                    "path": "close.png",
                    "plistFile": null,
                    "resourceType": 0
                  },
                  "scale9Enable": false,
                  "scale9Height": 64,
                  "scale9Width": 64
                }
              },
              {
                "classname": "ImageView",
                "name": null,
                "children": [
                  {
                    "classname": "ImageView",
                    "name": null,
                    "children": [],
                    "options": {
                      "__type": "ComGUIImageViewSurrogate:#EditorCommon.JsonModel.Component.GUI",
                      "classname": "ImageView",
                      "name": "ImageView_23",
                      "ZOrder": 0,
                      "actiontag": 23,
                      "anchorPointX": 0.5,
                      "anchorPointY": 0.5,
                      "classType": null,
                      "colorB": 255,
                      "colorG": 255,
                      "colorR": 255,
                      "flipX": false,
                      "flipY": false,
                      "height": 60,
                      "ignoreSize": true,
                      "layoutParameter": null,
                      "opacity": 255,
                      "positionPercentX": 0.8551618,
                      "positionPercentY": 0.8831775,
                      "positionType": 0,
                      "rotation": 0,
                      "scaleX": 1,
                      "scaleY": 1,
                      "sizePercentX": 0.17,
                      "sizePercentY": 0.14,
                      "sizeType": 0,
                      "tag": 3,
                      "touchAble": false,
                      "useMergedTexture": false,
                      "visible": true,
                      "width": 108,
                      "x": 555,
                      "y": 378,
                      "capInsetsHeight": 0,
                      "capInsetsWidth": 0,
                      "capInsetsX": 0,
                      "capInsetsY": 0,
                      "fileName": null,
                      "fileNameData": {
                        "path": "tietu_flower.png",
                        "plistFile": null,
                        "resourceType": 0
                      },
                      "scale9Enable": false,
                      "scale9Height": 60,
                      "scale9Width": 108
                    }
                  }
                ],
                "options": {
                  "__type": "ComGUIImageViewSurrogate:#EditorCommon.JsonModel.Component.GUI",
                  "classname": "ImageView",
                  "name": "ImageView_22",
                  "ZOrder": 1,
                  "actiontag": 22,
                  "anchorPointX": 0,
                  "anchorPointY": 0,
                  "classType": null,
                  "colorB": 255,
                  "colorG": 255,
                  "colorR": 255,
                  "flipX": false,
                  "flipY": false,
                  "height": 428,
                  "ignoreSize": false,
                  "layoutParameter": null,
                  "opacity": 255,
                  "positionPercentX": 0.03125,
                  "positionPercentY": 0.00465116231,
                  "positionType": 0,
                  "rotation": 0,
                  "scaleX": 1,
                  "scaleY": 1,
                  "sizePercentX": 1.01,
                  "sizePercentY": 1,
                  "sizeType": 0,
                  "tag": 2,
                  "touchAble": true,
                  "useMergedTexture": false,
                  "visible": true,
                  "width": 649,
                  "x": 20,
                  "y": 2,
                  "capInsetsHeight": 0,
                  "capInsetsWidth": 0,
                  "capInsetsX": 0,
                  "capInsetsY": 0,
                  "fileName": null,
                  "fileNameData": {
                    "path": "dikuang_new.png",
                    "plistFile": null,
                    "resourceType": 0
                  },
                  "scale9Enable": true,
                  "scale9Height": 428,
                  "scale9Width": 649
                }
              }
            ],
            "options": {
              "__type": "ComGUIPanelSurrogate:#EditorCommon.JsonModel.Component.GUI",
              "classname": "Panel",
              "name": "Panel_20",
              "ZOrder": 1,
              "actiontag": 20,
              "anchorPointX": 0,
              "anchorPointY": 0,
              "classType": null,
              "colorB": 255,
              "colorG": 255,
              "colorR": 255,
              "flipX": false,
              "flipY": false,
              "height": 430,
              "ignoreSize": false,
              "layoutParameter": null,
              "opacity": 255,
              "positionPercentX": 0,
              "positionPercentY": 0,
              "positionType": 0,
              "rotation": 0,
              "scaleX": 1,
              "scaleY": 1,
              "sizePercentX": 1,
              "sizePercentY": 1,
              "sizeType": 0,
              "tag": 1,
              "touchAble": false,
              "useMergedTexture": false,
              "visible": true,
              "width": 640,
              "x": 0,
              "y": 0,
              "backGroundImage": null,
              "backGroundImageData": null,
              "backGroundScale9Enable": false,
              "bgColorB": 255,
              "bgColorG": 200,
              "bgColorOpacity": 0,
              "bgColorR": 150,
              "bgEndColorB": 255,
              "bgEndColorG": 0,
              "bgEndColorR": 0,
              "bgStartColorB": 255,
              "bgStartColorG": 255,
              "bgStartColorR": 255,
              "capInsetsHeight": 0,
              "capInsetsWidth": 0,
              "capInsetsX": 0,
              "capInsetsY": 0,
              "clipAble": false,
              "colorType": 1,
              "layoutType": 0,
              "vectorX": 0,
              "vectorY": -0.5
            }
          }
        ],
        "options": {
          "__type": "ComGUIPanelSurrogate:#EditorCommon.JsonModel.Component.GUI",
          "classname": "Panel",
          "name": "Panel_20",
          "ZOrder": 1,
          "actiontag": -1,
          "anchorPointX": 0,
          "anchorPointY": 0,
          "classType": null,
          "colorB": 255,
          "colorG": 255,
          "colorR": 255,
          "flipX": false,
          "flipY": false,
          "height": 430,
          "ignoreSize": false,
          "layoutParameter": null,
          "opacity": 255,
          "positionPercentX": -0.0328125,
          "positionPercentY": -0.00232558115,
          "positionType": 0,
          "rotation": 0,
          "scaleX": 1,
          "scaleY": 1,
          "sizePercentX": 1,
          "sizePercentY": 1,
          "sizeType": 0,
          "tag": 1,
          "touchAble": false,
          "useMergedTexture": false,
          "visible": true,
          "width": 640,
          "x": -21,
          "y": -1,
          "backGroundImage": null,
          "backGroundImageData": null,
          "backGroundScale9Enable": false,
          "bgColorB": 255,
          "bgColorG": 200,
          "bgColorOpacity": 0,
          "bgColorR": 150,
          "bgEndColorB": 255,
          "bgEndColorG": 0,
          "bgEndColorR": 0,
          "bgStartColorB": 255,
          "bgStartColorG": 255,
          "bgStartColorR": 255,
          "capInsetsHeight": 0,
          "capInsetsWidth": 0,
          "capInsetsX": 0,
          "capInsetsY": 0,
          "clipAble": false,
          "colorType": 1,
          "layoutType": 0,
          "vectorX": 0,
          "vectorY": -0.5
        }
      }
    ],
    "options": {
      "__type": "ComGUIPanelSurrogate:#EditorCommon.JsonModel.Component.GUI",
      "classname": "Panel",
      "name": "Panel_20",
      "ZOrder": 0,
      "actiontag": -1,
      "anchorPointX": 0,
      "anchorPointY": 0,
      "classType": null,
      "colorB": 255,
      "colorG": 255,
      "colorR": 255,
      "flipX": false,
      "flipY": false,
      "height": 430,
      "ignoreSize": false,
      "layoutParameter": null,
      "opacity": 255,
      "positionPercentX": 0,
      "positionPercentY": 0,
      "positionType": 0,
      "rotation": 0,
      "scaleX": 1,
      "scaleY": 1,
      "sizePercentX": 0.01,
      "sizePercentY": 0.01,
      "sizeType": 0,
      "tag": 1,
      "touchAble": false,
      "useMergedTexture": false,
      "visible": true,
      "width": 640,
      "x": 0,
      "y": 0,
      "backGroundImage": null,
      "backGroundImageData": null,
      "backGroundScale9Enable": false,
      "bgColorB": 255,
      "bgColorG": 200,
      "bgColorOpacity": 0,
      "bgColorR": 150,
      "bgEndColorB": 255,
      "bgEndColorG": 0,
      "bgEndColorR": 0,
      "bgStartColorB": 255,
      "bgStartColorG": 255,
      "bgStartColorR": 255,
      "capInsetsHeight": 0,
      "capInsetsWidth": 0,
      "capInsetsX": 0,
      "capInsetsY": 0,
      "clipAble": false,
      "colorType": 1,
      "layoutType": 0,
      "vectorX": 0,
      "vectorY": -0.5
    }
  }
}