{
  "classname": null,
  "name": null,
  "animation": {
    "classname": null,
    "name": "AnimationManager",
    "actionlist": []
  },
  "designHeight": 416,
  "designWidth": 703,
  "textures": [],
  "version": "1.1.0.0",
  "widgetTree": {
    "classname": "Panel",
    "name": null,
    "children": [
      {
        "classname": "ImageView",
        "name": null,
        "children": [],
        "options": {
          "__type": "ComGUIImageViewSurrogate:#EditorCommon.JsonModel.Component.GUI",
          "classname": "ImageView",
          "name": "ImageView_1948",
          "ZOrder": 2,
          "actiontag": 1948,
          "anchorPointX": 0.5,
          "anchorPointY": 0.5,
          "classType": null,
          "colorB": 255,
          "colorG": 255,
          "colorR": 255,
          "flipX": false,
          "flipY": false,
          "height": 110,
          "ignoreSize": true,
          "layoutParameter": null,
          "opacity": 255,
          "positionPercentX": 0.4864865,
          "positionPercentY": 0.8076922,
          "positionType": 0,
          "rotation": 0,
          "scaleX": 0.8,
          "scaleY": 0.8,
          "sizePercentX": 0.16,
          "sizePercentY": 0.26,
          "sizeType": 0,
          "tag": 39,
          "touchAble": false,
          "useMergedTexture": false,
          "visible": true,
          "width": 110,
          "x": 342,
          "y": 336,
          "capInsetsHeight": 0,
          "capInsetsWidth": 0,
          "capInsetsX": 0,
          "capInsetsY": 0,
          "fileName": null,
          "fileNameData": {
            "path": "zhuangbei/tietu_01.png",
            "plistFile": null,
            "resourceType": 0
          },
          "scale9Enable": false,
          "scale9Height": 110,
          "scale9Width": 110
        }
      },
      {
        "classname": "ImageView",
        "name": null,
        "children": [],
        "options": {
          "__type": "ComGUIImageViewSurrogate:#EditorCommon.JsonModel.Component.GUI",
          "classname": "ImageView",
          "name": "ImageView_abc",
          "ZOrder": 4,
          "actiontag": 1912,
          "anchorPointX": 0.5,
          "anchorPointY": 0.5,
          "classType": null,
          "colorB": 255,
          "colorG": 255,
          "colorR": 255,
          "flipX": false,
          "flipY": false,
          "height": 23,
          "ignoreSize": true,
          "layoutParameter": null,
          "opacity": 255,
          "positionPercentX": 0.5362731,
          "positionPercentY": 0.5,
          "positionType": 0,
          "rotation": 0,
          "scaleX": 0.9,
          "scaleY": 0.9,
          "sizePercentX": 0.03,
          "sizePercentY": 0.06,
          "sizeType": 0,
          "tag": 41,
          "touchAble": false,
          "useMergedTexture": false,
          "visible": false,
          "width": 23,
          "x": 377,
          "y": 208,
          "capInsetsHeight": 0,
          "capInsetsWidth": 0,
          "capInsetsX": 0,
          "capInsetsY": 0,
          "fileName": null,
          "fileNameData": {
            "path": "o_blue.png",
            "plistFile": null,
            "resourceType": 0
          },
          "scale9Enable": false,
          "scale9Height": 23,
          "scale9Width": 23
        }
      },
      {
        "classname": "Panel",
        "name": null,
        "children": [
          {
            "classname": "ImageView",
            "name": null,
            "children": [],
            "options": {
              "__type": "ComGUIImageViewSurrogate:#EditorCommon.JsonModel.Component.GUI",
              "classname": "ImageView",
              "name": "ImageView_mo1_0",
              "ZOrder": 1,
              "actiontag": 7867,
              "anchorPointX": 0,
              "anchorPointY": 0,
              "classType": null,
              "colorB": 255,
              "colorG": 255,
              "colorR": 255,
              "flipX": false,
              "flipY": false,
              "height": 31,
              "ignoreSize": true,
              "layoutParameter": null,
              "opacity": 255,
              "positionPercentX": 0.390625,
              "positionPercentY": 0.226666674,
              "positionType": 0,
              "rotation": 0,
              "scaleX": 0.5999999,
              "scaleY": 0.5999999,
              "sizePercentX": 0.29,
              "sizePercentY": 0.07,
              "sizeType": 0,
              "tag": 218,
              "touchAble": false,
              "useMergedTexture": false,
              "visible": true,
              "width": 202,
              "x": 275,
              "y": 102,
              "capInsetsHeight": 0,
              "capInsetsWidth": 0,
              "capInsetsX": 0,
              "capInsetsY": 0,
              "fileName": null,
              "fileNameData": {
                "path": "mo_2.png",
                "plistFile": null,
                "resourceType": 0
              },
              "scale9Enable": false,
              "scale9Height": 31,
              "scale9Width": 202
            }
          },
          {
            "classname": "Label",
            "name": null,
            "children": [],
            "options": {
              "__type": "ComGUILabelSurrogate:#EditorCommon.JsonModel.Component.GUI",
              "classname": "Label",
              "name": "Label_SkillName",
              "ZOrder": 4,
              "actiontag": 7834,
              "anchorPointX": 0.5,
              "anchorPointY": 0.5,
              "classType": null,
              "colorB": 255,
              "colorG": 255,
              "colorR": 255,
              "flipX": false,
              "flipY": false,
              "height": 0,
              "ignoreSize": true,
              "layoutParameter": null,
              "opacity": 255,
              "positionPercentX": 0.485795468,
              "positionPercentY": 0.622222245,
              "positionType": 0,
              "rotation": 0,
              "scaleX": 1,
              "scaleY": 1,
              "sizePercentX": 0.099999994,
              "sizePercentY": 0.04,
              "sizeType": 0,
              "tag": 441,
              "touchAble": false,
              "useMergedTexture": false,
              "visible": true,
              "width": 0,
              "x": 342,
              "y": 280,
              "fontName": "黑体",
              "fontSize": 18,
              "fontType": 1,
              "text": "技能名称",
              "touchScaleEnable": false
            }
          },
          {
            "classname": "Button",
            "name": null,
            "children": [
              {
                "classname": "Label",
                "name": null,
                "children": [],
                "options": {
                  "__type": "ComGUILabelSurrogate:#EditorCommon.JsonModel.Component.GUI",
                  "classname": "Label",
                  "name": "Label_skillUpgrade",
                  "ZOrder": 5,
                  "actiontag": 498,
                  "anchorPointX": 0.5,
                  "anchorPointY": 0.5,
                  "classType": null,
                  "colorB": 255,
                  "colorG": 255,
                  "colorR": 255,
                  "flipX": false,
                  "flipY": false,
                  "height": 20,
                  "ignoreSize": true,
                  "layoutParameter": null,
                  "opacity": 255,
                  "positionPercentX": -0.009615385,
                  "positionPercentY": 0.023255812,
                  "positionType": 0,
                  "rotation": 0,
                  "scaleX": 1,
                  "scaleY": 1,
                  "sizePercentX": 0.35,
                  "sizePercentY": 0.42,
                  "sizeType": 0,
                  "tag": 478,
                  "touchAble": false,
                  "useMergedTexture": false,
                  "visible": true,
                  "width": 40,
                  "x": -1,
                  "y": 1,
                  "fontName": "黑体",
                  "fontSize": 18,
                  "fontType": 1,
                  "text": "装配",
                  "touchScaleEnable": false
                }
              }
            ],
            "options": {
              "__type": "ComGUIButtonSurrogate:#EditorCommon.JsonModel.Component.GUI",
              "classname": "Button",
              "name": "Button_set",
              "ZOrder": 3,
              "actiontag": 497,
              "anchorPointX": 0.5,
              "anchorPointY": 0.5,
              "classType": null,
              "colorB": 255,
              "colorG": 255,
              "colorR": 255,
              "flipX": false,
              "flipY": false,
              "height": 43,
              "ignoreSize": false,
              "layoutParameter": null,
              "opacity": 255,
              "positionPercentX": 0.765625,
              "positionPercentY": 0.115555547,
              "positionType": 0,
              "rotation": 0,
              "scaleX": 1,
              "scaleY": 1,
              "sizePercentX": 0.149999991,
              "sizePercentY": 0.099999994,
              "sizeType": 0,
              "tag": 477,
              "touchAble": false,
              "useMergedTexture": false,
              "visible": true,
              "width": 104,
              "x": 539,
              "y": 52,
              "capInsetsHeight": 23,
              "capInsetsWidth": 2,
              "capInsetsX": 18,
              "capInsetsY": 9,
              "disabled": null,
              "disabledData": {
                "path": null,
                "plistFile": null,
                "resourceType": 0
              },
              "normal": null,
              "normalData": {
                "path": "new_button_1.png",
                "plistFile": null,
                "resourceType": 0
              },
              "pressed": null,
              "pressedData": {
                "path": "new_button_1.png",
                "plistFile": null,
                "resourceType": 0
              },
              "scale9Enable": true,
              "scale9Height": 43,
              "scale9Width": 104
            }
          },
          {
            "classname": "Label",
            "name": null,
            "children": [],
            "options": {
              "__type": "ComGUILabelSurrogate:#EditorCommon.JsonModel.Component.GUI",
              "classname": "Label",
              "name": "Label_DistanceValue",
              "ZOrder": 0,
              "actiontag": 478,
              "anchorPointX": 0,
              "anchorPointY": 0,
              "classType": null,
              "colorB": 13,
              "colorG": 93,
              "colorR": 47,
              "flipX": false,
              "flipY": false,
              "height": 16,
              "ignoreSize": true,
              "layoutParameter": null,
              "opacity": 255,
              "positionPercentX": 0.5213068,
              "positionPercentY": 0.306666672,
              "positionType": 0,
              "rotation": 0,
              "scaleX": 1,
              "scaleY": 1,
              "sizePercentX": 0.04,
              "sizePercentY": 0.04,
              "sizeType": 0,
              "tag": 454,
              "touchAble": false,
              "useMergedTexture": false,
              "visible": true,
              "width": 24,
              "x": 367,
              "y": 138,
              "fontName": "黑体",
              "fontSize": 18,
              "fontType": 1,
              "text": "8码",
              "touchScaleEnable": false
            }
          },
          {
            "classname": "Label",
            "name": null,
            "children": [],
            "options": {
              "__type": "ComGUILabelSurrogate:#EditorCommon.JsonModel.Component.GUI",
              "classname": "Label",
              "name": "Label_Distance",
              "ZOrder": 2,
              "actiontag": 477,
              "anchorPointX": 0,
              "anchorPointY": 0,
              "classType": null,
              "colorB": 13,
              "colorG": 93,
              "colorR": 47,
              "flipX": false,
              "flipY": false,
              "height": 16,
              "ignoreSize": true,
              "layoutParameter": null,
              "opacity": 255,
              "positionPercentX": 0.403409064,
              "positionPercentY": 0.306666672,
              "positionType": 0,
              "rotation": 0,
              "scaleX": 1,
              "scaleY": 1,
              "sizePercentX": 0.13,
              "sizePercentY": 0.04,
              "sizeType": 0,
              "tag": 453,
              "touchAble": false,
              "useMergedTexture": false,
              "visible": true,
              "width": 80,
              "x": 284,
              "y": 138,
              "fontName": "黑体",
              "fontSize": 18,
              "fontType": 1,
              "text": "施法距离：",
              "touchScaleEnable": false
            }
          },
          {
            "classname": "Label",
            "name": null,
            "children": [],
            "options": {
              "__type": "ComGUILabelSurrogate:#EditorCommon.JsonModel.Component.GUI",
              "classname": "Label",
              "name": "Label_CDTimeValue",
              "ZOrder": 0,
              "actiontag": 476,
              "anchorPointX": 0,
              "anchorPointY": 0,
              "classType": null,
              "colorB": 13,
              "colorG": 93,
              "colorR": 47,
              "flipX": false,
              "flipY": false,
              "height": 16,
              "ignoreSize": true,
              "layoutParameter": null,
              "opacity": 255,
              "positionPercentX": 0.5213068,
              "positionPercentY": 0.351111084,
              "positionType": 0,
              "rotation": 0,
              "scaleX": 1,
              "scaleY": 1,
              "sizePercentX": 0.049999997,
              "sizePercentY": 0.04,
              "sizeType": 0,
              "tag": 454,
              "touchAble": false,
              "useMergedTexture": false,
              "visible": true,
              "width": 32,
              "x": 367,
              "y": 158,
              "fontName": "黑体",
              "fontSize": 18,
              "fontType": 1,
              "text": "120s",
              "touchScaleEnable": false
            }
          },
          {
            "classname": "Label",
            "name": null,
            "children": [],
            "options": {
              "__type": "ComGUILabelSurrogate:#EditorCommon.JsonModel.Component.GUI",
              "classname": "Label",
              "name": "Label_CDTime",
              "ZOrder": 2,
              "actiontag": 475,
              "anchorPointX": 0,
              "anchorPointY": 0,
              "classType": null,
              "colorB": 13,
              "colorG": 93,
              "colorR": 47,
              "flipX": false,
              "flipY": false,
              "height": 16,
              "ignoreSize": true,
              "layoutParameter": null,
              "opacity": 255,
              "positionPercentX": 0.403409064,
              "positionPercentY": 0.351111084,
              "positionType": 0,
              "rotation": 0,
              "scaleX": 1,
              "scaleY": 1,
              "sizePercentX": 0.13,
              "sizePercentY": 0.04,
              "sizeType": 0,
              "tag": 453,
              "touchAble": false,
              "useMergedTexture": false,
              "visible": true,
              "width": 80,
              "x": 284,
              "y": 158,
              "fontName": "黑体",
              "fontSize": 18,
              "fontType": 1,
              "text": "CD 时 间：",
              "touchScaleEnable": false
            }
          },
          {
            "classname": "Label",
            "name": null,
            "children": [],
            "options": {
              "__type": "ComGUILabelSurrogate:#EditorCommon.JsonModel.Component.GUI",
              "classname": "Label",
              "name": "Label_LvValue",
              "ZOrder": 0,
              "actiontag": 470,
              "anchorPointX": 0,
              "anchorPointY": 0,
              "classType": null,
              "colorB": 13,
              "colorG": 93,
              "colorR": 47,
              "flipX": false,
              "flipY": false,
              "height": 20,
              "ignoreSize": true,
              "layoutParameter": null,
              "opacity": 255,
              "positionPercentX": 0.5213068,
              "positionPercentY": 0.486666679,
              "positionType": 0,
              "rotation": 0,
              "scaleX": 1,
              "scaleY": 1,
              "sizePercentX": 0.03,
              "sizePercentY": 0.04,
              "sizeType": 0,
              "tag": 450,
              "touchAble": false,
              "useMergedTexture": false,
              "visible": true,
              "width": 20,
              "x": 367,
              "y": 219,
              "fontName": "黑体",
              "fontSize": 18,
              "fontType": 1,
              "text": "56",
              "touchScaleEnable": false
            }
          },
          {
            "classname": "Label",
            "name": null,
            "children": [],
            "options": {
              "__type": "ComGUILabelSurrogate:#EditorCommon.JsonModel.Component.GUI",
              "classname": "Label",
              "name": "Label_lv",
              "ZOrder": 2,
              "actiontag": 469,
              "anchorPointX": 0,
              "anchorPointY": 0,
              "classType": null,
              "colorB": 13,
              "colorG": 93,
              "colorR": 47,
              "flipX": false,
              "flipY": false,
              "height": 16,
              "ignoreSize": true,
              "layoutParameter": null,
              "opacity": 255,
              "positionPercentX": 0.403409064,
              "positionPercentY": 0.486666679,
              "positionType": 0,
              "rotation": 0,
              "scaleX": 1,
              "scaleY": 1,
              "sizePercentX": 0.13,
              "sizePercentY": 0.04,
              "sizeType": 0,
              "tag": 449,
              "touchAble": false,
              "useMergedTexture": false,
              "visible": true,
              "width": 80,
              "x": 284,
              "y": 219,
              "fontName": "黑体",
              "fontSize": 18,
              "fontType": 1,
              "text": "等    级：",
              "touchScaleEnable": false
            }
          },
          {
            "classname": "Label",
            "name": null,
            "children": [],
            "options": {
              "__type": "ComGUILabelSurrogate:#EditorCommon.JsonModel.Component.GUI",
              "classname": "Label",
              "name": "Label_Quality",
              "ZOrder": 2,
              "actiontag": 471,
              "anchorPointX": 0,
              "anchorPointY": 0,
              "classType": null,
              "colorB": 13,
              "colorG": 93,
              "colorR": 47,
              "flipX": false,
              "flipY": false,
              "height": 16,
              "ignoreSize": true,
              "layoutParameter": null,
              "opacity": 255,
              "positionPercentX": 0.403409064,
              "positionPercentY": 0.4422222,
              "positionType": 0,
              "rotation": 0,
              "scaleX": 1,
              "scaleY": 1,
              "sizePercentX": 0.13,
              "sizePercentY": 0.04,
              "sizeType": 0,
              "tag": 451,
              "touchAble": false,
              "useMergedTexture": false,
              "visible": true,
              "width": 80,
              "x": 284,
              "y": 199,
              "fontName": "黑体",
              "fontSize": 18,
              "fontType": 1,
              "text": "技能品质：",
              "touchScaleEnable": false
            }
          },
          {
            "classname": "Label",
            "name": null,
            "children": [],
            "options": {
              "__type": "ComGUILabelSurrogate:#EditorCommon.JsonModel.Component.GUI",
              "classname": "Label",
              "name": "Label_MpValue",
              "ZOrder": 0,
              "actiontag": 474,
              "anchorPointX": 0,
              "anchorPointY": 0,
              "classType": null,
              "colorB": 13,
              "colorG": 93,
              "colorR": 47,
              "flipX": false,
              "flipY": false,
              "height": 18,
              "ignoreSize": true,
              "layoutParameter": null,
              "opacity": 255,
              "positionPercentX": 0.5213068,
              "positionPercentY": 0.395555556,
              "positionType": 0,
              "rotation": 0,
              "scaleX": 1,
              "scaleY": 1,
              "sizePercentX": 0.04,
              "sizePercentY": 0.04,
              "sizeType": 0,
              "tag": 454,
              "touchAble": false,
              "useMergedTexture": false,
              "visible": true,
              "width": 27,
              "x": 367,
              "y": 178,
              "fontName": "黑体",
              "fontSize": 18,
              "fontType": 1,
              "text": "600",
              "touchScaleEnable": false
            }
          },
          {
            "classname": "Label",
            "name": null,
            "children": [],
            "options": {
              "__type": "ComGUILabelSurrogate:#EditorCommon.JsonModel.Component.GUI",
              "classname": "Label",
              "name": "Label_MpUseUp",
              "ZOrder": 2,
              "actiontag": 473,
              "anchorPointX": 0,
              "anchorPointY": 0,
              "classType": null,
              "colorB": 13,
              "colorG": 93,
              "colorR": 47,
              "flipX": false,
              "flipY": false,
              "height": 16,
              "ignoreSize": true,
              "layoutParameter": null,
              "opacity": 255,
              "positionPercentX": 0.403409064,
              "positionPercentY": 0.395555556,
              "positionType": 0,
              "rotation": 0,
              "scaleX": 1,
              "scaleY": 1,
              "sizePercentX": 0.13,
              "sizePercentY": 0.04,
              "sizeType": 0,
              "tag": 453,
              "touchAble": false,
              "useMergedTexture": false,
              "visible": true,
              "width": 80,
              "x": 284,
              "y": 178,
              "fontName": "黑体",
              "fontSize": 18,
              "fontType": 1,
              "text": "MP 消 耗：",
              "touchScaleEnable": false
            }
          },
          {
            "classname": "Label",
            "name": null,
            "children": [],
            "options": {
              "__type": "ComGUILabelSurrogate:#EditorCommon.JsonModel.Component.GUI",
              "classname": "Label",
              "name": "Label_SkillType",
              "ZOrder": 2,
              "actiontag": 468,
              "anchorPointX": 0,
              "anchorPointY": 0,
              "classType": null,
              "colorB": 13,
              "colorG": 93,
              "colorR": 47,
              "flipX": false,
              "flipY": false,
              "height": 16,
              "ignoreSize": true,
              "layoutParameter": null,
              "opacity": 255,
              "positionPercentX": 0.403409064,
              "positionPercentY": 0.533333361,
              "positionType": 0,
              "rotation": 0,
              "scaleX": 1,
              "scaleY": 1,
              "sizePercentX": 0.099999994,
              "sizePercentY": 0.04,
              "sizeType": 0,
              "tag": 448,
              "touchAble": false,
              "useMergedTexture": false,
              "visible": true,
              "width": 64,
              "x": 284,
              "y": 240,
              "fontName": "黑体",
              "fontSize": 18,
              "fontType": 1,
              "text": "主动技能",
              "touchScaleEnable": false
            }
          },
          {
            "classname": "TextArea",
            "name": null,
            "children": [],
            "options": {
              "__type": "ComGUITextAreaSurrogate:#EditorCommon.JsonModel.Component.GUI",
              "classname": "TextArea",
              "name": "TextArea_NextSkillRarity",
              "ZOrder": 0,
              "actiontag": 467,
              "anchorPointX": 0,
              "anchorPointY": 1,
              "classType": null,
              "colorB": 13,
              "colorG": 93,
              "colorR": 47,
              "flipX": false,
              "flipY": false,
              "height": 128,
              "ignoreSize": false,
              "layoutParameter": null,
              "opacity": 255,
              "positionPercentX": 0.622159064,
              "positionPercentY": 0.457777768,
              "positionType": 0,
              "rotation": 0,
              "scaleX": 1,
              "scaleY": 1,
              "sizePercentX": 0.31,
              "sizePercentY": 0.28,
              "sizeType": 0,
              "tag": 444,
              "touchAble": false,
              "useMergedTexture": false,
              "visible": false,
              "width": 220,
              "x": 438,
              "y": 206,
              "areaHeight": 128,
              "areaWidth": 220,
              "fontName": "黑体",
              "fontSize": 18,
              "fontType": 1,
              "hAlignment": 0,
              "text": "Text Area",
              "vAlignment": 0
            }
          },
          {
            "classname": "ImageView",
            "name": null,
            "children": [],
            "options": {
              "__type": "ComGUIImageViewSurrogate:#EditorCommon.JsonModel.Component.GUI",
              "classname": "ImageView",
              "name": "ImageView_mo1",
              "ZOrder": 2,
              "actiontag": 466,
              "anchorPointX": 0,
              "anchorPointY": 0,
              "classType": null,
              "colorB": 255,
              "colorG": 255,
              "colorR": 255,
              "flipX": false,
              "flipY": false,
              "height": 31,
              "ignoreSize": true,
              "layoutParameter": null,
              "opacity": 255,
              "positionPercentX": 0.6136364,
              "positionPercentY": 0.48,
              "positionType": 0,
              "rotation": 0,
              "scaleX": 0.5999999,
              "scaleY": 0.5999999,
              "sizePercentX": 0.29,
              "sizePercentY": 0.07,
              "sizeType": 0,
              "tag": 218,
              "touchAble": false,
              "useMergedTexture": false,
              "visible": false,
              "width": 202,
              "x": 432,
              "y": 216,
              "capInsetsHeight": 0,
              "capInsetsWidth": 0,
              "capInsetsX": 0,
              "capInsetsY": 0,
              "fileName": null,
              "fileNameData": {
                "path": "mo_2.png",
                "plistFile": null,
                "resourceType": 0
              },
              "scale9Enable": false,
              "scale9Height": 31,
              "scale9Width": 202
            }
          },
          {
            "classname": "LabelBMFont",
            "name": null,
            "children": [],
            "options": {
              "__type": "ComGUILabelBMFontSurrogate:#EditorCommon.JsonModel.Component.GUI",
              "classname": "LabelBMFont",
              "name": "LabelBMFont_NextSkill_rarity",
              "ZOrder": 3,
              "actiontag": 465,
              "anchorPointX": 0,
              "anchorPointY": 0,
              "classType": null,
              "colorB": 255,
              "colorG": 255,
              "colorR": 255,
              "flipX": false,
              "flipY": false,
              "height": 21,
              "ignoreSize": true,
              "layoutParameter": null,
              "opacity": 255,
              "positionPercentX": 0.637784064,
              "positionPercentY": 0.48,
              "positionType": 0,
              "rotation": 0,
              "scaleX": 1,
              "scaleY": 1,
              "sizePercentX": 0.0899999961,
              "sizePercentY": 0.049999997,
              "sizeType": 0,
              "tag": 445,
              "touchAble": false,
              "useMergedTexture": false,
              "visible": false,
              "width": 61,
              "x": 449,
              "y": 216,
              "fileNameData": {
                "path": "font/ziti_3.fnt",
                "plistFile": null,
                "resourceType": 0
              },
              "text": "下一级"
            }
          },
          {
            "classname": "ImageView",
            "name": null,
            "children": [],
            "options": {
              "__type": "ComGUIImageViewSurrogate:#EditorCommon.JsonModel.Component.GUI",
              "classname": "ImageView",
              "name": "ImageView_mo1",
              "ZOrder": 2,
              "actiontag": 451,
              "anchorPointX": 0,
              "anchorPointY": 0,
              "classType": null,
              "colorB": 255,
              "colorG": 255,
              "colorR": 255,
              "flipX": false,
              "flipY": false,
              "height": 31,
              "ignoreSize": true,
              "layoutParameter": null,
              "opacity": 255,
              "positionPercentX": 0.616477251,
              "positionPercentY": 0.7888888,
              "positionType": 0,
              "rotation": 0,
              "scaleX": 0.5999999,
              "scaleY": 0.5999999,
              "sizePercentX": 0.29,
              "sizePercentY": 0.07,
              "sizeType": 0,
              "tag": 218,
              "touchAble": false,
              "useMergedTexture": false,
              "visible": false,
              "width": 202,
              "x": 434,
              "y": 355,
              "capInsetsHeight": 0,
              "capInsetsWidth": 0,
              "capInsetsX": 0,
              "capInsetsY": 0,
              "fileName": null,
              "fileNameData": {
                "path": "mo_2.png",
                "plistFile": null,
                "resourceType": 0
              },
              "scale9Enable": false,
              "scale9Height": 31,
              "scale9Width": 202
            }
          },
          {
            "classname": "LabelBMFont",
            "name": null,
            "children": [],
            "options": {
              "__type": "ComGUILabelBMFontSurrogate:#EditorCommon.JsonModel.Component.GUI",
              "classname": "LabelBMFont",
              "name": "LabelBMFont_skill_rarity",
              "ZOrder": 3,
              "actiontag": 452,
              "anchorPointX": 0,
              "anchorPointY": 0,
              "classType": null,
              "colorB": 255,
              "colorG": 255,
              "colorR": 255,
              "flipX": false,
              "flipY": false,
              "height": 21,
              "ignoreSize": true,
              "layoutParameter": null,
              "opacity": 255,
              "positionPercentX": 0.637784064,
              "positionPercentY": 0.7911111,
              "positionType": 0,
              "rotation": 0,
              "scaleX": 1,
              "scaleY": 1,
              "sizePercentX": 0.12,
              "sizePercentY": 0.049999997,
              "sizeType": 0,
              "tag": 432,
              "touchAble": false,
              "useMergedTexture": false,
              "visible": false,
              "width": 81,
              "x": 449,
              "y": 356,
              "fileNameData": {
                "path": "font/ziti_3.fnt",
                "plistFile": null,
                "resourceType": 0
              },
              "text": "技能描述"
            }
          },
          {
            "classname": "ImageView",
            "name": null,
            "children": [
              {
                "classname": "ImageView",
                "name": null,
                "children": [],
                "options": {
                  "__type": "ComGUIImageViewSurrogate:#EditorCommon.JsonModel.Component.GUI",
                  "classname": "ImageView",
                  "name": "ImageView_skill",
                  "ZOrder": 0,
                  "actiontag": 458,
                  "anchorPointX": 0,
                  "anchorPointY": 0,
                  "classType": null,
                  "colorB": 255,
                  "colorG": 255,
                  "colorR": 255,
                  "flipX": false,
                  "flipY": false,
                  "height": 45,
                  "ignoreSize": true,
                  "layoutParameter": null,
                  "opacity": 255,
                  "positionPercentX": -0.349206358,
                  "positionPercentY": -0.349206358,
                  "positionType": 0,
                  "rotation": 0,
                  "scaleX": 1,
                  "scaleY": 1,
                  "sizePercentX": 0.729999959,
                  "sizePercentY": 0.71,
                  "sizeType": 0,
                  "tag": 438,
                  "touchAble": false,
                  "useMergedTexture": false,
                  "visible": true,
                  "width": 46,
                  "x": -22,
                  "y": -22,
                  "capInsetsHeight": 0,
                  "capInsetsWidth": 0,
                  "capInsetsX": 0,
                  "capInsetsY": 0,
                  "fileName": null,
                  "fileNameData": {
                    "path": "jineng_icon/AX1pfcz.png",
                    "plistFile": null,
                    "resourceType": 0
                  },
                  "scale9Enable": false,
                  "scale9Height": 45,
                  "scale9Width": 46
                }
              }
            ],
            "options": {
              "__type": "ComGUIImageViewSurrogate:#EditorCommon.JsonModel.Component.GUI",
              "classname": "ImageView",
              "name": "ImageView_skill_di",
              "ZOrder": 2,
              "actiontag": 457,
              "anchorPointX": 0.5,
              "anchorPointY": 0.5,
              "classType": null,
              "colorB": 255,
              "colorG": 255,
              "colorR": 255,
              "flipX": false,
              "flipY": false,
              "height": 63,
              "ignoreSize": true,
              "layoutParameter": null,
              "opacity": 255,
              "positionPercentX": 0.484375,
              "positionPercentY": 0.768888831,
              "positionType": 0,
              "rotation": 0,
              "scaleX": 1,
              "scaleY": 1,
              "sizePercentX": 0.0899999961,
              "sizePercentY": 0.14,
              "sizeType": 0,
              "tag": 437,
              "touchAble": false,
              "useMergedTexture": false,
              "visible": false,
              "width": 63,
              "x": 341,
              "y": 346,
              "capInsetsHeight": 0,
              "capInsetsWidth": 0,
              "capInsetsX": 0,
              "capInsetsY": 0,
              "fileName": null,
              "fileNameData": {
                "path": "sdi_bule.png",
                "plistFile": null,
                "resourceType": 0
              },
              "scale9Enable": false,
              "scale9Height": 63,
              "scale9Width": 63
            }
          },
          {
            "classname": "TextArea",
            "name": null,
            "children": [],
            "options": {
              "__type": "ComGUITextAreaSurrogate:#EditorCommon.JsonModel.Component.GUI",
              "classname": "TextArea",
              "name": "TextArea_SkillRarity",
              "ZOrder": 0,
              "actiontag": 464,
              "anchorPointX": 0,
              "anchorPointY": 1,
              "classType": null,
              "colorB": 13,
              "colorG": 93,
              "colorR": 47,
              "flipX": false,
              "flipY": false,
              "height": 105,
              "ignoreSize": false,
              "layoutParameter": null,
              "opacity": 255,
              "positionPercentX": 0.623579562,
              "positionPercentY": 0.773333251,
              "positionType": 0,
              "rotation": 0,
              "scaleX": 1,
              "scaleY": 1,
              "sizePercentX": 0.31,
              "sizePercentY": 0.229999989,
              "sizeType": 0,
              "tag": 444,
              "touchAble": false,
              "useMergedTexture": false,
              "visible": false,
              "width": 220,
              "x": 439,
              "y": 348,
              "areaHeight": 105,
              "areaWidth": 220,
              "fontName": "黑体",
              "fontSize": 18,
              "fontType": 1,
              "hAlignment": 0,
              "text": "Text Area",
              "vAlignment": 0
            }
          },
          {
            "classname": "ImageView",
            "name": null,
            "children": [],
            "options": {
              "__type": "ComGUIImageViewSurrogate:#EditorCommon.JsonModel.Component.GUI",
              "classname": "ImageView",
              "name": "ImageView_lv4dikuang_left_0_1",
              "ZOrder": 0,
              "actiontag": 1466,
              "anchorPointX": 0,
              "anchorPointY": 0,
              "classType": null,
              "colorB": 255,
              "colorG": 255,
              "colorR": 255,
              "flipX": false,
              "flipY": false,
              "height": 372,
              "ignoreSize": false,
              "layoutParameter": null,
              "opacity": 255,
              "positionPercentX": 0.0269886367,
              "positionPercentY": 0.0466666631,
              "positionType": 0,
              "rotation": 0,
              "scaleX": 1,
              "scaleY": 1,
              "sizePercentX": 0.35,
              "sizePercentY": 0.83,
              "sizeType": 0,
              "tag": 74,
              "touchAble": false,
              "useMergedTexture": false,
              "visible": true,
              "width": 243,
              "x": 19,
              "y": 21,
              "capInsetsHeight": 1,
              "capInsetsWidth": 1,
              "capInsetsX": 16,
              "capInsetsY": 16,
              "fileName": null,
              "fileNameData": {
                "path": "no1_di.png",
                "plistFile": null,
                "resourceType": 0
              },
              "scale9Enable": true,
              "scale9Height": 372,
              "scale9Width": 243
            }
          },
          {
            "classname": "ImageView",
            "name": null,
            "children": [
              {
                "classname": "ImageView",
                "name": null,
                "children": [],
                "options": {
                  "__type": "ComGUIImageViewSurrogate:#EditorCommon.JsonModel.Component.GUI",
                  "classname": "ImageView",
                  "name": "ImageView_1899_0_0",
                  "ZOrder": 0,
                  "actiontag": 1901,
                  "anchorPointX": 0,
                  "anchorPointY": 0,
                  "classType": null,
                  "colorB": 255,
                  "colorG": 255,
                  "colorR": 255,
                  "flipX": false,
                  "flipY": false,
                  "height": 364,
                  "ignoreSize": false,
                  "layoutParameter": null,
                  "opacity": 255,
                  "positionPercentX": 0.3594132,
                  "positionPercentY": 0.0108108111,
                  "positionType": 0,
                  "rotation": 0,
                  "scaleX": 1,
                  "scaleY": 1,
                  "sizePercentX": 0.03,
                  "sizePercentY": 0.979999959,
                  "sizeType": 0,
                  "tag": 483,
                  "touchAble": false,
                  "useMergedTexture": false,
                  "visible": true,
                  "width": 11,
                  "x": 147,
                  "y": 4,
                  "capInsetsHeight": 1,
                  "capInsetsWidth": 1,
                  "capInsetsX": 11,
                  "capInsetsY": 5,
                  "fileName": null,
                  "fileNameData": {
                    "path": "no4_bian.png",
                    "plistFile": null,
                    "resourceType": 0
                  },
                  "scale9Enable": true,
                  "scale9Height": 364,
                  "scale9Width": 11
                }
              },
              {
                "classname": "ImageView",
                "name": null,
                "children": [],
                "options": {
                  "__type": "ComGUIImageViewSurrogate:#EditorCommon.JsonModel.Component.GUI",
                  "classname": "ImageView",
                  "name": "ImageView_1910",
                  "ZOrder": 0,
                  "actiontag": 1910,
                  "anchorPointX": 0.5,
                  "anchorPointY": 0.5,
                  "classType": null,
                  "colorB": 255,
                  "colorG": 255,
                  "colorR": 255,
                  "flipX": false,
                  "flipY": false,
                  "height": 28,
                  "ignoreSize": false,
                  "layoutParameter": null,
                  "opacity": 255,
                  "positionPercentX": 0.188264057,
                  "positionPercentY": 0.6972973,
                  "positionType": 0,
                  "rotation": 0,
                  "scaleX": 1,
                  "scaleY": 1.1,
                  "sizePercentX": 0.269999981,
                  "sizePercentY": 0.08,
                  "sizeType": 0,
                  "tag": 39,
                  "touchAble": false,
                  "useMergedTexture": false,
                  "visible": true,
                  "width": 111,
                  "x": 77,
                  "y": 258,
                  "capInsetsHeight": 0,
                  "capInsetsWidth": 0,
                  "capInsetsX": 0,
                  "capInsetsY": 0,
                  "fileName": null,
                  "fileNameData": {
                    "path": "no4_dipro.png",
                    "plistFile": null,
                    "resourceType": 0
                  },
                  "scale9Enable": true,
                  "scale9Height": 28,
                  "scale9Width": 111
                }
              },
              {
                "classname": "ImageView",
                "name": null,
                "children": [],
                "options": {
                  "__type": "ComGUIImageViewSurrogate:#EditorCommon.JsonModel.Component.GUI",
                  "classname": "ImageView",
                  "name": "ImageView_1899",
                  "ZOrder": 1,
                  "actiontag": 1899,
                  "anchorPointX": 0,
                  "anchorPointY": 0,
                  "classType": null,
                  "colorB": 255,
                  "colorG": 255,
                  "colorR": 255,
                  "flipX": false,
                  "flipY": false,
                  "height": 6,
                  "ignoreSize": false,
                  "layoutParameter": null,
                  "opacity": 255,
                  "positionPercentX": 0.03178484,
                  "positionPercentY": 0.278378367,
                  "positionType": 0,
                  "rotation": 0,
                  "scaleX": 1,
                  "scaleY": 1,
                  "sizePercentX": 0.32,
                  "sizePercentY": 0.02,
                  "sizeType": 0,
                  "tag": 483,
                  "touchAble": false,
                  "useMergedTexture": false,
                  "visible": true,
                  "width": 130,
                  "x": 13,
                  "y": 103,
                  "capInsetsHeight": 1,
                  "capInsetsWidth": 1,
                  "capInsetsX": 16,
                  "capInsetsY": 6,
                  "fileName": null,
                  "fileNameData": {
                    "path": "no1_heng.png",
                    "plistFile": null,
                    "resourceType": 0
                  },
                  "scale9Enable": true,
                  "scale9Height": 6,
                  "scale9Width": 130
                }
              }
            ],
            "options": {
              "__type": "ComGUIImageViewSurrogate:#EditorCommon.JsonModel.Component.GUI",
              "classname": "ImageView",
              "name": "ImageView_lv4dikuang_right_0_1",
              "ZOrder": 0,
              "actiontag": 1468,
              "anchorPointX": 0,
              "anchorPointY": 0,
              "classType": null,
              "colorB": 255,
              "colorG": 255,
              "colorR": 255,
              "flipX": false,
              "flipY": false,
              "height": 370,
              "ignoreSize": false,
              "layoutParameter": null,
              "opacity": 255,
              "positionPercentX": 0.376420468,
              "positionPercentY": 0.04888889,
              "positionType": 0,
              "rotation": 0,
              "scaleX": 1,
              "scaleY": 1,
              "sizePercentX": 0.58,
              "sizePercentY": 0.82,
              "sizeType": 0,
              "tag": 74,
              "touchAble": false,
              "useMergedTexture": false,
              "visible": true,
              "width": 409,
              "x": 265,
              "y": 22,
              "capInsetsHeight": 1,
              "capInsetsWidth": 1,
              "capInsetsX": 32,
              "capInsetsY": 32,
              "fileName": null,
              "fileNameData": {
                "path": "LV5_dikuang_miaobian1.png",
                "plistFile": null,
                "resourceType": 0
              },
              "scale9Enable": true,
              "scale9Height": 370,
              "scale9Width": 409
            }
          },
          {
            "classname": "LabelBMFont",
            "name": null,
            "children": [],
            "options": {
              "__type": "ComGUILabelBMFontSurrogate:#EditorCommon.JsonModel.Component.GUI",
              "classname": "LabelBMFont",
              "name": "LabelBMFont_7901",
              "ZOrder": 2,
              "actiontag": 7901,
              "anchorPointX": 0.5,
              "anchorPointY": 0.5,
              "classType": null,
              "colorB": 255,
              "colorG": 255,
              "colorR": 255,
              "flipX": false,
              "flipY": false,
              "height": 21,
              "ignoreSize": true,
              "layoutParameter": null,
              "opacity": 255,
              "positionPercentX": 0.465909064,
              "positionPercentY": 0.24666667,
              "positionType": 0,
              "rotation": 0,
              "scaleX": 1,
              "scaleY": 1,
              "sizePercentX": 0.12,
              "sizePercentY": 0.049999997,
              "sizeType": 0,
              "tag": 40,
              "touchAble": false,
              "useMergedTexture": false,
              "visible": true,
              "width": 81,
              "x": 328,
              "y": 111,
              "fileNameData": {
                "path": "font/ziti_3.fnt",
                "plistFile": null,
                "resourceType": 0
              },
              "text": "升级需求"
            }
          },
          {
            "classname": "Label",
            "name": null,
            "children": [],
            "options": {
              "__type": "ComGUILabelSurrogate:#EditorCommon.JsonModel.Component.GUI",
              "classname": "Label",
              "name": "label_skillQualityValue",
              "ZOrder": 0,
              "actiontag": 1948,
              "anchorPointX": 0,
              "anchorPointY": 0,
              "classType": null,
              "colorB": 13,
              "colorG": 93,
              "colorR": 47,
              "flipX": false,
              "flipY": false,
              "height": 0,
              "ignoreSize": true,
              "layoutParameter": null,
              "opacity": 255,
              "positionPercentX": 0.5255682,
              "positionPercentY": 0.4422222,
              "positionType": 0,
              "rotation": 0,
              "scaleX": 1,
              "scaleY": 1,
              "sizePercentX": 0.03,
              "sizePercentY": 0.04,
              "sizeType": 0,
              "tag": 40,
              "touchAble": false,
              "useMergedTexture": false,
              "visible": true,
              "width": 0,
              "x": 370,
              "y": 199,
              "fontName": "黑体",
              "fontSize": 18,
              "fontType": 1,
              "text": "无",
              "touchScaleEnable": false
            }
          }
        ],
        "options": {
          "__type": "ComGUIPanelSurrogate:#EditorCommon.JsonModel.Component.GUI",
          "classname": "Panel",
          "name": "Panel_skill",
          "ZOrder": 3,
          "actiontag": 447,
          "anchorPointX": 0,
          "anchorPointY": 0,
          "classType": null,
          "colorB": 255,
          "colorG": 255,
          "colorR": 255,
          "flipX": false,
          "flipY": false,
          "height": 450,
          "ignoreSize": false,
          "layoutParameter": null,
          "opacity": 255,
          "positionPercentX": 0,
          "positionPercentY": 0,
          "positionType": 0,
          "rotation": 0,
          "scaleX": 1,
          "scaleY": 1,
          "sizePercentX": 1,
          "sizePercentY": 1.07999992,
          "sizeType": 0,
          "tag": 427,
          "touchAble": false,
          "useMergedTexture": false,
          "visible": true,
          "width": 704,
          "x": 0,
          "y": 0,
          "backGroundImage": null,
          "backGroundImageData": null,
          "backGroundScale9Enable": false,
          "bgColorB": 255,
          "bgColorG": 200,
          "bgColorOpacity": 0,
          "bgColorR": 150,
          "bgEndColorB": 255,
          "bgEndColorG": 0,
          "bgEndColorR": 0,
          "bgStartColorB": 255,
          "bgStartColorG": 255,
          "bgStartColorR": 255,
          "capInsetsHeight": 0,
          "capInsetsWidth": 0,
          "capInsetsX": 0,
          "capInsetsY": 0,
          "clipAble": false,
          "colorType": 1,
          "layoutType": 0,
          "vectorX": 0,
          "vectorY": -0.5
        }
      },
      {
        "classname": "ImageView",
        "name": null,
        "children": [],
        "options": {
          "__type": "ComGUIImageViewSurrogate:#EditorCommon.JsonModel.Component.GUI",
          "classname": "ImageView",
          "name": "ImageView_lv1biankuang",
          "ZOrder": 3,
          "actiontag": 636,
          "anchorPointX": 0,
          "anchorPointY": 0,
          "classType": null,
          "colorB": 255,
          "colorG": 255,
          "colorR": 255,
          "flipX": false,
          "flipY": false,
          "height": 391,
          "ignoreSize": false,
          "layoutParameter": null,
          "opacity": 255,
          "positionPercentX": 0.0142247509,
          "positionPercentY": 0.026442308,
          "positionType": 0,
          "rotation": 0,
          "scaleX": 1,
          "scaleY": 1,
          "sizePercentX": 0.96,
          "sizePercentY": 0.94,
          "sizeType": 0,
          "tag": 616,
          "touchAble": false,
          "useMergedTexture": false,
          "visible": true,
          "width": 674,
          "x": 10,
          "y": 11,
          "capInsetsHeight": 0,
          "capInsetsWidth": 0,
          "capInsetsX": 0,
          "capInsetsY": 0,
          "fileName": null,
          "fileNameData": {
            "path": "biankuang_0.png",
            "plistFile": null,
            "resourceType": 0
          },
          "scale9Enable": true,
          "scale9Height": 391,
          "scale9Width": 674
        }
      },
      {
        "classname": "ImageView",
        "name": null,
        "children": [],
        "options": {
          "__type": "ComGUIImageViewSurrogate:#EditorCommon.JsonModel.Component.GUI",
          "classname": "ImageView",
          "name": "ImageView_shadow",
          "ZOrder": 0,
          "actiontag": 637,
          "anchorPointX": 0,
          "anchorPointY": 0,
          "classType": null,
          "colorB": 255,
          "colorG": 255,
          "colorR": 255,
          "flipX": false,
          "flipY": false,
          "height": 416,
          "ignoreSize": false,
          "layoutParameter": null,
          "opacity": 255,
          "positionPercentX": 0,
          "positionPercentY": 0,
          "positionType": 0,
          "rotation": 0,
          "scaleX": 1,
          "scaleY": 1,
          "sizePercentX": 1,
          "sizePercentY": 1,
          "sizeType": 0,
          "tag": 617,
          "touchAble": false,
          "useMergedTexture": false,
          "visible": true,
          "width": 703,
          "x": 0,
          "y": 0,
          "capInsetsHeight": 1,
          "capInsetsWidth": 1,
          "capInsetsX": 20,
          "capInsetsY": 20,
          "fileName": null,
          "fileNameData": {
            "path": "shadow_0.png",
            "plistFile": null,
            "resourceType": 0
          },
          "scale9Enable": true,
          "scale9Height": 416,
          "scale9Width": 703
        }
      },
      {
        "classname": "ImageView",
        "name": null,
        "children": [],
        "options": {
          "__type": "ComGUIImageViewSurrogate:#EditorCommon.JsonModel.Component.GUI",
          "classname": "ImageView",
          "name": "ImageView_di",
          "ZOrder": 1,
          "actiontag": 24,
          "anchorPointX": 0,
          "anchorPointY": 0,
          "classType": null,
          "colorB": 255,
          "colorG": 255,
          "colorR": 255,
          "flipX": false,
          "flipY": false,
          "height": 387,
          "ignoreSize": false,
          "layoutParameter": null,
          "opacity": 255,
          "positionPercentX": 0.0199146513,
          "positionPercentY": 0.0336538479,
          "positionType": 0,
          "rotation": 0,
          "scaleX": 1,
          "scaleY": 1,
          "sizePercentX": 0.95,
          "sizePercentY": 0.93,
          "sizeType": 0,
          "tag": 4,
          "touchAble": false,
          "useMergedTexture": false,
          "visible": true,
          "width": 668,
          "x": 14,
          "y": 14,
          "capInsetsHeight": 0,
          "capInsetsWidth": 0,
          "capInsetsX": 0,
          "capInsetsY": 0,
          "fileName": null,
          "fileNameData": {
            "path": "LV1_di.png",
            "plistFile": null,
            "resourceType": 0
          },
          "scale9Enable": true,
          "scale9Height": 387,
          "scale9Width": 668
        }
      },
      {
        "classname": "Button",
        "name": null,
        "children": [],
        "options": {
          "__type": "ComGUIButtonSurrogate:#EditorCommon.JsonModel.Component.GUI",
          "classname": "Button",
          "name": "Button_close",
          "ZOrder": 4,
          "actiontag": 93,
          "anchorPointX": 0.5,
          "anchorPointY": 0.5,
          "classType": null,
          "colorB": 255,
          "colorG": 255,
          "colorR": 255,
          "flipX": false,
          "flipY": false,
          "height": 39,
          "ignoreSize": true,
          "layoutParameter": null,
          "opacity": 255,
          "positionPercentX": 0.96443814,
          "positionPercentY": 0.949519157,
          "positionType": 0,
          "rotation": 0,
          "scaleX": 1,
          "scaleY": 1,
          "sizePercentX": 0.049999997,
          "sizePercentY": 0.0899999961,
          "sizeType": 0,
          "tag": 73,
          "touchAble": false,
          "useMergedTexture": false,
          "visible": true,
          "width": 37,
          "x": 678,
          "y": 395,
          "capInsetsHeight": 0,
          "capInsetsWidth": 0,
          "capInsetsX": 0,
          "capInsetsY": 0,
          "disabled": null,
          "disabledData": {
            "path": null,
            "plistFile": null,
            "resourceType": 0
          },
          "normal": null,
          "normalData": {
            "path": "close.png",
            "plistFile": null,
            "resourceType": 0
          },
          "pressed": null,
          "pressedData": {
            "path": "close.png",
            "plistFile": null,
            "resourceType": 0
          },
          "scale9Enable": false,
          "scale9Height": 39,
          "scale9Width": 37
        }
      },
      {
        "classname": "ImageView",
        "name": null,
        "children": [],
        "options": {
          "__type": "ComGUIImageViewSurrogate:#EditorCommon.JsonModel.Component.GUI",
          "classname": "ImageView",
          "name": "ImageView_tietu_right",
          "ZOrder": 2,
          "actiontag": 61,
          "anchorPointX": 0,
          "anchorPointY": 0,
          "classType": null,
          "colorB": 255,
          "colorG": 255,
          "colorR": 255,
          "flipX": false,
          "flipY": false,
          "height": 60,
          "ignoreSize": true,
          "layoutParameter": null,
          "opacity": 255,
          "positionPercentX": 0.8179232,
          "positionPercentY": 0.8004808,
          "positionType": 0,
          "rotation": 0,
          "scaleX": 1,
          "scaleY": 1,
          "sizePercentX": 0.149999991,
          "sizePercentY": 0.14,
          "sizeType": 0,
          "tag": 41,
          "touchAble": false,
          "useMergedTexture": false,
          "visible": true,
          "width": 108,
          "x": 575,
          "y": 333,
          "capInsetsHeight": 0,
          "capInsetsWidth": 0,
          "capInsetsX": 0,
          "capInsetsY": 0,
          "fileName": null,
          "fileNameData": {
            "path": "tietu_flower.png",
            "plistFile": null,
            "resourceType": 0
          },
          "scale9Enable": false,
          "scale9Height": 60,
          "scale9Width": 108
        }
      }
    ],
    "options": {
      "__type": "ComGUIPanelSurrogate:#EditorCommon.JsonModel.Component.GUI",
      "classname": "Panel",
      "name": "Panel",
      "ZOrder": 0,
      "actiontag": -1,
      "anchorPointX": 0,
      "anchorPointY": 0,
      "classType": null,
      "colorB": 255,
      "colorG": 255,
      "colorR": 255,
      "flipX": false,
      "flipY": false,
      "height": 416,
      "ignoreSize": false,
      "layoutParameter": null,
      "opacity": 255,
      "positionPercentX": 0,
      "positionPercentY": 0,
      "positionType": 0,
      "rotation": 0,
      "scaleX": 1,
      "scaleY": 1,
      "sizePercentX": 0.01,
      "sizePercentY": 0.01,
      "sizeType": 0,
      "tag": 1,
      "touchAble": false,
      "useMergedTexture": false,
      "visible": true,
      "width": 703,
      "x": 0,
      "y": 0,
      "backGroundImage": null,
      "backGroundImageData": null,
      "backGroundScale9Enable": false,
      "bgColorB": 255,
      "bgColorG": 200,
      "bgColorOpacity": 0,
      "bgColorR": 150,
      "bgEndColorB": 255,
      "bgEndColorG": 0,
      "bgEndColorR": 0,
      "bgStartColorB": 255,
      "bgStartColorG": 255,
      "bgStartColorR": 255,
      "capInsetsHeight": 0,
      "capInsetsWidth": 0,
      "capInsetsX": 0,
      "capInsetsY": 0,
      "clipAble": false,
      "colorType": 1,
      "layoutType": 0,
      "vectorX": 0,
      "vectorY": -0.5
    }
  }
}