{
  "classname": "CCNode",
  "name": null,
  "canedit": true,
  "objecttag": 10001,
  "rotation": 0,
  "scalex": 1,
  "scaley": 1,
  "visible": 1,
  "x": 0,
  "y": 0,
  "zorder": 1,
  "gameobjects": [
    {
      "__type": "ComGameObjectSurrogate:#EditorCommon.JsonModel",
      "classname": "CCNode",
      "name": null,
      "canedit": false,
      "objecttag": 10003,
      "rotation": 0,
      "scalex": 1,
      "scaley": 1,
      "visible": 1,
      "x": 1536,
      "y": 896,
      "zorder": 1,
      "gameobjects": [],
      "components": [
        {
          "__type": "ComSpriteSurrogate:#EditorCommon.JsonModel.Component",
          "classname": "CCSprite",
          "name": "CCSprite",
          "file": null,
          "fileData": {
            "path": "images/bg.png",
            "plistFile": null,
            "resourceType": 0
          }
        }
      ]
    },
    {
      "__type": "ComGameObjectSurrogate:#EditorCommon.JsonModel",
      "classname": "CCNode",
      "name": "taohua9",
      "canedit": true,
      "objecttag": 10008,
      "rotation": -20,
      "scalex": 0.799999952,
      "scaley": 0.799999952,
      "visible": 1,
      "x": 1863.683837890625,
      "y": 1460.6578369140625,
      "zorder": 1,
      "gameobjects": [],
      "components": [
        {
          "__type": "ComParticleSystemSurrogate:#EditorCommon.JsonModel.Component",
          "classname": "CCParticleSystemQuad",
          "name": "CCParticleSystemQuad",
          "file": null,
          "fileData": {
            "path": "animation/texiao/particledesigner/taohua1.plist",
            "plistFile": null,
            "resourceType": 0
          }
        }
      ]
    },
    {
      "__type": "ComGameObjectSurrogate:#EditorCommon.JsonModel",
      "classname": "CCNode",
      "name": "paopao1",
      "canedit": true,
      "objecttag": 10014,
      "rotation": 0,
      "scalex": 0.799999952,
      "scaley": 0.799999952,
      "visible": 1,
      "x": 1391.23583984375,
      "y": 910.4478759765625,
      "zorder": 1,
      "gameobjects": [],
      "components": [
        {
          "__type": "ComParticleSystemSurrogate:#EditorCommon.JsonModel.Component",
          "classname": "CCParticleSystemQuad",
          "name": "CCParticleSystemQuad",
          "file": null,
          "fileData": {
            "path": "animation/texiao/particledesigner/paopao1.plist",
            "plistFile": null,
            "resourceType": 0
          }
        }
      ]
    },
    {
      "__type": "ComGameObjectSurrogate:#EditorCommon.JsonModel",
      "classname": "CCNode",
      "name": "paopao4",
      "canedit": true,
      "objecttag": 10015,
      "rotation": 0,
      "scalex": 0.5999999,
      "scaley": 0.5999999,
      "visible": 1,
      "x": 2391.645263671875,
      "y": 916.90252685546875,
      "zorder": 1,
      "gameobjects": [],
      "components": [
        {
          "__type": "ComParticleSystemSurrogate:#EditorCommon.JsonModel.Component",
          "classname": "CCParticleSystemQuad",
          "name": "CCParticleSystemQuad",
          "file": null,
          "fileData": {
            "path": "animation/texiao/particledesigner/paopao1.plist",
            "plistFile": null,
            "resourceType": 0
          }
        }
      ]
    },
    {
      "__type": "ComGameObjectSurrogate:#EditorCommon.JsonModel",
      "classname": "CCNode",
      "name": "baiyan1",
      "canedit": true,
      "objecttag": 10019,
      "rotation": -60,
      "scalex": 0.199999928,
      "scaley": 0.199999928,
      "visible": 1,
      "x": 1840.2210693359375,
      "y": 358.5086669921875,
      "zorder": 1,
      "gameobjects": [],
      "components": [
        {
          "__type": "ComParticleSystemSurrogate:#EditorCommon.JsonModel.Component",
          "classname": "CCParticleSystemQuad",
          "name": "CCParticleSystemQuad",
          "file": null,
          "fileData": {
            "path": "animation/texiao/particledesigner/baiyan1.plist",
            "plistFile": null,
            "resourceType": 0
          }
        }
      ]
    },
    {
      "__type": "ComGameObjectSurrogate:#EditorCommon.JsonModel",
      "classname": "CCNode",
      "name": "baiyan2",
      "canedit": true,
      "objecttag": 10021,
      "rotation": -60,
      "scalex": 0.199999928,
      "scaley": 0.199999928,
      "visible": 1,
      "x": 1438.306884765625,
      "y": 1009.717529296875,
      "zorder": 1,
      "gameobjects": [],
      "components": [
        {
          "__type": "ComParticleSystemSurrogate:#EditorCommon.JsonModel.Component",
          "classname": "CCParticleSystemQuad",
          "name": "CCParticleSystemQuad",
          "file": null,
          "fileData": {
            "path": "animation/texiao/particledesigner/baiyan1.plist",
            "plistFile": null,
            "resourceType": 0
          }
        }
      ]
    },
    {
      "__type": "ComGameObjectSurrogate:#EditorCommon.JsonModel",
      "classname": "CCNode",
      "name": null,
      "canedit": true,
      "objecttag": 10023,
      "rotation": 0,
      "scalex": 1,
      "scaley": 1,
      "visible": 1,
      "x": 1619.3583984375,
      "y": 570.23028564453125,
      "zorder": 1,
      "gameobjects": [],
      "components": [
        {
          "__type": "ComParticleSystemSurrogate:#EditorCommon.JsonModel.Component",
          "classname": "CCParticleSystemQuad",
          "name": "CCParticleSystemQuad",
          "file": null,
          "fileData": {
            "path": "animation/texiao/particledesigner/shuiwen.plist",
            "plistFile": null,
            "resourceType": 0
          }
        }
      ]
    },
    {
      "__type": "ComGameObjectSurrogate:#EditorCommon.JsonModel",
      "classname": "CCNode",
      "name": "taohua13",
      "canedit": true,
      "objecttag": 10046,
      "rotation": 270,
      "scalex": 0.6999999,
      "scaley": 0.6999999,
      "visible": 1,
      "x": 2365.001708984375,
      "y": 107.636962890625,
      "zorder": 1,
      "gameobjects": [],
      "components": [
        {
          "__type": "ComParticleSystemSurrogate:#EditorCommon.JsonModel.Component",
          "classname": "CCParticleSystemQuad",
          "name": "CCParticleSystemQuad",
          "file": null,
          "fileData": {
            "path": "animation/texiao/particledesigner/taohua1.plist",
            "plistFile": null,
            "resourceType": 0
          }
        }
      ]
    },
    {
      "__type": "ComGameObjectSurrogate:#EditorCommon.JsonModel",
      "classname": "CCNode",
      "name": "paopao5",
      "canedit": true,
      "objecttag": 10050,
      "rotation": 0,
      "scalex": 0.6999999,
      "scaley": 0.6999999,
      "visible": 1,
      "x": 2063.5927734375,
      "y": 246.63697814941406,
      "zorder": 1,
      "gameobjects": [],
      "components": [
        {
          "__type": "ComParticleSystemSurrogate:#EditorCommon.JsonModel.Component",
          "classname": "CCParticleSystemQuad",
          "name": "CCParticleSystemQuad",
          "file": null,
          "fileData": {
            "path": "animation/texiao/particledesigner/paopao1.plist",
            "plistFile": null,
            "resourceType": 0
          }
        }
      ]
    },
    {
      "__type": "ComGameObjectSurrogate:#EditorCommon.JsonModel",
      "classname": "CCNode",
      "name": "shuiwen3",
      "canedit": true,
      "objecttag": 10051,
      "rotation": 0,
      "scalex": 1,
      "scaley": 1,
      "visible": 1,
      "x": 2004.6385498046875,
      "y": 154.50064086914063,
      "zorder": 1,
      "gameobjects": [],
      "components": [
        {
          "__type": "ComParticleSystemSurrogate:#EditorCommon.JsonModel.Component",
          "classname": "CCParticleSystemQuad",
          "name": "CCParticleSystemQuad",
          "file": null,
          "fileData": {
            "path": "animation/texiao/particledesigner/shuiwen.plist",
            "plistFile": null,
            "resourceType": 0
          }
        }
      ]
    },
    {
      "__type": "ComGameObjectSurrogate:#EditorCommon.JsonModel",
      "classname": "CCNode",
      "name": "shuiwen2",
      "canedit": true,
      "objecttag": 10052,
      "rotation": 0,
      "scalex": 1,
      "scaley": 1,
      "visible": 1,
      "x": 2386.3203125,
      "y": 987.5458984375,
      "zorder": 1,
      "gameobjects": [],
      "components": [
        {
          "__type": "ComParticleSystemSurrogate:#EditorCommon.JsonModel.Component",
          "classname": "CCParticleSystemQuad",
          "name": "CCParticleSystemQuad",
          "file": null,
          "fileData": {
            "path": "animation/texiao/particledesigner/shuiwen.plist",
            "plistFile": null,
            "resourceType": 0
          }
        }
      ]
    },
    {
      "__type": "ComGameObjectSurrogate:#EditorCommon.JsonModel",
      "classname": "CCNode",
      "name": "xiaoxingxing5",
      "canedit": true,
      "objecttag": 10056,
      "rotation": 0,
      "scalex": 1,
      "scaley": 1,
      "visible": 1,
      "x": 1076.0928955078125,
      "y": 1078.455078125,
      "zorder": 1,
      "gameobjects": [],
      "components": [
        {
          "__type": "ComParticleSystemSurrogate:#EditorCommon.JsonModel.Component",
          "classname": "CCParticleSystemQuad",
          "name": "CCParticleSystemQuad",
          "file": null,
          "fileData": {
            "path": "animation/texiao/particledesigner/xiaoxingxing1.plist",
            "plistFile": null,
            "resourceType": 0
          }
        }
      ]
    },
    {
      "__type": "ComGameObjectSurrogate:#EditorCommon.JsonModel",
      "classname": "CCNode",
      "name": "xiaoxingxing3",
      "canedit": true,
      "objecttag": 10060,
      "rotation": 0,
      "scalex": 1,
      "scaley": 1,
      "visible": 1,
      "x": 1313.4112548828125,
      "y": 1129.5458984375,
      "zorder": 1,
      "gameobjects": [],
      "components": [
        {
          "__type": "ComParticleSystemSurrogate:#EditorCommon.JsonModel.Component",
          "classname": "CCParticleSystemQuad",
          "name": "CCParticleSystemQuad",
          "file": null,
          "fileData": {
            "path": "animation/texiao/particledesigner/xiaoxingxing1.plist",
            "plistFile": null,
            "resourceType": 0
          }
        }
      ]
    },
    {
      "__type": "ComGameObjectSurrogate:#EditorCommon.JsonModel",
      "classname": "CCNode",
      "name": "paopao2",
      "canedit": true,
      "objecttag": 10065,
      "rotation": 0,
      "scalex": 0.6999999,
      "scaley": 0.6999999,
      "visible": 1,
      "x": 1797.683837890625,
      "y": 654.59136962890625,
      "zorder": 1,
      "gameobjects": [],
      "components": [
        {
          "__type": "ComParticleSystemSurrogate:#EditorCommon.JsonModel.Component",
          "classname": "CCParticleSystemQuad",
          "name": "CCParticleSystemQuad",
          "file": null,
          "fileData": {
            "path": "animation/texiao/particledesigner/paopao1.plist",
            "plistFile": null,
            "resourceType": 0
          }
        }
      ]
    },
    {
      "__type": "ComGameObjectSurrogate:#EditorCommon.JsonModel",
      "classname": "CCNode",
      "name": "paopao3",
      "canedit": true,
      "objecttag": 10066,
      "rotation": 0,
      "scalex": 0.4999999,
      "scaley": 0.4999999,
      "visible": 1,
      "x": 1844.1385498046875,
      "y": 627.45513916015625,
      "zorder": 1,
      "gameobjects": [],
      "components": [
        {
          "__type": "ComParticleSystemSurrogate:#EditorCommon.JsonModel.Component",
          "classname": "CCParticleSystemQuad",
          "name": "CCParticleSystemQuad",
          "file": null,
          "fileData": {
            "path": "animation/texiao/particledesigner/paopao1.plist",
            "plistFile": null,
            "resourceType": 0
          }
        }
      ]
    },
    {
      "__type": "ComGameObjectSurrogate:#EditorCommon.JsonModel",
      "classname": "CCNode",
      "name": "taohua13",
      "canedit": true,
      "objecttag": 10080,
      "rotation": -20,
      "scalex": 0.799999952,
      "scaley": 0.799999952,
      "visible": 1,
      "x": 985.5,
      "y": 908,
      "zorder": 1,
      "gameobjects": [],
      "components": [
        {
          "__type": "ComParticleSystemSurrogate:#EditorCommon.JsonModel.Component",
          "classname": "CCParticleSystemQuad",
          "name": "CCParticleSystemQuad",
          "file": null,
          "fileData": {
            "path": "animation/texiao/particledesigner/taohua1.plist",
            "plistFile": null,
            "resourceType": 0
          }
        },
        {
          "__type": "ComPropertySurrogate:#EditorCommon.JsonModel.Component",
          "classname": "CCComAttribute",
          "name": "CCComAttribute",
          "fileData": null,
          "keyvalues": null
        }
      ]
    },
    {
      "__type": "ComGameObjectSurrogate:#EditorCommon.JsonModel",
      "classname": "CCNode",
      "name": "taohua14",
      "canedit": true,
      "objecttag": 10081,
      "rotation": -55,
      "scalex": 0.799999952,
      "scaley": 0.799999952,
      "visible": 1,
      "x": 716.5,
      "y": 880,
      "zorder": 1,
      "gameobjects": [],
      "components": [
        {
          "__type": "ComParticleSystemSurrogate:#EditorCommon.JsonModel.Component",
          "classname": "CCParticleSystemQuad",
          "name": "CCParticleSystemQuad",
          "file": null,
          "fileData": {
            "path": "animation/texiao/particledesigner/taohua1.plist",
            "plistFile": null,
            "resourceType": 0
          }
        }
      ]
    },
    {
      "__type": "ComGameObjectSurrogate:#EditorCommon.JsonModel",
      "classname": "CCNode",
      "name": "taohua16",
      "canedit": true,
      "objecttag": 10082,
      "rotation": -20,
      "scalex": 1,
      "scaley": 1,
      "visible": 1,
      "x": 840.8333740234375,
      "y": 1002.3333740234375,
      "zorder": 1,
      "gameobjects": [],
      "components": [
        {
          "__type": "ComParticleSystemSurrogate:#EditorCommon.JsonModel.Component",
          "classname": "CCParticleSystemQuad",
          "name": "CCParticleSystemQuad",
          "file": null,
          "fileData": {
            "path": "animation/texiao/particledesigner/taohua1.plist",
            "plistFile": null,
            "resourceType": 0
          }
        }
      ]
    },
    {
      "__type": "ComGameObjectSurrogate:#EditorCommon.JsonModel",
      "classname": "CCNode",
      "name": "xiaoxingxing4_Copy",
      "canedit": true,
      "objecttag": 10083,
      "rotation": 0,
      "scalex": 1,
      "scaley": 1,
      "visible": 1,
      "x": 1229.4111328125,
      "y": 1042.909912109375,
      "zorder": 1,
      "gameobjects": [],
      "components": [
        {
          "__type": "ComParticleSystemSurrogate:#EditorCommon.JsonModel.Component",
          "classname": "CCParticleSystemQuad",
          "name": "CCParticleSystemQuad",
          "file": null,
          "fileData": {
            "path": "animation/texiao/particledesigner/xiaoxingxing1.plist",
            "plistFile": null,
            "resourceType": 0
          }
        }
      ]
    },
    {
      "__type": "ComGameObjectSurrogate:#EditorCommon.JsonModel",
      "classname": "CCNode",
      "name": "xiaoxingxing4_Copy",
      "canedit": true,
      "objecttag": 10084,
      "rotation": 0,
      "scalex": 1.2,
      "scaley": 1.2,
      "visible": 1,
      "x": 847.4718017578125,
      "y": 1433.455322265625,
      "zorder": 1,
      "gameobjects": [],
      "components": [
        {
          "__type": "ComParticleSystemSurrogate:#EditorCommon.JsonModel.Component",
          "classname": "CCParticleSystemQuad",
          "name": "CCParticleSystemQuad",
          "file": null,
          "fileData": {
            "path": "animation/texiao/particledesigner/xiaoxingxing1.plist",
            "plistFile": null,
            "resourceType": 0
          }
        }
      ]
    },
    {
      "__type": "ComGameObjectSurrogate:#EditorCommon.JsonModel",
      "classname": "CCNode",
      "name": "xiaoxingxing1_Copy",
      "canedit": true,
      "objecttag": 10088,
      "rotation": 0,
      "scalex": 1.50000012,
      "scaley": 1.50000012,
      "visible": 1,
      "x": 2213.683837890625,
      "y": 1176.9549560546875,
      "zorder": 1,
      "gameobjects": [],
      "components": [
        {
          "__type": "ComParticleSystemSurrogate:#EditorCommon.JsonModel.Component",
          "classname": "CCParticleSystemQuad",
          "name": "CCParticleSystemQuad",
          "file": null,
          "fileData": {
            "path": "animation/texiao/particledesigner/xiaoxingxing1.plist",
            "plistFile": null,
            "resourceType": 0
          }
        }
      ]
    },
    {
      "__type": "ComGameObjectSurrogate:#EditorCommon.JsonModel",
      "classname": "CCNode",
      "name": "_Copy",
      "canedit": true,
      "objecttag": 10048,
      "rotation": 0,
      "scalex": 0.5999999,
      "scaley": 0.5999999,
      "visible": 1,
      "x": 166,
      "y": 1485,
      "zorder": 1,
      "gameobjects": [],
      "components": [
        {
          "__type": "ComParticleSystemSurrogate:#EditorCommon.JsonModel.Component",
          "classname": "CCParticleSystemQuad",
          "name": "CCParticleSystemQuad",
          "file": null,
          "fileData": {
            "path": "animation/texiao/particledesigner/taohua3.plist",
            "plistFile": null,
            "resourceType": 0
          }
        }
      ]
    },
    {
      "__type": "ComGameObjectSurrogate:#EditorCommon.JsonModel",
      "classname": "CCNode",
      "name": "_Copy_Copy",
      "canedit": true,
      "objecttag": 10049,
      "rotation": 0,
      "scalex": 0.5999999,
      "scaley": 0.5999999,
      "visible": 1,
      "x": 2878,
      "y": 244,
      "zorder": 1,
      "gameobjects": [],
      "components": [
        {
          "__type": "ComParticleSystemSurrogate:#EditorCommon.JsonModel.Component",
          "classname": "CCParticleSystemQuad",
          "name": "CCParticleSystemQuad",
          "file": null,
          "fileData": {
            "path": "animation/texiao/particledesigner/taohua3.plist",
            "plistFile": null,
            "resourceType": 0
          }
        }
      ]
    },
    {
      "__type": "ComGameObjectSurrogate:#EditorCommon.JsonModel",
      "classname": "CCNode",
      "name": "_Copy_Copy",
      "canedit": true,
      "objecttag": 10050,
      "rotation": 0,
      "scalex": 0.5999999,
      "scaley": 0.5999999,
      "visible": 1,
      "x": 466,
      "y": 1534,
      "zorder": 1,
      "gameobjects": [],
      "components": [
        {
          "__type": "ComParticleSystemSurrogate:#EditorCommon.JsonModel.Component",
          "classname": "CCParticleSystemQuad",
          "name": "CCParticleSystemQuad",
          "file": null,
          "fileData": {
            "path": "animation/texiao/particledesigner/taohua3.plist",
            "plistFile": null,
            "resourceType": 0
          }
        }
      ]
    },
    {
      "__type": "ComGameObjectSurrogate:#EditorCommon.JsonModel",
      "classname": "CCNode",
      "name": "_Copy_Copy_Copy",
      "canedit": true,
      "objecttag": 10051,
      "rotation": 0,
      "scalex": 0.5999999,
      "scaley": 0.5999999,
      "visible": 1,
      "x": 914,
      "y": 1777,
      "zorder": 1,
      "gameobjects": [],
      "components": [
        {
          "__type": "ComParticleSystemSurrogate:#EditorCommon.JsonModel.Component",
          "classname": "CCParticleSystemQuad",
          "name": "CCParticleSystemQuad",
          "file": null,
          "fileData": {
            "path": "animation/texiao/particledesigner/taohua3.plist",
            "plistFile": null,
            "resourceType": 0
          }
        }
      ]
    },
    {
      "__type": "ComGameObjectSurrogate:#EditorCommon.JsonModel",
      "classname": "CCNode",
      "name": "_Copy_Copy_Copy",
      "canedit": true,
      "objecttag": 10052,
      "rotation": 0,
      "scalex": 0.5999999,
      "scaley": 0.5999999,
      "visible": 1,
      "x": 1076,
      "y": 1642,
      "zorder": 1,
      "gameobjects": [],
      "components": [
        {
          "__type": "ComParticleSystemSurrogate:#EditorCommon.JsonModel.Component",
          "classname": "CCParticleSystemQuad",
          "name": "CCParticleSystemQuad",
          "file": null,
          "fileData": {
            "path": "animation/texiao/particledesigner/taohua3.plist",
            "plistFile": null,
            "resourceType": 0
          }
        }
      ]
    },
    {
      "__type": "ComGameObjectSurrogate:#EditorCommon.JsonModel",
      "classname": "CCNode",
      "name": "_Copy_Copy_Copy",
      "canedit": true,
      "objecttag": 10053,
      "rotation": 0,
      "scalex": 0.5999999,
      "scaley": 0.5999999,
      "visible": 1,
      "x": 1725,
      "y": 1432,
      "zorder": 1,
      "gameobjects": [],
      "components": [
        {
          "__type": "ComParticleSystemSurrogate:#EditorCommon.JsonModel.Component",
          "classname": "CCParticleSystemQuad",
          "name": "CCParticleSystemQuad",
          "file": null,
          "fileData": {
            "path": "animation/texiao/particledesigner/taohua3.plist",
            "plistFile": null,
            "resourceType": 0
          }
        }
      ]
    },
    {
      "__type": "ComGameObjectSurrogate:#EditorCommon.JsonModel",
      "classname": "CCNode",
      "name": "xiaoxingxing11_Copy",
      "canedit": true,
      "objecttag": 10054,
      "rotation": 0,
      "scalex": 1.30000007,
      "scaley": 1.30000007,
      "visible": 1,
      "x": 2502.09326171875,
      "y": 870.95526123046875,
      "zorder": 1,
      "gameobjects": [],
      "components": [
        {
          "__type": "ComParticleSystemSurrogate:#EditorCommon.JsonModel.Component",
          "classname": "CCParticleSystemQuad",
          "name": "CCParticleSystemQuad",
          "file": null,
          "fileData": {
            "path": "animation/texiao/particledesigner/xiaoxingxing1.plist",
            "plistFile": null,
            "resourceType": 0
          }
        }
      ]
    },
    {
      "__type": "ComGameObjectSurrogate:#EditorCommon.JsonModel",
      "classname": "CCNode",
      "name": "paopao1_Copy",
      "canedit": true,
      "objecttag": 10055,
      "rotation": 0,
      "scalex": 0.4999999,
      "scaley": 0.4999999,
      "visible": 1,
      "x": 1225.23583984375,
      "y": 1152.4478759765625,
      "zorder": 1,
      "gameobjects": [],
      "components": [
        {
          "__type": "ComParticleSystemSurrogate:#EditorCommon.JsonModel.Component",
          "classname": "CCParticleSystemQuad",
          "name": "CCParticleSystemQuad",
          "file": null,
          "fileData": {
            "path": "animation/texiao/particledesigner/paopao1.plist",
            "plistFile": null,
            "resourceType": 0
          }
        }
      ]
    },
    {
      "__type": "ComGameObjectSurrogate:#EditorCommon.JsonModel",
      "classname": "CCNode",
      "name": "paopao1_Copy_Copy",
      "canedit": true,
      "objecttag": 10056,
      "rotation": 0,
      "scalex": 0.5999999,
      "scaley": 0.5999999,
      "visible": 1,
      "x": 577.23583984375,
      "y": 1214.4478759765625,
      "zorder": 1,
      "gameobjects": [],
      "components": [
        {
          "__type": "ComParticleSystemSurrogate:#EditorCommon.JsonModel.Component",
          "classname": "CCParticleSystemQuad",
          "name": "CCParticleSystemQuad",
          "file": null,
          "fileData": {
            "path": "animation/texiao/particledesigner/paopao1.plist",
            "plistFile": null,
            "resourceType": 0
          }
        }
      ]
    },
    {
      "__type": "ComGameObjectSurrogate:#EditorCommon.JsonModel",
      "classname": "CCNode",
      "name": "paopao1_Copy_Copy_Copy",
      "canedit": true,
      "objecttag": 10057,
      "rotation": 0,
      "scalex": 0.799999952,
      "scaley": 0.799999952,
      "visible": 1,
      "x": 1176.23583984375,
      "y": 1315.4478759765625,
      "zorder": 1,
      "gameobjects": [],
      "components": [
        {
          "__type": "ComParticleSystemSurrogate:#EditorCommon.JsonModel.Component",
          "classname": "CCParticleSystemQuad",
          "name": "CCParticleSystemQuad",
          "file": null,
          "fileData": {
            "path": "animation/texiao/particledesigner/paopao1.plist",
            "plistFile": null,
            "resourceType": 0
          }
        }
      ]
    },
    {
      "__type": "ComGameObjectSurrogate:#EditorCommon.JsonModel",
      "classname": "CCNode",
      "name": "baiyan1_Copy",
      "canedit": true,
      "objecttag": 10058,
      "rotation": -60,
      "scalex": 0.299999923,
      "scaley": 0.299999923,
      "visible": 1,
      "x": 1710.2210693359375,
      "y": 900.5086669921875,
      "zorder": 1,
      "gameobjects": [],
      "components": [
        {
          "__type": "ComParticleSystemSurrogate:#EditorCommon.JsonModel.Component",
          "classname": "CCParticleSystemQuad",
          "name": "CCParticleSystemQuad",
          "file": null,
          "fileData": {
            "path": "animation/texiao/particledesigner/baiyan1.plist",
            "plistFile": null,
            "resourceType": 0
          }
        }
      ]
    },
    {
      "__type": "ComGameObjectSurrogate:#EditorCommon.JsonModel",
      "classname": "CCNode",
      "name": "baiyan1_Copy",
      "canedit": true,
      "objecttag": 10059,
      "rotation": -60,
      "scalex": 0.199999928,
      "scaley": 0.199999928,
      "visible": 1,
      "x": 1586.2210693359375,
      "y": 484.5086669921875,
      "zorder": 1,
      "gameobjects": [],
      "components": [
        {
          "__type": "ComParticleSystemSurrogate:#EditorCommon.JsonModel.Component",
          "classname": "CCParticleSystemQuad",
          "name": "CCParticleSystemQuad",
          "file": null,
          "fileData": {
            "path": "animation/texiao/particledesigner/baiyan1.plist",
            "plistFile": null,
            "resourceType": 0
          }
        }
      ]
    },
    {
      "__type": "ComGameObjectSurrogate:#EditorCommon.JsonModel",
      "classname": "CCNode",
      "name": null,
      "canedit": true,
      "objecttag": 10050,
      "rotation": 0,
      "scalex": 1.2,
      "scaley": 1.1,
      "visible": 1,
      "x": 1306,
      "y": 829,
      "zorder": 1,
      "gameobjects": [],
      "components": [
        {
          "__type": "ComParticleSystemSurrogate:#EditorCommon.JsonModel.Component",
          "classname": "CCParticleSystemQuad",
          "name": "CCParticleSystemQuad",
          "file": null,
          "fileData": {
            "path": "animation/texiao/particledesigner/shuiwen1.plist",
            "plistFile": null,
            "resourceType": 0
          }
        }
      ]
    },
    {
      "__type": "ComGameObjectSurrogate:#EditorCommon.JsonModel",
      "classname": "CCNode",
      "name": null,
      "canedit": true,
      "objecttag": 10051,
      "rotation": 0,
      "scalex": 1,
      "scaley": 1,
      "visible": 1,
      "x": 1770,
      "y": 611,
      "zorder": 1,
      "gameobjects": [],
      "components": [
        {
          "__type": "ComParticleSystemSurrogate:#EditorCommon.JsonModel.Component",
          "classname": "CCParticleSystemQuad",
          "name": "CCParticleSystemQuad",
          "file": null,
          "fileData": {
            "path": "animation/texiao/particledesigner/shuiwen1.plist",
            "plistFile": null,
            "resourceType": 0
          }
        }
      ]
    },
    {
      "__type": "ComGameObjectSurrogate:#EditorCommon.JsonModel",
      "classname": "CCNode",
      "name": null,
      "canedit": true,
      "objecttag": 10052,
      "rotation": 0,
      "scalex": 1,
      "scaley": 1,
      "visible": 1,
      "x": 1469,
      "y": 638,
      "zorder": 1,
      "gameobjects": [],
      "components": [
        {
          "__type": "ComParticleSystemSurrogate:#EditorCommon.JsonModel.Component",
          "classname": "CCParticleSystemQuad",
          "name": "CCParticleSystemQuad",
          "file": null,
          "fileData": {
            "path": "animation/texiao/particledesigner/shuiwen1.plist",
            "plistFile": null,
            "resourceType": 0
          }
        }
      ]
    }
  ],
  "CanvasSize": {
    "_height": 1792,
    "_width": 3072
  },
  "Version": "1.1.0.0",
  "components": [
    {
      "__type": "ComSceneSurrogate:#EditorCommon.JsonModel.Component",
      "classname": "CCScene",
      "name": "CCScene",
      "scenename": "xsc"
    },
    {
      "__type": "ComSimpleAudioSurrogate:#EditorCommon.JsonModel.Component",
      "classname": "CCBackgroundAudio",
      "name": "CCBackgroundAudio",
      "file": null,
      "fileData": {
        "path": null,
        "plistFile": null,
        "resourceType": 0
      },
      "loop": 0
    }
  ]
}