{
  "classname": null,
  "name": null,
  "animation": {
    "classname": null,
    "name": "AnimationManager",
    "actionlist": []
  },
  "designHeight": 320,
  "designWidth": 480,
  "textures": [],
  "version": "1.0.0.1",
  "widgetTree": {
    "classname": "Panel",
    "name": null,
    "children": [
      {
        "classname": "ImageView",
        "name": null,
        "children": [
          {
            "classname": "ImageView",
            "name": null,
            "children": [
              {
                "classname": "ImageView",
                "name": null,
                "children": [],
                "options": {
                  "__type": "ComGUIImageViewSurrogate:#EditorCommon.JsonModel.Component.GUI",
                  "classname": "ImageView",
                  "name": "ImageViewshurukuang",
                  "ZOrder": 0,
                  "actiontag": 24,
                  "anchorPointX": 0.5,
                  "anchorPointY": 0.5,
                  "classType": null,
                  "colorB": 255,
                  "colorG": 255,
                  "colorR": 255,
                  "flipX": false,
                  "flipY": false,
                  "height": 34,
                  "ignoreSize": false,
                  "opacity": 255,
                  "rotation": 0,
                  "scaleX": 1,
                  "scaleY": 1,
                  "tag": 4,
                  "touchAble": false,
                  "useMergedTexture": false,
                  "visible": true,
                  "width": 200,
                  "x": 84,
                  "xProportion": 0.21,
                  "y": 21,
                  "yProportion": 0.13125,
                  "capInsetsHeight": 0,
                  "capInsetsWidth": 0,
                  "capInsetsX": 0,
                  "capInsetsY": 0,
                  "fileName": null,
                  "fileNameData": {
                    "path": "shurukuang.png",
                    "plistFile": null,
                    "resourceType": 0
                  },
                  "scale9Enable": true,
                  "scale9Height": 34,
                  "scale9Width": 200
                }
              },
              {
                "classname": "Label",
                "name": null,
                "children": [],
                "options": {
                  "__type": "ComGUILabelSurrogate:#EditorCommon.JsonModel.Component.GUI",
                  "classname": "Label",
                  "name": "Labeljiazuming",
                  "ZOrder": 0,
                  "actiontag": 27,
                  "anchorPointX": 0.5,
                  "anchorPointY": 0.5,
                  "classType": null,
                  "colorB": 255,
                  "colorG": 255,
                  "colorR": 255,
                  "flipX": false,
                  "flipY": false,
                  "height": 16,
                  "ignoreSize": true,
                  "opacity": 255,
                  "rotation": 0,
                  "scaleX": 1,
                  "scaleY": 1,
                  "tag": 7,
                  "touchAble": false,
                  "useMergedTexture": false,
                  "visible": true,
                  "width": 128,
                  "x": -110,
                  "xProportion": -0.275,
                  "y": 21,
                  "yProportion": 0.13125,
                  "fontName": "宋体",
                  "fontSize": 16,
                  "fontType": 0,
                  "text": "请输入家族的名字",
                  "touchScaleEnable": false
                }
              },
              {
                "classname": "Button",
                "name": null,
                "children": [
                  {
                    "classname": "Label",
                    "name": null,
                    "children": [],
                    "options": {
                      "__type": "ComGUILabelSurrogate:#EditorCommon.JsonModel.Component.GUI",
                      "classname": "Label",
                      "name": "LabelButtonSure",
                      "ZOrder": 0,
                      "actiontag": 31,
                      "anchorPointX": 0.5,
                      "anchorPointY": 0.5,
                      "classType": null,
                      "colorB": 255,
                      "colorG": 255,
                      "colorR": 255,
                      "flipX": false,
                      "flipY": false,
                      "height": 20,
                      "ignoreSize": true,
                      "opacity": 255,
                      "rotation": 0,
                      "scaleX": 1,
                      "scaleY": 1,
                      "tag": 11,
                      "touchAble": false,
                      "useMergedTexture": false,
                      "visible": true,
                      "width": 40,
                      "x": 0,
                      "xProportion": 0,
                      "y": 0,
                      "yProportion": 0,
                      "fontName": "宋体",
                      "fontSize": 20,
                      "fontType": 0,
                      "text": "确定",
                      "touchScaleEnable": false
                    }
                  }
                ],
                "options": {
                  "__type": "ComGUIButtonSurrogate:#EditorCommon.JsonModel.Component.GUI",
                  "classname": "Button",
                  "name": "ButtonSure",
                  "ZOrder": 0,
                  "actiontag": 28,
                  "anchorPointX": 0.5,
                  "anchorPointY": 0.5,
                  "classType": null,
                  "colorB": 255,
                  "colorG": 255,
                  "colorR": 255,
                  "flipX": false,
                  "flipY": false,
                  "height": 36,
                  "ignoreSize": true,
                  "opacity": 255,
                  "rotation": 0,
                  "scaleX": 1,
                  "scaleY": 1,
                  "tag": 8,
                  "touchAble": false,
                  "useMergedTexture": false,
                  "visible": true,
                  "width": 84,
                  "x": -113,
                  "xProportion": -0.2825,
                  "y": -54,
                  "yProportion": -0.3375,
                  "capInsetsHeight": 0,
                  "capInsetsWidth": 0,
                  "capInsetsX": 0,
                  "capInsetsY": 0,
                  "disabled": null,
                  "disabledData": {
                    "path": null,
                    "plistFile": null,
                    "resourceType": 0
                  },
                  "normal": null,
                  "normalData": {
                    "path": "button_16.png",
                    "plistFile": null,
                    "resourceType": 0
                  },
                  "pressed": null,
                  "pressedData": {
                    "path": "button_16.png",
                    "plistFile": null,
                    "resourceType": 0
                  },
                  "scale9Enable": false,
                  "scale9Height": 36,
                  "scale9Width": 84
                }
              },
              {
                "classname": "Button",
                "name": null,
                "children": [
                  {
                    "classname": "Label",
                    "name": null,
                    "children": [],
                    "options": {
                      "__type": "ComGUILabelSurrogate:#EditorCommon.JsonModel.Component.GUI",
                      "classname": "Label",
                      "name": "LabelButtonCancel",
                      "ZOrder": 0,
                      "actiontag": 32,
                      "anchorPointX": 0.5,
                      "anchorPointY": 0.5,
                      "classType": null,
                      "colorB": 255,
                      "colorG": 255,
                      "colorR": 255,
                      "flipX": false,
                      "flipY": false,
                      "height": 20,
                      "ignoreSize": true,
                      "opacity": 255,
                      "rotation": 0,
                      "scaleX": 1,
                      "scaleY": 1,
                      "tag": 12,
                      "touchAble": false,
                      "useMergedTexture": false,
                      "visible": true,
                      "width": 40,
                      "x": 0,
                      "xProportion": 0,
                      "y": 0,
                      "yProportion": 0,
                      "fontName": "宋体",
                      "fontSize": 20,
                      "fontType": 0,
                      "text": "取消",
                      "touchScaleEnable": false
                    }
                  }
                ],
                "options": {
                  "__type": "ComGUIButtonSurrogate:#EditorCommon.JsonModel.Component.GUI",
                  "classname": "Button",
                  "name": "ButtonCancel",
                  "ZOrder": 0,
                  "actiontag": 30,
                  "anchorPointX": 0.5,
                  "anchorPointY": 0.5,
                  "classType": null,
                  "colorB": 255,
                  "colorG": 255,
                  "colorR": 255,
                  "flipX": false,
                  "flipY": false,
                  "height": 36,
                  "ignoreSize": true,
                  "opacity": 255,
                  "rotation": 0,
                  "scaleX": 1,
                  "scaleY": 1,
                  "tag": 10,
                  "touchAble": false,
                  "useMergedTexture": false,
                  "visible": true,
                  "width": 84,
                  "x": 100,
                  "xProportion": 0.25,
                  "y": -56,
                  "yProportion": -0.35,
                  "capInsetsHeight": 0,
                  "capInsetsWidth": 0,
                  "capInsetsX": 0,
                  "capInsetsY": 0,
                  "disabled": null,
                  "disabledData": {
                    "path": null,
                    "plistFile": null,
                    "resourceType": 0
                  },
                  "normal": null,
                  "normalData": {
                    "path": "button_16.png",
                    "plistFile": null,
                    "resourceType": 0
                  },
                  "pressed": null,
                  "pressedData": {
                    "path": "button_16.png",
                    "plistFile": null,
                    "resourceType": 0
                  },
                  "scale9Enable": false,
                  "scale9Height": 36,
                  "scale9Width": 84
                }
              }
            ],
            "options": {
              "__type": "ComGUIImageViewSurrogate:#EditorCommon.JsonModel.Component.GUI",
              "classname": "ImageView",
              "name": "ImageViewBgdi",
              "ZOrder": 0,
              "actiontag": 23,
              "anchorPointX": 0.5,
              "anchorPointY": 0.5,
              "classType": null,
              "colorB": 255,
              "colorG": 255,
              "colorR": 255,
              "flipX": false,
              "flipY": false,
              "height": 160,
              "ignoreSize": false,
              "opacity": 255,
              "rotation": 0,
              "scaleX": 1,
              "scaleY": 1,
              "tag": 0,
              "touchAble": false,
              "useMergedTexture": false,
              "visible": true,
              "width": 400,
              "x": 0,
              "xProportion": 0,
              "y": 0,
              "yProportion": 0,
              "capInsetsHeight": 0,
              "capInsetsWidth": 0,
              "capInsetsX": 0,
              "capInsetsY": 0,
              "fileName": null,
              "fileNameData": {
                "path": "LV1_di.png",
                "plistFile": null,
                "resourceType": 0
              },
              "scale9Enable": true,
              "scale9Height": 160,
              "scale9Width": 400
            }
          }
        ],
        "options": {
          "__type": "ComGUIImageViewSurrogate:#EditorCommon.JsonModel.Component.GUI",
          "classname": "ImageView",
          "name": "ImageViewBgbian",
          "ZOrder": 1,
          "actiontag": 22,
          "anchorPointX": 0.5,
          "anchorPointY": 0.5,
          "classType": null,
          "colorB": 255,
          "colorG": 255,
          "colorR": 255,
          "flipX": false,
          "flipY": false,
          "height": 169,
          "ignoreSize": false,
          "opacity": 255,
          "rotation": 0,
          "scaleX": 1,
          "scaleY": 1,
          "tag": 4,
          "touchAble": false,
          "useMergedTexture": false,
          "visible": true,
          "width": 408,
          "x": 239,
          "xProportion": 0.497916669,
          "y": 172,
          "yProportion": 0.5375,
          "capInsetsHeight": 0,
          "capInsetsWidth": 0,
          "capInsetsX": 0,
          "capInsetsY": 0,
          "fileName": null,
          "fileNameData": {
            "path": "biankuang_0.png",
            "plistFile": null,
            "resourceType": 0
          },
          "scale9Enable": true,
          "scale9Height": 169,
          "scale9Width": 408
        }
      }
    ],
    "options": {
      "__type": "ComGUIPanelSurrogate:#EditorCommon.JsonModel.Component.GUI",
      "classname": "Panel",
      "name": "Panel",
      "ZOrder": 0,
      "actiontag": 20,
      "anchorPointX": 0,
      "anchorPointY": 0,
      "classType": null,
      "colorB": 255,
      "colorG": 255,
      "colorR": 255,
      "flipX": false,
      "flipY": false,
      "height": 320,
      "ignoreSize": false,
      "opacity": 255,
      "rotation": 0,
      "scaleX": 1,
      "scaleY": 1,
      "tag": 1,
      "touchAble": false,
      "useMergedTexture": false,
      "visible": true,
      "width": 480,
      "x": 0,
      "xProportion": 0,
      "y": 0,
      "yProportion": 0,
      "backGroundImage": null,
      "backGroundImageData": null,
      "backGroundScale9Enable": false,
      "bgColorB": 255,
      "bgColorG": 200,
      "bgColorOpacity": 0,
      "bgColorR": 150,
      "bgEndColorB": 255,
      "bgEndColorG": 0,
      "bgEndColorR": 0,
      "bgStartColorB": 255,
      "bgStartColorG": 255,
      "bgStartColorR": 255,
      "capInsetsHeight": 0,
      "capInsetsWidth": 0,
      "capInsetsX": 0,
      "capInsetsY": 0,
      "clipAble": false,
      "colorType": 1,
      "vectorX": 0,
      "vectorY": -0.5
    }
  }
}