{
  "classname": null,
  "name": null,
  "animation": {
    "classname": null,
    "name": "AnimationManager",
    "actionlist": []
  },
  "designHeight": 480,
  "designWidth": 800,
  "textures": [],
  "version": "1.1.0.0",
  "widgetTree": {
    "classname": "Panel",
    "name": null,
    "children": [
      {
        "classname": "Panel",
        "name": null,
        "children": [
          {
            "classname": "LabelBMFont",
            "name": null,
            "children": [],
            "options": {
              "__type": "ComGUILabelBMFontSurrogate:#EditorCommon.JsonModel.Component.GUI",
              "classname": "LabelBMFont",
              "name": "LabelBMFont_rankingValue",
              "ZOrder": 0,
              "actiontag": 134,
              "anchorPointX": 0,
              "anchorPointY": 0.5,
              "classType": null,
              "colorB": 255,
              "colorG": 255,
              "colorR": 255,
              "flipX": false,
              "flipY": false,
              "height": 21,
              "ignoreSize": true,
              "layoutParameter": null,
              "opacity": 255,
              "positionPercentX": 0.2625,
              "positionPercentY": 0.08541667,
              "positionType": 0,
              "rotation": 0,
              "scaleX": 1,
              "scaleY": 1,
              "sizePercentX": 0.04,
              "sizePercentY": 0.04,
              "sizeType": 0,
              "tag": 43,
              "touchAble": false,
              "useMergedTexture": false,
              "visible": true,
              "width": 36,
              "x": 210,
              "y": 41,
              "fileNameData": {
                "path": "font/ziti_3.fnt",
                "plistFile": null,
                "resourceType": 0
              },
              "text": "123"
            }
          },
          {
            "classname": "LabelBMFont",
            "name": null,
            "children": [],
            "options": {
              "__type": "ComGUILabelBMFontSurrogate:#EditorCommon.JsonModel.Component.GUI",
              "classname": "LabelBMFont",
              "name": "LabelBMFont_43_0_0",
              "ZOrder": 0,
              "actiontag": 133,
              "anchorPointX": 0,
              "anchorPointY": 0.5,
              "classType": null,
              "colorB": 255,
              "colorG": 255,
              "colorR": 255,
              "flipX": false,
              "flipY": false,
              "height": 21,
              "ignoreSize": true,
              "layoutParameter": null,
              "opacity": 255,
              "positionPercentX": 0.0912499949,
              "positionPercentY": 0.08541667,
              "positionType": 0,
              "rotation": 0,
              "scaleX": 1,
              "scaleY": 1,
              "sizePercentX": 0.179999992,
              "sizePercentY": 0.04,
              "sizeType": 0,
              "tag": 42,
              "touchAble": false,
              "useMergedTexture": false,
              "visible": true,
              "width": 140,
              "x": 73,
              "y": 41,
              "fileNameData": {
                "path": "font/ziti_3.fnt",
                "plistFile": null,
                "resourceType": 0
              },
              "text": "我的家族排名："
            }
          },
          {
            "classname": "ImageView",
            "name": null,
            "children": [
              {
                "classname": "ImageView",
                "name": null,
                "children": [
                  {
                    "classname": "LabelBMFont",
                    "name": null,
                    "children": [],
                    "options": {
                      "__type": "ComGUILabelBMFontSurrogate:#EditorCommon.JsonModel.Component.GUI",
                      "classname": "LabelBMFont",
                      "name": "LabelBMFont_49_0_0_0_1_0",
                      "ZOrder": 0,
                      "actiontag": 97,
                      "anchorPointX": 0.5,
                      "anchorPointY": 0.5,
                      "classType": null,
                      "colorB": 255,
                      "colorG": 255,
                      "colorR": 255,
                      "flipX": false,
                      "flipY": false,
                      "height": 35,
                      "ignoreSize": true,
                      "layoutParameter": null,
                      "opacity": 255,
                      "positionPercentX": 0.515625,
                      "positionPercentY": 0,
                      "positionType": 0,
                      "rotation": 0,
                      "scaleX": 0.75,
                      "scaleY": 0.75,
                      "sizePercentX": 0,
                      "sizePercentY": 1.09,
                      "sizeType": 0,
                      "tag": 42,
                      "touchAble": false,
                      "useMergedTexture": false,
                      "visible": true,
                      "width": 0,
                      "x": 33,
                      "y": 0,
                      "fileNameData": {
                        "path": "font/ziti_1.fnt",
                        "plistFile": null,
                        "resourceType": 0
                      },
                      "text": "胜率"
                    }
                  }
                ],
                "options": {
                  "__type": "ComGUIImageViewSurrogate:#EditorCommon.JsonModel.Component.GUI",
                  "classname": "ImageView",
                  "name": "ImageView_48_0_0_0_1_0",
                  "ZOrder": 0,
                  "actiontag": 96,
                  "anchorPointX": 0,
                  "anchorPointY": 0.5,
                  "classType": null,
                  "colorB": 255,
                  "colorG": 255,
                  "colorR": 255,
                  "flipX": false,
                  "flipY": false,
                  "height": 32,
                  "ignoreSize": false,
                  "layoutParameter": null,
                  "opacity": 255,
                  "positionPercentX": 0.7704678,
                  "positionPercentY": 0.933139563,
                  "positionType": 0,
                  "rotation": 0,
                  "scaleX": 1,
                  "scaleY": 1,
                  "sizePercentX": 0.0899999961,
                  "sizePercentY": 0.0899999961,
                  "sizeType": 0,
                  "tag": 19,
                  "touchAble": false,
                  "useMergedTexture": false,
                  "visible": true,
                  "width": 64,
                  "x": 527,
                  "y": 321,
                  "capInsetsHeight": 0,
                  "capInsetsWidth": 0,
                  "capInsetsX": 0,
                  "capInsetsY": 0,
                  "fileName": null,
                  "fileNameData": {
                    "path": "button_13.png",
                    "plistFile": null,
                    "resourceType": 0
                  },
                  "scale9Enable": true,
                  "scale9Height": 32,
                  "scale9Width": 64
                }
              },
              {
                "classname": "ImageView",
                "name": null,
                "children": [
                  {
                    "classname": "LabelBMFont",
                    "name": null,
                    "children": [],
                    "options": {
                      "__type": "ComGUILabelBMFontSurrogate:#EditorCommon.JsonModel.Component.GUI",
                      "classname": "LabelBMFont",
                      "name": "LabelBMFont_47_0_0",
                      "ZOrder": 0,
                      "actiontag": 62,
                      "anchorPointX": 0,
                      "anchorPointY": 0.5,
                      "classType": null,
                      "colorB": 255,
                      "colorG": 255,
                      "colorR": 255,
                      "flipX": false,
                      "flipY": false,
                      "height": 35,
                      "ignoreSize": true,
                      "layoutParameter": null,
                      "opacity": 255,
                      "positionPercentX": 0.8888889,
                      "positionPercentY": 0,
                      "positionType": 0,
                      "rotation": 0,
                      "scaleX": -0.75,
                      "scaleY": 0.75,
                      "sizePercentX": 0.32,
                      "sizePercentY": 1.09,
                      "sizeType": 0,
                      "tag": 33,
                      "touchAble": false,
                      "useMergedTexture": false,
                      "visible": true,
                      "width": 29,
                      "x": 80,
                      "y": 0,
                      "fileNameData": {
                        "path": "font/ziti_1.fnt",
                        "plistFile": null,
                        "resourceType": 0
                      },
                      "text": "总胜场"
                    }
                  }
                ],
                "options": {
                  "__type": "ComGUIImageViewSurrogate:#EditorCommon.JsonModel.Component.GUI",
                  "classname": "ImageView",
                  "name": "ImageView_45_0_0",
                  "ZOrder": 0,
                  "actiontag": 61,
                  "anchorPointX": 0,
                  "anchorPointY": 0.5,
                  "classType": null,
                  "colorB": 255,
                  "colorG": 255,
                  "colorR": 255,
                  "flipX": false,
                  "flipY": false,
                  "height": 32,
                  "ignoreSize": false,
                  "layoutParameter": null,
                  "opacity": 255,
                  "positionPercentX": 0.994152069,
                  "positionPercentY": 0.933139563,
                  "positionType": 0,
                  "rotation": 0,
                  "scaleX": -1,
                  "scaleY": 1,
                  "sizePercentX": 0.13,
                  "sizePercentY": 0.0899999961,
                  "sizeType": 0,
                  "tag": 16,
                  "touchAble": false,
                  "useMergedTexture": false,
                  "visible": true,
                  "width": 90,
                  "x": 680,
                  "y": 321,
                  "capInsetsHeight": 1,
                  "capInsetsWidth": 1,
                  "capInsetsX": 37,
                  "capInsetsY": 4,
                  "fileName": null,
                  "fileNameData": {
                    "path": "button_14.png",
                    "plistFile": null,
                    "resourceType": 0
                  },
                  "scale9Enable": true,
                  "scale9Height": 32,
                  "scale9Width": 90
                }
              },
              {
                "classname": "ImageView",
                "name": null,
                "children": [
                  {
                    "classname": "LabelBMFont",
                    "name": null,
                    "children": [],
                    "options": {
                      "__type": "ComGUILabelBMFontSurrogate:#EditorCommon.JsonModel.Component.GUI",
                      "classname": "LabelBMFont",
                      "name": "LabelBMFont_49_0_0_0_1",
                      "ZOrder": 0,
                      "actiontag": 64,
                      "anchorPointX": 0.5,
                      "anchorPointY": 0.5,
                      "classType": null,
                      "colorB": 255,
                      "colorG": 255,
                      "colorR": 255,
                      "flipX": false,
                      "flipY": false,
                      "height": 35,
                      "ignoreSize": true,
                      "layoutParameter": null,
                      "opacity": 255,
                      "positionPercentX": 0.5,
                      "positionPercentY": 0,
                      "positionType": 0,
                      "rotation": 0,
                      "scaleX": 0.75,
                      "scaleY": 0.75,
                      "sizePercentX": 0.35,
                      "sizePercentY": 1.09,
                      "sizeType": 0,
                      "tag": 35,
                      "touchAble": false,
                      "useMergedTexture": false,
                      "visible": true,
                      "width": 29,
                      "x": 41,
                      "y": 0,
                      "fileNameData": {
                        "path": "font/ziti_1.fnt",
                        "plistFile": null,
                        "resourceType": 0
                      },
                      "text": "积分"
                    }
                  }
                ],
                "options": {
                  "__type": "ComGUIImageViewSurrogate:#EditorCommon.JsonModel.Component.GUI",
                  "classname": "ImageView",
                  "name": "ImageView_48_0_0_0_1",
                  "ZOrder": 0,
                  "actiontag": 63,
                  "anchorPointX": 0,
                  "anchorPointY": 0.5,
                  "classType": null,
                  "colorB": 255,
                  "colorG": 255,
                  "colorR": 255,
                  "flipX": false,
                  "flipY": false,
                  "height": 32,
                  "ignoreSize": false,
                  "layoutParameter": null,
                  "opacity": 255,
                  "positionPercentX": 0.6520468,
                  "positionPercentY": 0.933139563,
                  "positionType": 0,
                  "rotation": 0,
                  "scaleX": 1,
                  "scaleY": 1,
                  "sizePercentX": 0.12,
                  "sizePercentY": 0.0899999961,
                  "sizeType": 0,
                  "tag": 19,
                  "touchAble": false,
                  "useMergedTexture": false,
                  "visible": true,
                  "width": 82,
                  "x": 446,
                  "y": 321,
                  "capInsetsHeight": 0,
                  "capInsetsWidth": 0,
                  "capInsetsX": 0,
                  "capInsetsY": 0,
                  "fileName": null,
                  "fileNameData": {
                    "path": "button_13.png",
                    "plistFile": null,
                    "resourceType": 0
                  },
                  "scale9Enable": true,
                  "scale9Height": 32,
                  "scale9Width": 82
                }
              },
              {
                "classname": "ImageView",
                "name": null,
                "children": [
                  {
                    "classname": "LabelBMFont",
                    "name": null,
                    "children": [],
                    "options": {
                      "__type": "ComGUILabelBMFontSurrogate:#EditorCommon.JsonModel.Component.GUI",
                      "classname": "LabelBMFont",
                      "name": "LabelBMFont_49_0_0_1",
                      "ZOrder": 0,
                      "actiontag": 66,
                      "anchorPointX": 0.5,
                      "anchorPointY": 0.5,
                      "classType": null,
                      "colorB": 255,
                      "colorG": 255,
                      "colorR": 255,
                      "flipX": false,
                      "flipY": false,
                      "height": 35,
                      "ignoreSize": true,
                      "layoutParameter": null,
                      "opacity": 255,
                      "positionPercentX": 0.503067434,
                      "positionPercentY": 0,
                      "positionType": 0,
                      "rotation": 0,
                      "scaleX": 0.75,
                      "scaleY": 0.75,
                      "sizePercentX": 0.71,
                      "sizePercentY": 1.09,
                      "sizeType": 0,
                      "tag": 37,
                      "touchAble": false,
                      "useMergedTexture": false,
                      "visible": true,
                      "width": 116,
                      "x": 82,
                      "y": 0,
                      "fileNameData": {
                        "path": "font/ziti_1.fnt",
                        "plistFile": null,
                        "resourceType": 0
                      },
                      "text": "族长名称"
                    }
                  }
                ],
                "options": {
                  "__type": "ComGUIImageViewSurrogate:#EditorCommon.JsonModel.Component.GUI",
                  "classname": "ImageView",
                  "name": "ImageView_48_0_0_1",
                  "ZOrder": 0,
                  "actiontag": 65,
                  "anchorPointX": 0,
                  "anchorPointY": 0.5,
                  "classType": null,
                  "colorB": 255,
                  "colorG": 255,
                  "colorR": 255,
                  "flipX": false,
                  "flipY": false,
                  "height": 32,
                  "ignoreSize": false,
                  "layoutParameter": null,
                  "opacity": 255,
                  "positionPercentX": 0.415204644,
                  "positionPercentY": 0.933139563,
                  "positionType": 0,
                  "rotation": 0,
                  "scaleX": 1,
                  "scaleY": 1,
                  "sizePercentX": 0.24,
                  "sizePercentY": 0.0899999961,
                  "sizeType": 0,
                  "tag": 19,
                  "touchAble": false,
                  "useMergedTexture": false,
                  "visible": true,
                  "width": 163,
                  "x": 284,
                  "y": 321,
                  "capInsetsHeight": 0,
                  "capInsetsWidth": 0,
                  "capInsetsX": 0,
                  "capInsetsY": 0,
                  "fileName": null,
                  "fileNameData": {
                    "path": "button_13.png",
                    "plistFile": null,
                    "resourceType": 0
                  },
                  "scale9Enable": true,
                  "scale9Height": 32,
                  "scale9Width": 163
                }
              },
              {
                "classname": "ImageView",
                "name": null,
                "children": [
                  {
                    "classname": "LabelBMFont",
                    "name": null,
                    "children": [],
                    "options": {
                      "__type": "ComGUILabelBMFontSurrogate:#EditorCommon.JsonModel.Component.GUI",
                      "classname": "LabelBMFont",
                      "name": "LabelBMFont_49_0_1",
                      "ZOrder": 0,
                      "actiontag": 68,
                      "anchorPointX": 0.5,
                      "anchorPointY": 0.5,
                      "classType": null,
                      "colorB": 255,
                      "colorG": 255,
                      "colorR": 255,
                      "flipX": false,
                      "flipY": false,
                      "height": 35,
                      "ignoreSize": true,
                      "layoutParameter": null,
                      "opacity": 255,
                      "positionPercentX": 0.509090841,
                      "positionPercentY": 0,
                      "positionType": 0,
                      "rotation": 0,
                      "scaleX": 0.75,
                      "scaleY": 0.75,
                      "sizePercentX": 1.05,
                      "sizePercentY": 1.09,
                      "sizeType": 0,
                      "tag": 39,
                      "touchAble": false,
                      "useMergedTexture": false,
                      "visible": true,
                      "width": 58,
                      "x": 28,
                      "y": 0,
                      "fileNameData": {
                        "path": "font/ziti_1.fnt",
                        "plistFile": null,
                        "resourceType": 0
                      },
                      "text": "等级"
                    }
                  }
                ],
                "options": {
                  "__type": "ComGUIImageViewSurrogate:#EditorCommon.JsonModel.Component.GUI",
                  "classname": "ImageView",
                  "name": "ImageView_48_0_1",
                  "ZOrder": 0,
                  "actiontag": 67,
                  "anchorPointX": 0,
                  "anchorPointY": 0.5,
                  "classType": null,
                  "colorB": 255,
                  "colorG": 255,
                  "colorR": 255,
                  "flipX": false,
                  "flipY": false,
                  "height": 32,
                  "ignoreSize": false,
                  "layoutParameter": null,
                  "opacity": 255,
                  "positionPercentX": 0.3362573,
                  "positionPercentY": 0.933139563,
                  "positionType": 0,
                  "rotation": 0,
                  "scaleX": 1,
                  "scaleY": 1,
                  "sizePercentX": 0.08,
                  "sizePercentY": 0.0899999961,
                  "sizeType": 0,
                  "tag": 19,
                  "touchAble": false,
                  "useMergedTexture": false,
                  "visible": true,
                  "width": 55,
                  "x": 230,
                  "y": 321,
                  "capInsetsHeight": 0,
                  "capInsetsWidth": 0,
                  "capInsetsX": 0,
                  "capInsetsY": 0,
                  "fileName": null,
                  "fileNameData": {
                    "path": "button_13.png",
                    "plistFile": null,
                    "resourceType": 0
                  },
                  "scale9Enable": true,
                  "scale9Height": 32,
                  "scale9Width": 55
                }
              },
              {
                "classname": "ImageView",
                "name": null,
                "children": [
                  {
                    "classname": "LabelBMFont",
                    "name": null,
                    "children": [],
                    "options": {
                      "__type": "ComGUILabelBMFontSurrogate:#EditorCommon.JsonModel.Component.GUI",
                      "classname": "LabelBMFont",
                      "name": "LabelBMFont_47_1",
                      "ZOrder": 0,
                      "actiontag": 70,
                      "anchorPointX": 0,
                      "anchorPointY": 0.5,
                      "classType": null,
                      "colorB": 255,
                      "colorG": 255,
                      "colorR": 255,
                      "flipX": false,
                      "flipY": false,
                      "height": 35,
                      "ignoreSize": true,
                      "layoutParameter": null,
                      "opacity": 255,
                      "positionPercentX": 0.265957445,
                      "positionPercentY": 0,
                      "positionType": 0,
                      "rotation": 0,
                      "scaleX": 0.75,
                      "scaleY": 0.75,
                      "sizePercentX": 0.62,
                      "sizePercentY": 1.09,
                      "sizeType": 0,
                      "tag": 41,
                      "touchAble": false,
                      "useMergedTexture": false,
                      "visible": true,
                      "width": 58,
                      "x": 25,
                      "y": 0,
                      "fileNameData": {
                        "path": "font/ziti_1.fnt",
                        "plistFile": null,
                        "resourceType": 0
                      },
                      "text": "排名"
                    }
                  }
                ],
                "options": {
                  "__type": "ComGUIImageViewSurrogate:#EditorCommon.JsonModel.Component.GUI",
                  "classname": "ImageView",
                  "name": "ImageView_45_1",
                  "ZOrder": 0,
                  "actiontag": 69,
                  "anchorPointX": 0,
                  "anchorPointY": 0.5,
                  "classType": null,
                  "colorB": 255,
                  "colorG": 255,
                  "colorR": 255,
                  "flipX": false,
                  "flipY": false,
                  "height": 32,
                  "ignoreSize": false,
                  "layoutParameter": null,
                  "opacity": 255,
                  "positionPercentX": 0.00730994157,
                  "positionPercentY": 0.933139563,
                  "positionType": 0,
                  "rotation": 0,
                  "scaleX": 1,
                  "scaleY": 1,
                  "sizePercentX": 0.14,
                  "sizePercentY": 0.0899999961,
                  "sizeType": 0,
                  "tag": 16,
                  "touchAble": false,
                  "useMergedTexture": false,
                  "visible": true,
                  "width": 94,
                  "x": 5,
                  "y": 321,
                  "capInsetsHeight": 1,
                  "capInsetsWidth": 1,
                  "capInsetsX": 37,
                  "capInsetsY": 4,
                  "fileName": null,
                  "fileNameData": {
                    "path": "button_14.png",
                    "plistFile": null,
                    "resourceType": 0
                  },
                  "scale9Enable": true,
                  "scale9Height": 32,
                  "scale9Width": 94
                }
              },
              {
                "classname": "ImageView",
                "name": null,
                "children": [
                  {
                    "classname": "LabelBMFont",
                    "name": null,
                    "children": [],
                    "options": {
                      "__type": "ComGUILabelBMFontSurrogate:#EditorCommon.JsonModel.Component.GUI",
                      "classname": "LabelBMFont",
                      "name": "LabelBMFont_49_1",
                      "ZOrder": 0,
                      "actiontag": 72,
                      "anchorPointX": 0.5,
                      "anchorPointY": 0.5,
                      "classType": null,
                      "colorB": 255,
                      "colorG": 255,
                      "colorR": 255,
                      "flipX": false,
                      "flipY": false,
                      "height": 35,
                      "ignoreSize": true,
                      "layoutParameter": null,
                      "opacity": 255,
                      "positionPercentX": 0.00751879672,
                      "positionPercentY": 0.03125,
                      "positionType": 0,
                      "rotation": 0,
                      "scaleX": 0.75,
                      "scaleY": 0.75,
                      "sizePercentX": 0.87,
                      "sizePercentY": 1.09,
                      "sizeType": 0,
                      "tag": 43,
                      "touchAble": false,
                      "useMergedTexture": false,
                      "visible": true,
                      "width": 116,
                      "x": 1,
                      "y": 1,
                      "fileNameData": {
                        "path": "font/ziti_1.fnt",
                        "plistFile": null,
                        "resourceType": 0
                      },
                      "text": "家族名称"
                    }
                  }
                ],
                "options": {
                  "__type": "ComGUIImageViewSurrogate:#EditorCommon.JsonModel.Component.GUI",
                  "classname": "ImageView",
                  "name": "ImageView_48_1",
                  "ZOrder": 0,
                  "actiontag": 71,
                  "anchorPointX": 0.5,
                  "anchorPointY": 0.5,
                  "classType": null,
                  "colorB": 255,
                  "colorG": 255,
                  "colorR": 255,
                  "flipX": false,
                  "flipY": false,
                  "height": 32,
                  "ignoreSize": false,
                  "layoutParameter": null,
                  "opacity": 255,
                  "positionPercentX": 0.241228059,
                  "positionPercentY": 0.933139563,
                  "positionType": 0,
                  "rotation": 0,
                  "scaleX": 1,
                  "scaleY": 1,
                  "sizePercentX": 0.19,
                  "sizePercentY": 0.0899999961,
                  "sizeType": 0,
                  "tag": 19,
                  "touchAble": false,
                  "useMergedTexture": false,
                  "visible": true,
                  "width": 133,
                  "x": 165,
                  "y": 321,
                  "capInsetsHeight": 0,
                  "capInsetsWidth": 0,
                  "capInsetsX": 0,
                  "capInsetsY": 0,
                  "fileName": null,
                  "fileNameData": {
                    "path": "button_13.png",
                    "plistFile": null,
                    "resourceType": 0
                  },
                  "scale9Enable": true,
                  "scale9Height": 32,
                  "scale9Width": 133
                }
              }
            ],
            "options": {
              "__type": "ComGUIImageViewSurrogate:#EditorCommon.JsonModel.Component.GUI",
              "classname": "ImageView",
              "name": "ImageView_44_0",
              "ZOrder": 0,
              "actiontag": 60,
              "anchorPointX": 0,
              "anchorPointY": 0,
              "classType": null,
              "colorB": 255,
              "colorG": 255,
              "colorR": 255,
              "flipX": false,
              "flipY": false,
              "height": 344,
              "ignoreSize": false,
              "layoutParameter": null,
              "opacity": 255,
              "positionPercentX": 0.0824999958,
              "positionPercentY": 0.12083333,
              "positionType": 0,
              "rotation": 0,
              "scaleX": 1,
              "scaleY": 1,
              "sizePercentX": 0.859999955,
              "sizePercentY": 0.719999969,
              "sizeType": 0,
              "tag": 15,
              "touchAble": false,
              "useMergedTexture": false,
              "visible": true,
              "width": 684,
              "x": 66,
              "y": 58,
              "capInsetsHeight": 1,
              "capInsetsWidth": 1,
              "capInsetsX": 32,
              "capInsetsY": 32,
              "fileName": null,
              "fileNameData": {
                "path": "LV5_dikuang_miaobian1.png",
                "plistFile": null,
                "resourceType": 0
              },
              "scale9Enable": true,
              "scale9Height": 344,
              "scale9Width": 684
            }
          },
          {
            "classname": "ImageView",
            "name": null,
            "children": [],
            "options": {
              "__type": "ComGUIImageViewSurrogate:#EditorCommon.JsonModel.Component.GUI",
              "classname": "ImageView",
              "name": "ImageView_41_0",
              "ZOrder": 0,
              "actiontag": 95,
              "anchorPointX": 0.5,
              "anchorPointY": 0.5,
              "classType": null,
              "colorB": 255,
              "colorG": 255,
              "colorR": 255,
              "flipX": false,
              "flipY": false,
              "height": 31,
              "ignoreSize": true,
              "layoutParameter": null,
              "opacity": 255,
              "positionPercentX": 0.30625,
              "positionPercentY": 0.870833337,
              "positionType": 0,
              "rotation": 0,
              "scaleX": 1.50000012,
              "scaleY": 0.5999999,
              "sizePercentX": 0.25,
              "sizePercentY": 0.06,
              "sizeType": 0,
              "tag": 12,
              "touchAble": false,
              "useMergedTexture": false,
              "visible": true,
              "width": 202,
              "x": 245,
              "y": 418,
              "capInsetsHeight": 0,
              "capInsetsWidth": 0,
              "capInsetsX": 0,
              "capInsetsY": 0,
              "fileName": null,
              "fileNameData": {
                "path": "mo_2.png",
                "plistFile": null,
                "resourceType": 0
              },
              "scale9Enable": false,
              "scale9Height": 31,
              "scale9Width": 202
            }
          },
          {
            "classname": "LabelBMFont",
            "name": null,
            "children": [],
            "options": {
              "__type": "ComGUILabelBMFontSurrogate:#EditorCommon.JsonModel.Component.GUI",
              "classname": "LabelBMFont",
              "name": "LabelBMFont_43_0",
              "ZOrder": 0,
              "actiontag": 94,
              "anchorPointX": 0.5,
              "anchorPointY": 0.5,
              "classType": null,
              "colorB": 255,
              "colorG": 255,
              "colorR": 255,
              "flipX": false,
              "flipY": false,
              "height": 35,
              "ignoreSize": true,
              "layoutParameter": null,
              "opacity": 255,
              "positionPercentX": 0.2825,
              "positionPercentY": 0.8833333,
              "positionType": 0,
              "rotation": 0,
              "scaleX": 1.30000007,
              "scaleY": 1.30000007,
              "sizePercentX": 0.22,
              "sizePercentY": 0.07,
              "sizeType": 0,
              "tag": 39,
              "touchAble": false,
              "useMergedTexture": false,
              "visible": true,
              "width": 174,
              "x": 226,
              "y": 424,
              "fileNameData": {
                "path": "font/ziti_1.fnt",
                "plistFile": null,
                "resourceType": 0
              },
              "text": "家族积分排行榜"
            }
          }
        ],
        "options": {
          "__type": "ComGUIPanelSurrogate:#EditorCommon.JsonModel.Component.GUI",
          "classname": "Panel",
          "name": "Panel_integrationRanking",
          "ZOrder": 6,
          "actiontag": 32,
          "anchorPointX": 0,
          "anchorPointY": 0,
          "classType": null,
          "colorB": 255,
          "colorG": 255,
          "colorR": 255,
          "flipX": false,
          "flipY": false,
          "height": 480,
          "ignoreSize": false,
          "layoutParameter": null,
          "opacity": 255,
          "positionPercentX": 0,
          "positionPercentY": 0,
          "positionType": 0,
          "rotation": 0,
          "scaleX": 1,
          "scaleY": 1,
          "sizePercentX": 1,
          "sizePercentY": 1,
          "sizeType": 0,
          "tag": 10,
          "touchAble": false,
          "useMergedTexture": false,
          "visible": false,
          "width": 800,
          "x": 0,
          "y": 0,
          "backGroundImage": null,
          "backGroundImageData": null,
          "backGroundScale9Enable": false,
          "bgColorB": 255,
          "bgColorG": 200,
          "bgColorOpacity": 0,
          "bgColorR": 150,
          "bgEndColorB": 255,
          "bgEndColorG": 0,
          "bgEndColorR": 0,
          "bgStartColorB": 255,
          "bgStartColorG": 255,
          "bgStartColorR": 255,
          "capInsetsHeight": 0,
          "capInsetsWidth": 0,
          "capInsetsX": 0,
          "capInsetsY": 0,
          "clipAble": false,
          "colorType": 1,
          "layoutType": 0,
          "vectorX": 0,
          "vectorY": -0.5
        }
      },
      {
        "classname": "Panel",
        "name": null,
        "children": [
          {
            "classname": "ImageView",
            "name": null,
            "children": [],
            "options": {
              "__type": "ComGUIImageViewSurrogate:#EditorCommon.JsonModel.Component.GUI",
              "classname": "ImageView",
              "name": "ImageView_41",
              "ZOrder": 0,
              "actiontag": 41,
              "anchorPointX": 0.5,
              "anchorPointY": 0.5,
              "classType": null,
              "colorB": 255,
              "colorG": 255,
              "colorR": 255,
              "flipX": false,
              "flipY": false,
              "height": 31,
              "ignoreSize": true,
              "layoutParameter": null,
              "opacity": 255,
              "positionPercentX": 0.30625,
              "positionPercentY": 0.870833337,
              "positionType": 0,
              "rotation": 0,
              "scaleX": 1.50000012,
              "scaleY": 0.5999999,
              "sizePercentX": 0.25,
              "sizePercentY": 0.06,
              "sizeType": 0,
              "tag": 12,
              "touchAble": false,
              "useMergedTexture": false,
              "visible": true,
              "width": 202,
              "x": 245,
              "y": 418,
              "capInsetsHeight": 0,
              "capInsetsWidth": 0,
              "capInsetsX": 0,
              "capInsetsY": 0,
              "fileName": null,
              "fileNameData": {
                "path": "mo_2.png",
                "plistFile": null,
                "resourceType": 0
              },
              "scale9Enable": false,
              "scale9Height": 31,
              "scale9Width": 202
            }
          },
          {
            "classname": "LabelBMFont",
            "name": null,
            "children": [],
            "options": {
              "__type": "ComGUILabelBMFontSurrogate:#EditorCommon.JsonModel.Component.GUI",
              "classname": "LabelBMFont",
              "name": "LabelBMFont_43",
              "ZOrder": 0,
              "actiontag": 43,
              "anchorPointX": 0.5,
              "anchorPointY": 0.5,
              "classType": null,
              "colorB": 255,
              "colorG": 255,
              "colorR": 255,
              "flipX": false,
              "flipY": false,
              "height": 35,
              "ignoreSize": true,
              "layoutParameter": null,
              "opacity": 255,
              "positionPercentX": 0.2825,
              "positionPercentY": 0.8833333,
              "positionType": 0,
              "rotation": 0,
              "scaleX": 1.30000007,
              "scaleY": 1.30000007,
              "sizePercentX": 0.179999992,
              "sizePercentY": 0.07,
              "sizeType": 0,
              "tag": 14,
              "touchAble": false,
              "useMergedTexture": false,
              "visible": true,
              "width": 145,
              "x": 226,
              "y": 424,
              "fileNameData": {
                "path": "font/ziti_1.fnt",
                "plistFile": null,
                "resourceType": 0
              },
              "text": "家族战历史记录"
            }
          },
          {
            "classname": "ImageView",
            "name": null,
            "children": [
              {
                "classname": "ImageView",
                "name": null,
                "children": [
                  {
                    "classname": "LabelBMFont",
                    "name": null,
                    "children": [],
                    "options": {
                      "__type": "ComGUILabelBMFontSurrogate:#EditorCommon.JsonModel.Component.GUI",
                      "classname": "LabelBMFont",
                      "name": "LabelBMFont_47_0",
                      "ZOrder": 0,
                      "actiontag": 59,
                      "anchorPointX": 0,
                      "anchorPointY": 0.5,
                      "classType": null,
                      "colorB": 255,
                      "colorG": 255,
                      "colorR": 255,
                      "flipX": false,
                      "flipY": false,
                      "height": 35,
                      "ignoreSize": true,
                      "layoutParameter": null,
                      "opacity": 255,
                      "positionPercentX": 0.673913,
                      "positionPercentY": 0,
                      "positionType": 0,
                      "rotation": 0,
                      "scaleX": -0.75,
                      "scaleY": 0.75,
                      "sizePercentX": 0.42,
                      "sizePercentY": 1.09,
                      "sizeType": 0,
                      "tag": 30,
                      "touchAble": false,
                      "useMergedTexture": false,
                      "visible": true,
                      "width": 58,
                      "x": 93,
                      "y": 0,
                      "fileNameData": {
                        "path": "font/ziti_1.fnt",
                        "plistFile": null,
                        "resourceType": 0
                      },
                      "text": "时间"
                    }
                  }
                ],
                "options": {
                  "__type": "ComGUIImageViewSurrogate:#EditorCommon.JsonModel.Component.GUI",
                  "classname": "ImageView",
                  "name": "ImageView_45_0",
                  "ZOrder": 0,
                  "actiontag": 58,
                  "anchorPointX": 0,
                  "anchorPointY": 0.5,
                  "classType": null,
                  "colorB": 255,
                  "colorG": 255,
                  "colorR": 255,
                  "flipX": false,
                  "flipY": false,
                  "height": 32,
                  "ignoreSize": false,
                  "layoutParameter": null,
                  "opacity": 255,
                  "positionPercentX": 0.994152069,
                  "positionPercentY": 0.9403794,
                  "positionType": 0,
                  "rotation": 0,
                  "scaleX": -1,
                  "scaleY": 1,
                  "sizePercentX": 0.199999988,
                  "sizePercentY": 0.0899999961,
                  "sizeType": 0,
                  "tag": 16,
                  "touchAble": false,
                  "useMergedTexture": false,
                  "visible": true,
                  "width": 138,
                  "x": 680,
                  "y": 347,
                  "capInsetsHeight": 1,
                  "capInsetsWidth": 1,
                  "capInsetsX": 37,
                  "capInsetsY": 4,
                  "fileName": null,
                  "fileNameData": {
                    "path": "button_14.png",
                    "plistFile": null,
                    "resourceType": 0
                  },
                  "scale9Enable": true,
                  "scale9Height": 32,
                  "scale9Width": 138
                }
              },
              {
                "classname": "ImageView",
                "name": null,
                "children": [
                  {
                    "classname": "LabelBMFont",
                    "name": null,
                    "children": [],
                    "options": {
                      "__type": "ComGUILabelBMFontSurrogate:#EditorCommon.JsonModel.Component.GUI",
                      "classname": "LabelBMFont",
                      "name": "LabelBMFont_49_0_0_0",
                      "ZOrder": 0,
                      "actiontag": 55,
                      "anchorPointX": 0.5,
                      "anchorPointY": 0.5,
                      "classType": null,
                      "colorB": 255,
                      "colorG": 255,
                      "colorR": 255,
                      "flipX": false,
                      "flipY": false,
                      "height": 35,
                      "ignoreSize": true,
                      "layoutParameter": null,
                      "opacity": 255,
                      "positionPercentX": 0.47023806,
                      "positionPercentY": 0,
                      "positionType": 0,
                      "rotation": 0,
                      "scaleX": 0.75,
                      "scaleY": 0.75,
                      "sizePercentX": 0.69,
                      "sizePercentY": 1.09,
                      "sizeType": 0,
                      "tag": 26,
                      "touchAble": false,
                      "useMergedTexture": false,
                      "visible": true,
                      "width": 116,
                      "x": 79,
                      "y": 0,
                      "fileNameData": {
                        "path": "font/ziti_1.fnt",
                        "plistFile": null,
                        "resourceType": 0
                      },
                      "text": "族长名称"
                    }
                  }
                ],
                "options": {
                  "__type": "ComGUIImageViewSurrogate:#EditorCommon.JsonModel.Component.GUI",
                  "classname": "ImageView",
                  "name": "ImageView_48_0_0_0",
                  "ZOrder": 0,
                  "actiontag": 54,
                  "anchorPointX": 0,
                  "anchorPointY": 0.5,
                  "classType": null,
                  "colorB": 255,
                  "colorG": 255,
                  "colorR": 255,
                  "flipX": false,
                  "flipY": false,
                  "height": 32,
                  "ignoreSize": false,
                  "layoutParameter": null,
                  "opacity": 255,
                  "positionPercentX": 0.5482456,
                  "positionPercentY": 0.9403794,
                  "positionType": 0,
                  "rotation": 0,
                  "scaleX": 1,
                  "scaleY": 1,
                  "sizePercentX": 0.25,
                  "sizePercentY": 0.0899999961,
                  "sizeType": 0,
                  "tag": 19,
                  "touchAble": false,
                  "useMergedTexture": false,
                  "visible": true,
                  "width": 168,
                  "x": 375,
                  "y": 347,
                  "capInsetsHeight": 0,
                  "capInsetsWidth": 0,
                  "capInsetsX": 0,
                  "capInsetsY": 0,
                  "fileName": null,
                  "fileNameData": {
                    "path": "button_13.png",
                    "plistFile": null,
                    "resourceType": 0
                  },
                  "scale9Enable": true,
                  "scale9Height": 32,
                  "scale9Width": 168
                }
              },
              {
                "classname": "ImageView",
                "name": null,
                "children": [
                  {
                    "classname": "LabelBMFont",
                    "name": null,
                    "children": [],
                    "options": {
                      "__type": "ComGUILabelBMFontSurrogate:#EditorCommon.JsonModel.Component.GUI",
                      "classname": "LabelBMFont",
                      "name": "LabelBMFont_49_0_0",
                      "ZOrder": 0,
                      "actiontag": 53,
                      "anchorPointX": 0.5,
                      "anchorPointY": 0.5,
                      "classType": null,
                      "colorB": 255,
                      "colorG": 255,
                      "colorR": 255,
                      "flipX": false,
                      "flipY": false,
                      "height": 35,
                      "ignoreSize": true,
                      "layoutParameter": null,
                      "opacity": 255,
                      "positionPercentX": 0.509090841,
                      "positionPercentY": 0,
                      "positionType": 0,
                      "rotation": 0,
                      "scaleX": 0.75,
                      "scaleY": 0.75,
                      "sizePercentX": 1.05,
                      "sizePercentY": 1.09,
                      "sizeType": 0,
                      "tag": 24,
                      "touchAble": false,
                      "useMergedTexture": false,
                      "visible": true,
                      "width": 58,
                      "x": 28,
                      "y": 0,
                      "fileNameData": {
                        "path": "font/ziti_1.fnt",
                        "plistFile": null,
                        "resourceType": 0
                      },
                      "text": "等级"
                    }
                  }
                ],
                "options": {
                  "__type": "ComGUIImageViewSurrogate:#EditorCommon.JsonModel.Component.GUI",
                  "classname": "ImageView",
                  "name": "ImageView_48_0_0",
                  "ZOrder": 0,
                  "actiontag": 52,
                  "anchorPointX": 0,
                  "anchorPointY": 0.5,
                  "classType": null,
                  "colorB": 255,
                  "colorG": 255,
                  "colorR": 255,
                  "flipX": false,
                  "flipY": false,
                  "height": 32,
                  "ignoreSize": false,
                  "layoutParameter": null,
                  "opacity": 255,
                  "positionPercentX": 0.469298244,
                  "positionPercentY": 0.9403794,
                  "positionType": 0,
                  "rotation": 0,
                  "scaleX": 1,
                  "scaleY": 1,
                  "sizePercentX": 0.08,
                  "sizePercentY": 0.0899999961,
                  "sizeType": 0,
                  "tag": 19,
                  "touchAble": false,
                  "useMergedTexture": false,
                  "visible": true,
                  "width": 55,
                  "x": 321,
                  "y": 347,
                  "capInsetsHeight": 0,
                  "capInsetsWidth": 0,
                  "capInsetsX": 0,
                  "capInsetsY": 0,
                  "fileName": null,
                  "fileNameData": {
                    "path": "button_13.png",
                    "plistFile": null,
                    "resourceType": 0
                  },
                  "scale9Enable": true,
                  "scale9Height": 32,
                  "scale9Width": 55
                }
              },
              {
                "classname": "ImageView",
                "name": null,
                "children": [
                  {
                    "classname": "LabelBMFont",
                    "name": null,
                    "children": [],
                    "options": {
                      "__type": "ComGUILabelBMFontSurrogate:#EditorCommon.JsonModel.Component.GUI",
                      "classname": "LabelBMFont",
                      "name": "LabelBMFont_49_0",
                      "ZOrder": 0,
                      "actiontag": 51,
                      "anchorPointX": 0.5,
                      "anchorPointY": 0.5,
                      "classType": null,
                      "colorB": 255,
                      "colorG": 255,
                      "colorR": 255,
                      "flipX": false,
                      "flipY": false,
                      "height": 35,
                      "ignoreSize": true,
                      "layoutParameter": null,
                      "opacity": 255,
                      "positionPercentX": 0.479452044,
                      "positionPercentY": 0,
                      "positionType": 0,
                      "rotation": 0,
                      "scaleX": 0.75,
                      "scaleY": 0.75,
                      "sizePercentX": 0.399999976,
                      "sizePercentY": 1.09,
                      "sizeType": 0,
                      "tag": 22,
                      "touchAble": false,
                      "useMergedTexture": false,
                      "visible": true,
                      "width": 58,
                      "x": 70,
                      "y": 0,
                      "fileNameData": {
                        "path": "font/ziti_1.fnt",
                        "plistFile": null,
                        "resourceType": 0
                      },
                      "text": "对方家族"
                    }
                  }
                ],
                "options": {
                  "__type": "ComGUIImageViewSurrogate:#EditorCommon.JsonModel.Component.GUI",
                  "classname": "ImageView",
                  "name": "ImageView_48_0",
                  "ZOrder": 0,
                  "actiontag": 50,
                  "anchorPointX": 0,
                  "anchorPointY": 0.5,
                  "classType": null,
                  "colorB": 255,
                  "colorG": 255,
                  "colorR": 255,
                  "flipX": false,
                  "flipY": false,
                  "height": 32,
                  "ignoreSize": false,
                  "layoutParameter": null,
                  "opacity": 255,
                  "positionPercentX": 0.257309943,
                  "positionPercentY": 0.9403794,
                  "positionType": 0,
                  "rotation": 0,
                  "scaleX": 1,
                  "scaleY": 1,
                  "sizePercentX": 0.21,
                  "sizePercentY": 0.0899999961,
                  "sizeType": 0,
                  "tag": 19,
                  "touchAble": false,
                  "useMergedTexture": false,
                  "visible": true,
                  "width": 146,
                  "x": 176,
                  "y": 347,
                  "capInsetsHeight": 0,
                  "capInsetsWidth": 0,
                  "capInsetsX": 0,
                  "capInsetsY": 0,
                  "fileName": null,
                  "fileNameData": {
                    "path": "button_13.png",
                    "plistFile": null,
                    "resourceType": 0
                  },
                  "scale9Enable": true,
                  "scale9Height": 32,
                  "scale9Width": 146
                }
              },
              {
                "classname": "ImageView",
                "name": null,
                "children": [
                  {
                    "classname": "LabelBMFont",
                    "name": null,
                    "children": [],
                    "options": {
                      "__type": "ComGUILabelBMFontSurrogate:#EditorCommon.JsonModel.Component.GUI",
                      "classname": "LabelBMFont",
                      "name": "LabelBMFont_47",
                      "ZOrder": 0,
                      "actiontag": 47,
                      "anchorPointX": 0,
                      "anchorPointY": 0.5,
                      "classType": null,
                      "colorB": 255,
                      "colorG": 255,
                      "colorR": 255,
                      "flipX": false,
                      "flipY": false,
                      "height": 35,
                      "ignoreSize": true,
                      "layoutParameter": null,
                      "opacity": 255,
                      "positionPercentX": 0.0229885057,
                      "positionPercentY": 0,
                      "positionType": 0,
                      "rotation": 0,
                      "scaleX": 0.75,
                      "scaleY": 0.75,
                      "sizePercentX": 0.669999957,
                      "sizePercentY": 1.09,
                      "sizeType": 0,
                      "tag": 18,
                      "touchAble": false,
                      "useMergedTexture": false,
                      "visible": true,
                      "width": 58,
                      "x": 2,
                      "y": 0,
                      "fileNameData": {
                        "path": "font/ziti_1.fnt",
                        "plistFile": null,
                        "resourceType": 0
                      },
                      "text": "战斗结果"
                    }
                  }
                ],
                "options": {
                  "__type": "ComGUIImageViewSurrogate:#EditorCommon.JsonModel.Component.GUI",
                  "classname": "ImageView",
                  "name": "ImageView_45",
                  "ZOrder": 0,
                  "actiontag": 45,
                  "anchorPointX": 0,
                  "anchorPointY": 0.5,
                  "classType": null,
                  "colorB": 255,
                  "colorG": 255,
                  "colorR": 255,
                  "flipX": false,
                  "flipY": false,
                  "height": 32,
                  "ignoreSize": false,
                  "layoutParameter": null,
                  "opacity": 255,
                  "positionPercentX": 0.00730994157,
                  "positionPercentY": 0.9403794,
                  "positionType": 0,
                  "rotation": 0,
                  "scaleX": 1,
                  "scaleY": 1,
                  "sizePercentX": 0.13,
                  "sizePercentY": 0.0899999961,
                  "sizeType": 0,
                  "tag": 16,
                  "touchAble": false,
                  "useMergedTexture": false,
                  "visible": true,
                  "width": 87,
                  "x": 5,
                  "y": 347,
                  "capInsetsHeight": 1,
                  "capInsetsWidth": 1,
                  "capInsetsX": 37,
                  "capInsetsY": 4,
                  "fileName": null,
                  "fileNameData": {
                    "path": "button_14.png",
                    "plistFile": null,
                    "resourceType": 0
                  },
                  "scale9Enable": true,
                  "scale9Height": 32,
                  "scale9Width": 87
                }
              },
              {
                "classname": "ImageView",
                "name": null,
                "children": [
                  {
                    "classname": "LabelBMFont",
                    "name": null,
                    "children": [],
                    "options": {
                      "__type": "ComGUILabelBMFontSurrogate:#EditorCommon.JsonModel.Component.GUI",
                      "classname": "LabelBMFont",
                      "name": "LabelBMFont_49",
                      "ZOrder": 3,
                      "actiontag": 49,
                      "anchorPointX": 0.5,
                      "anchorPointY": 0.5,
                      "classType": null,
                      "colorB": 255,
                      "colorG": 255,
                      "colorR": 255,
                      "flipX": false,
                      "flipY": false,
                      "height": 35,
                      "ignoreSize": true,
                      "layoutParameter": null,
                      "opacity": 255,
                      "positionPercentX": 0.011627906,
                      "positionPercentY": 0.03125,
                      "positionType": 0,
                      "rotation": 0,
                      "scaleX": 0.75,
                      "scaleY": 0.75,
                      "sizePercentX": 0.34,
                      "sizePercentY": 1.09,
                      "sizeType": 0,
                      "tag": 20,
                      "touchAble": false,
                      "useMergedTexture": false,
                      "visible": true,
                      "width": 29,
                      "x": 1,
                      "y": 1,
                      "fileNameData": {
                        "path": "font/ziti_1.fnt",
                        "plistFile": null,
                        "resourceType": 0
                      },
                      "text": "积分"
                    }
                  }
                ],
                "options": {
                  "__type": "ComGUIImageViewSurrogate:#EditorCommon.JsonModel.Component.GUI",
                  "classname": "ImageView",
                  "name": "ImageView_48",
                  "ZOrder": 0,
                  "actiontag": 48,
                  "anchorPointX": 0.5,
                  "anchorPointY": 0.5,
                  "classType": null,
                  "colorB": 255,
                  "colorG": 255,
                  "colorR": 255,
                  "flipX": false,
                  "flipY": false,
                  "height": 32,
                  "ignoreSize": false,
                  "layoutParameter": null,
                  "opacity": 255,
                  "positionPercentX": 0.19590643,
                  "positionPercentY": 0.9403794,
                  "positionType": 0,
                  "rotation": 0,
                  "scaleX": 1,
                  "scaleY": 1,
                  "sizePercentX": 0.13,
                  "sizePercentY": 0.0899999961,
                  "sizeType": 0,
                  "tag": 19,
                  "touchAble": false,
                  "useMergedTexture": false,
                  "visible": true,
                  "width": 86,
                  "x": 134,
                  "y": 347,
                  "capInsetsHeight": 0,
                  "capInsetsWidth": 0,
                  "capInsetsX": 0,
                  "capInsetsY": 0,
                  "fileName": null,
                  "fileNameData": {
                    "path": "button_13.png",
                    "plistFile": null,
                    "resourceType": 0
                  },
                  "scale9Enable": true,
                  "scale9Height": 32,
                  "scale9Width": 86
                }
              }
            ],
            "options": {
              "__type": "ComGUIImageViewSurrogate:#EditorCommon.JsonModel.Component.GUI",
              "classname": "ImageView",
              "name": "ImageView_44",
              "ZOrder": 0,
              "actiontag": 44,
              "anchorPointX": 0,
              "anchorPointY": 0,
              "classType": null,
              "colorB": 255,
              "colorG": 255,
              "colorR": 255,
              "flipX": false,
              "flipY": false,
              "height": 369,
              "ignoreSize": false,
              "layoutParameter": null,
              "opacity": 255,
              "positionPercentX": 0.0824999958,
              "positionPercentY": 0.06875,
              "positionType": 0,
              "rotation": 0,
              "scaleX": 1,
              "scaleY": 1,
              "sizePercentX": 0.859999955,
              "sizePercentY": 0.77,
              "sizeType": 0,
              "tag": 15,
              "touchAble": false,
              "useMergedTexture": false,
              "visible": true,
              "width": 684,
              "x": 66,
              "y": 33,
              "capInsetsHeight": 1,
              "capInsetsWidth": 1,
              "capInsetsX": 32,
              "capInsetsY": 32,
              "fileName": null,
              "fileNameData": {
                "path": "LV5_dikuang_miaobian1.png",
                "plistFile": null,
                "resourceType": 0
              },
              "scale9Enable": true,
              "scale9Height": 369,
              "scale9Width": 684
            }
          }
        ],
        "options": {
          "__type": "ComGUIPanelSurrogate:#EditorCommon.JsonModel.Component.GUI",
          "classname": "Panel",
          "name": "Panel_historyNotes",
          "ZOrder": 3,
          "actiontag": 31,
          "anchorPointX": 0,
          "anchorPointY": 0,
          "classType": null,
          "colorB": 255,
          "colorG": 255,
          "colorR": 255,
          "flipX": false,
          "flipY": false,
          "height": 480,
          "ignoreSize": false,
          "layoutParameter": null,
          "opacity": 255,
          "positionPercentX": 0,
          "positionPercentY": 0,
          "positionType": 0,
          "rotation": 0,
          "scaleX": 1,
          "scaleY": 1,
          "sizePercentX": 1,
          "sizePercentY": 1,
          "sizeType": 0,
          "tag": 10,
          "touchAble": false,
          "useMergedTexture": false,
          "visible": true,
          "width": 800,
          "x": 0,
          "y": 0,
          "backGroundImage": null,
          "backGroundImageData": null,
          "backGroundScale9Enable": false,
          "bgColorB": 255,
          "bgColorG": 200,
          "bgColorOpacity": 0,
          "bgColorR": 150,
          "bgEndColorB": 255,
          "bgEndColorG": 0,
          "bgEndColorR": 0,
          "bgStartColorB": 255,
          "bgStartColorG": 255,
          "bgStartColorR": 255,
          "capInsetsHeight": 0,
          "capInsetsWidth": 0,
          "capInsetsX": 0,
          "capInsetsY": 0,
          "clipAble": false,
          "colorType": 1,
          "layoutType": 0,
          "vectorX": 0,
          "vectorY": -0.5
        }
      },
      {
        "classname": "Panel",
        "name": null,
        "children": [
          {
            "classname": "Panel",
            "name": null,
            "children": [],
            "options": {
              "__type": "ComGUIPanelSurrogate:#EditorCommon.JsonModel.Component.GUI",
              "classname": "Panel",
              "name": "Panel_25",
              "ZOrder": 3,
              "actiontag": 25,
              "anchorPointX": 0,
              "anchorPointY": 0,
              "classType": null,
              "colorB": 255,
              "colorG": 255,
              "colorR": 255,
              "flipX": false,
              "flipY": false,
              "height": 480,
              "ignoreSize": false,
              "layoutParameter": null,
              "opacity": 255,
              "positionPercentX": 0,
              "positionPercentY": 0,
              "positionType": 0,
              "rotation": 0,
              "scaleX": 1,
              "scaleY": 1,
              "sizePercentX": 1,
              "sizePercentY": 1,
              "sizeType": 0,
              "tag": 5,
              "touchAble": false,
              "useMergedTexture": false,
              "visible": true,
              "width": 800,
              "x": 0,
              "y": 0,
              "backGroundImage": null,
              "backGroundImageData": null,
              "backGroundScale9Enable": false,
              "bgColorB": 255,
              "bgColorG": 200,
              "bgColorOpacity": 0,
              "bgColorR": 150,
              "bgEndColorB": 255,
              "bgEndColorG": 0,
              "bgEndColorR": 0,
              "bgStartColorB": 255,
              "bgStartColorG": 255,
              "bgStartColorR": 255,
              "capInsetsHeight": 0,
              "capInsetsWidth": 0,
              "capInsetsX": 0,
              "capInsetsY": 0,
              "clipAble": false,
              "colorType": 1,
              "layoutType": 0,
              "vectorX": 0,
              "vectorY": -0.5
            }
          },
          {
            "classname": "Button",
            "name": null,
            "children": [],
            "options": {
              "__type": "ComGUIButtonSurrogate:#EditorCommon.JsonModel.Component.GUI",
              "classname": "Button",
              "name": "Button_close",
              "ZOrder": 2,
              "actiontag": 24,
              "anchorPointX": 0.5,
              "anchorPointY": 0.5,
              "classType": null,
              "colorB": 255,
              "colorG": 255,
              "colorR": 255,
              "flipX": false,
              "flipY": false,
              "height": 64,
              "ignoreSize": true,
              "layoutParameter": null,
              "opacity": 255,
              "positionPercentX": 0.95,
              "positionPercentY": 0.9375,
              "positionType": 0,
              "rotation": 0,
              "scaleX": 1,
              "scaleY": 1,
              "sizePercentX": 0.08,
              "sizePercentY": 0.13,
              "sizeType": 0,
              "tag": 4,
              "touchAble": false,
              "useMergedTexture": false,
              "visible": true,
              "width": 64,
              "x": 760,
              "y": 450,
              "capInsetsHeight": 0,
              "capInsetsWidth": 0,
              "capInsetsX": 0,
              "capInsetsY": 0,
              "disabled": null,
              "disabledData": {
                "path": null,
                "plistFile": null,
                "resourceType": 0
              },
              "normal": null,
              "normalData": {
                "path": "close.png",
                "plistFile": null,
                "resourceType": 0
              },
              "pressed": null,
              "pressedData": {
                "path": "close.png",
                "plistFile": null,
                "resourceType": 0
              },
              "scale9Enable": false,
              "scale9Height": 64,
              "scale9Width": 64
            }
          },
          {
            "classname": "ImageView",
            "name": null,
            "children": [
              {
                "classname": "ImageView",
                "name": null,
                "children": [],
                "options": {
                  "__type": "ComGUIImageViewSurrogate:#EditorCommon.JsonModel.Component.GUI",
                  "classname": "ImageView",
                  "name": "ImageView_23",
                  "ZOrder": 0,
                  "actiontag": 23,
                  "anchorPointX": 0.5,
                  "anchorPointY": 0.5,
                  "classType": null,
                  "colorB": 255,
                  "colorG": 255,
                  "colorR": 255,
                  "flipX": false,
                  "flipY": false,
                  "height": 60,
                  "ignoreSize": true,
                  "layoutParameter": null,
                  "opacity": 255,
                  "positionPercentX": 0.879487157,
                  "positionPercentY": 0.893617,
                  "positionType": 0,
                  "rotation": 0,
                  "scaleX": 1,
                  "scaleY": 1,
                  "sizePercentX": 0.14,
                  "sizePercentY": 0.13,
                  "sizeType": 0,
                  "tag": 3,
                  "touchAble": false,
                  "useMergedTexture": false,
                  "visible": true,
                  "width": 108,
                  "x": 686,
                  "y": 420,
                  "capInsetsHeight": 0,
                  "capInsetsWidth": 0,
                  "capInsetsX": 0,
                  "capInsetsY": 0,
                  "fileName": null,
                  "fileNameData": {
                    "path": "tietu_flower.png",
                    "plistFile": null,
                    "resourceType": 0
                  },
                  "scale9Enable": false,
                  "scale9Height": 60,
                  "scale9Width": 108
                }
              }
            ],
            "options": {
              "__type": "ComGUIImageViewSurrogate:#EditorCommon.JsonModel.Component.GUI",
              "classname": "ImageView",
              "name": "ImageView_22",
              "ZOrder": 1,
              "actiontag": 22,
              "anchorPointX": 0,
              "anchorPointY": 0,
              "classType": null,
              "colorB": 255,
              "colorG": 255,
              "colorR": 255,
              "flipX": false,
              "flipY": false,
              "height": 470,
              "ignoreSize": false,
              "layoutParameter": null,
              "opacity": 255,
              "positionPercentX": 0.0249999985,
              "positionPercentY": 0.004166667,
              "positionType": 0,
              "rotation": 0,
              "scaleX": 1,
              "scaleY": 1,
              "sizePercentX": 0.979999959,
              "sizePercentY": 0.979999959,
              "sizeType": 0,
              "tag": 2,
              "touchAble": true,
              "useMergedTexture": false,
              "visible": true,
              "width": 780,
              "x": 20,
              "y": 2,
              "capInsetsHeight": 0,
              "capInsetsWidth": 0,
              "capInsetsX": 0,
              "capInsetsY": 0,
              "fileName": null,
              "fileNameData": {
                "path": "dikuang_new.png",
                "plistFile": null,
                "resourceType": 0
              },
              "scale9Enable": true,
              "scale9Height": 470,
              "scale9Width": 780
            }
          }
        ],
        "options": {
          "__type": "ComGUIPanelSurrogate:#EditorCommon.JsonModel.Component.GUI",
          "classname": "Panel",
          "name": "Panel_20",
          "ZOrder": 1,
          "actiontag": 20,
          "anchorPointX": 0,
          "anchorPointY": 0,
          "classType": null,
          "colorB": 255,
          "colorG": 255,
          "colorR": 255,
          "flipX": false,
          "flipY": false,
          "height": 480,
          "ignoreSize": false,
          "layoutParameter": null,
          "opacity": 255,
          "positionPercentX": 0,
          "positionPercentY": 0,
          "positionType": 0,
          "rotation": 0,
          "scaleX": 1,
          "scaleY": 1,
          "sizePercentX": 1,
          "sizePercentY": 1,
          "sizeType": 0,
          "tag": 1,
          "touchAble": false,
          "useMergedTexture": false,
          "visible": true,
          "width": 800,
          "x": 0,
          "y": 0,
          "backGroundImage": null,
          "backGroundImageData": null,
          "backGroundScale9Enable": false,
          "bgColorB": 255,
          "bgColorG": 200,
          "bgColorOpacity": 0,
          "bgColorR": 150,
          "bgEndColorB": 255,
          "bgEndColorG": 0,
          "bgEndColorR": 0,
          "bgStartColorB": 255,
          "bgStartColorG": 255,
          "bgStartColorR": 255,
          "capInsetsHeight": 0,
          "capInsetsWidth": 0,
          "capInsetsX": 0,
          "capInsetsY": 0,
          "clipAble": false,
          "colorType": 1,
          "layoutType": 0,
          "vectorX": 0,
          "vectorY": -0.5
        }
      }
    ],
    "options": {
      "__type": "ComGUIPanelSurrogate:#EditorCommon.JsonModel.Component.GUI",
      "classname": "Panel",
      "name": "Panel_20",
      "ZOrder": 0,
      "actiontag": -1,
      "anchorPointX": 0,
      "anchorPointY": 0,
      "classType": null,
      "colorB": 255,
      "colorG": 255,
      "colorR": 255,
      "flipX": false,
      "flipY": false,
      "height": 480,
      "ignoreSize": false,
      "layoutParameter": null,
      "opacity": 255,
      "positionPercentX": 0,
      "positionPercentY": 0,
      "positionType": 0,
      "rotation": 0,
      "scaleX": 1,
      "scaleY": 1,
      "sizePercentX": 0.01,
      "sizePercentY": 0.01,
      "sizeType": 0,
      "tag": 1,
      "touchAble": false,
      "useMergedTexture": false,
      "visible": true,
      "width": 800,
      "x": 0,
      "y": 0,
      "backGroundImage": null,
      "backGroundImageData": null,
      "backGroundScale9Enable": false,
      "bgColorB": 255,
      "bgColorG": 200,
      "bgColorOpacity": 0,
      "bgColorR": 150,
      "bgEndColorB": 255,
      "bgEndColorG": 0,
      "bgEndColorR": 0,
      "bgStartColorB": 255,
      "bgStartColorG": 255,
      "bgStartColorR": 255,
      "capInsetsHeight": 0,
      "capInsetsWidth": 0,
      "capInsetsX": 0,
      "capInsetsY": 0,
      "clipAble": false,
      "colorType": 1,
      "layoutType": 0,
      "vectorX": 0,
      "vectorY": -0.5
    }
  }
}