{
  "classname": null,
  "name": null,
  "animation": {
    "classname": null,
    "name": "AnimationManager",
    "actionlist": []
  },
  "designHeight": 430,
  "designWidth": 440,
  "textures": [],
  "version": "1.1.0.0",
  "widgetTree": {
    "classname": "Panel",
    "name": null,
    "children": [
      {
        "classname": "Button",
        "name": null,
        "children": [],
        "options": {
          "__type": "ComGUIButtonSurrogate:#EditorCommon.JsonModel.Component.GUI",
          "classname": "Button",
          "name": "Button_close",
          "ZOrder": 3,
          "actiontag": 2408,
          "anchorPointX": 0.5,
          "anchorPointY": 0.5,
          "classType": null,
          "colorB": 255,
          "colorG": 255,
          "colorR": 255,
          "flipX": false,
          "flipY": false,
          "height": 50,
          "ignoreSize": true,
          "layoutParameter": null,
          "opacity": 255,
          "positionPercentX": 0.9318181,
          "positionPercentY": 0.9534883,
          "positionType": 0,
          "rotation": 0,
          "scaleX": 1,
          "scaleY": 1,
          "sizePercentX": 0.11,
          "sizePercentY": 0.12,
          "sizeType": 0,
          "tag": 45,
          "touchAble": false,
          "useMergedTexture": false,
          "visible": true,
          "width": 50,
          "x": 410,
          "y": 410,
          "capInsetsHeight": 0,
          "capInsetsWidth": 0,
          "capInsetsX": 0,
          "capInsetsY": 0,
          "disabled": null,
          "disabledData": {
            "path": null,
            "plistFile": null,
            "resourceType": 0
          },
          "normal": null,
          "normalData": {
            "path": "close.png",
            "plistFile": null,
            "resourceType": 0
          },
          "pressed": null,
          "pressedData": {
            "path": "close.png",
            "plistFile": null,
            "resourceType": 0
          },
          "scale9Enable": false,
          "scale9Height": 50,
          "scale9Width": 50
        }
      },
      {
        "classname": "Panel",
        "name": null,
        "children": [
          {
            "classname": "Panel",
            "name": null,
            "children": [
              {
                "classname": "ImageView",
                "name": null,
                "children": [],
                "options": {
                  "__type": "ComGUIImageViewSurrogate:#EditorCommon.JsonModel.Component.GUI",
                  "classname": "ImageView",
                  "name": "ImageView_dian_d_0",
                  "ZOrder": 3,
                  "actiontag": 2338,
                  "anchorPointX": 0,
                  "anchorPointY": 0,
                  "classType": null,
                  "colorB": 255,
                  "colorG": 255,
                  "colorR": 255,
                  "flipX": false,
                  "flipY": false,
                  "height": 12,
                  "ignoreSize": true,
                  "layoutParameter": null,
                  "opacity": 255,
                  "positionPercentX": 0.5675,
                  "positionPercentY": 0.132558137,
                  "positionType": 0,
                  "rotation": 0,
                  "scaleX": 1,
                  "scaleY": 1,
                  "sizePercentX": 0.03,
                  "sizePercentY": 0.03,
                  "sizeType": 0,
                  "tag": 28,
                  "touchAble": false,
                  "useMergedTexture": false,
                  "visible": true,
                  "width": 12,
                  "x": 227,
                  "y": 57,
                  "capInsetsHeight": 0,
                  "capInsetsWidth": 0,
                  "capInsetsX": 0,
                  "capInsetsY": 0,
                  "fileName": null,
                  "fileNameData": {
                    "path": "dian_off.png",
                    "plistFile": null,
                    "resourceType": 0
                  },
                  "scale9Enable": false,
                  "scale9Height": 12,
                  "scale9Width": 12
                }
              },
              {
                "classname": "ImageView",
                "name": null,
                "children": [],
                "options": {
                  "__type": "ComGUIImageViewSurrogate:#EditorCommon.JsonModel.Component.GUI",
                  "classname": "ImageView",
                  "name": "ImageView_dian_d",
                  "ZOrder": 3,
                  "actiontag": 51,
                  "anchorPointX": 0,
                  "anchorPointY": 0,
                  "classType": null,
                  "colorB": 255,
                  "colorG": 255,
                  "colorR": 255,
                  "flipX": false,
                  "flipY": false,
                  "height": 12,
                  "ignoreSize": true,
                  "layoutParameter": null,
                  "opacity": 255,
                  "positionPercentX": 0.52,
                  "positionPercentY": 0.132558137,
                  "positionType": 0,
                  "rotation": 0,
                  "scaleX": 1,
                  "scaleY": 1,
                  "sizePercentX": 0.03,
                  "sizePercentY": 0.03,
                  "sizeType": 0,
                  "tag": 28,
                  "touchAble": false,
                  "useMergedTexture": false,
                  "visible": true,
                  "width": 12,
                  "x": 208,
                  "y": 57,
                  "capInsetsHeight": 0,
                  "capInsetsWidth": 0,
                  "capInsetsX": 0,
                  "capInsetsY": 0,
                  "fileName": null,
                  "fileNameData": {
                    "path": "dian_off.png",
                    "plistFile": null,
                    "resourceType": 0
                  },
                  "scale9Enable": false,
                  "scale9Height": 12,
                  "scale9Width": 12
                }
              },
              {
                "classname": "ImageView",
                "name": null,
                "children": [],
                "options": {
                  "__type": "ComGUIImageViewSurrogate:#EditorCommon.JsonModel.Component.GUI",
                  "classname": "ImageView",
                  "name": "ImageView_dian_c",
                  "ZOrder": 3,
                  "actiontag": 50,
                  "anchorPointX": 0,
                  "anchorPointY": 0,
                  "classType": null,
                  "colorB": 255,
                  "colorG": 255,
                  "colorR": 255,
                  "flipX": false,
                  "flipY": false,
                  "height": 12,
                  "ignoreSize": true,
                  "layoutParameter": null,
                  "opacity": 255,
                  "positionPercentX": 0.4725,
                  "positionPercentY": 0.132558137,
                  "positionType": 0,
                  "rotation": 0,
                  "scaleX": 1,
                  "scaleY": 1,
                  "sizePercentX": 0.03,
                  "sizePercentY": 0.03,
                  "sizeType": 0,
                  "tag": 28,
                  "touchAble": false,
                  "useMergedTexture": false,
                  "visible": true,
                  "width": 12,
                  "x": 189,
                  "y": 57,
                  "capInsetsHeight": 0,
                  "capInsetsWidth": 0,
                  "capInsetsX": 0,
                  "capInsetsY": 0,
                  "fileName": null,
                  "fileNameData": {
                    "path": "dian_off.png",
                    "plistFile": null,
                    "resourceType": 0
                  },
                  "scale9Enable": false,
                  "scale9Height": 12,
                  "scale9Width": 12
                }
              },
              {
                "classname": "ImageView",
                "name": null,
                "children": [],
                "options": {
                  "__type": "ComGUIImageViewSurrogate:#EditorCommon.JsonModel.Component.GUI",
                  "classname": "ImageView",
                  "name": "ImageView_dian_b",
                  "ZOrder": 3,
                  "actiontag": 49,
                  "anchorPointX": 0,
                  "anchorPointY": 0,
                  "classType": null,
                  "colorB": 255,
                  "colorG": 255,
                  "colorR": 255,
                  "flipX": false,
                  "flipY": false,
                  "height": 12,
                  "ignoreSize": true,
                  "layoutParameter": null,
                  "opacity": 255,
                  "positionPercentX": 0.424999982,
                  "positionPercentY": 0.132558137,
                  "positionType": 0,
                  "rotation": 0,
                  "scaleX": 1,
                  "scaleY": 1,
                  "sizePercentX": 0.03,
                  "sizePercentY": 0.03,
                  "sizeType": 0,
                  "tag": 28,
                  "touchAble": false,
                  "useMergedTexture": false,
                  "visible": true,
                  "width": 12,
                  "x": 170,
                  "y": 57,
                  "capInsetsHeight": 0,
                  "capInsetsWidth": 0,
                  "capInsetsX": 0,
                  "capInsetsY": 0,
                  "fileName": null,
                  "fileNameData": {
                    "path": "dian_off.png",
                    "plistFile": null,
                    "resourceType": 0
                  },
                  "scale9Enable": false,
                  "scale9Height": 12,
                  "scale9Width": 12
                }
              },
              {
                "classname": "ImageView",
                "name": null,
                "children": [],
                "options": {
                  "__type": "ComGUIImageViewSurrogate:#EditorCommon.JsonModel.Component.GUI",
                  "classname": "ImageView",
                  "name": "ImageView_dian_a",
                  "ZOrder": 3,
                  "actiontag": 48,
                  "anchorPointX": 0,
                  "anchorPointY": 0,
                  "classType": null,
                  "colorB": 255,
                  "colorG": 255,
                  "colorR": 255,
                  "flipX": false,
                  "flipY": false,
                  "height": 12,
                  "ignoreSize": true,
                  "layoutParameter": null,
                  "opacity": 255,
                  "positionPercentX": 0.3725,
                  "positionPercentY": 0.132558137,
                  "positionType": 0,
                  "rotation": 0,
                  "scaleX": 1,
                  "scaleY": 1,
                  "sizePercentX": 0.03,
                  "sizePercentY": 0.03,
                  "sizeType": 0,
                  "tag": 28,
                  "touchAble": false,
                  "useMergedTexture": false,
                  "visible": true,
                  "width": 12,
                  "x": 149,
                  "y": 57,
                  "capInsetsHeight": 0,
                  "capInsetsWidth": 0,
                  "capInsetsX": 0,
                  "capInsetsY": 0,
                  "fileName": null,
                  "fileNameData": {
                    "path": "dian_off.png",
                    "plistFile": null,
                    "resourceType": 0
                  },
                  "scale9Enable": false,
                  "scale9Height": 12,
                  "scale9Width": 12
                }
              },
              {
                "classname": "ImageView",
                "name": null,
                "children": [],
                "options": {
                  "__type": "ComGUIImageViewSurrogate:#EditorCommon.JsonModel.Component.GUI",
                  "classname": "ImageView",
                  "name": "ImageView_dian_on",
                  "ZOrder": 4,
                  "actiontag": 52,
                  "anchorPointX": 0,
                  "anchorPointY": 0,
                  "classType": null,
                  "colorB": 255,
                  "colorG": 255,
                  "colorR": 255,
                  "flipX": false,
                  "flipY": false,
                  "height": 10,
                  "ignoreSize": true,
                  "layoutParameter": null,
                  "opacity": 255,
                  "positionPercentX": 0.3775,
                  "positionPercentY": 0.132558137,
                  "positionType": 0,
                  "rotation": 0,
                  "scaleX": 1,
                  "scaleY": 1,
                  "sizePercentX": 0.02,
                  "sizePercentY": 0.02,
                  "sizeType": 0,
                  "tag": 32,
                  "touchAble": false,
                  "useMergedTexture": false,
                  "visible": true,
                  "width": 10,
                  "x": 151,
                  "y": 57,
                  "capInsetsHeight": 0,
                  "capInsetsWidth": 0,
                  "capInsetsX": 0,
                  "capInsetsY": 0,
                  "fileName": null,
                  "fileNameData": {
                    "path": "dian_on.png",
                    "plistFile": null,
                    "resourceType": 0
                  },
                  "scale9Enable": false,
                  "scale9Height": 10,
                  "scale9Width": 10
                }
              },
              {
                "classname": "ImageView",
                "name": null,
                "children": [],
                "options": {
                  "__type": "ComGUIImageViewSurrogate:#EditorCommon.JsonModel.Component.GUI",
                  "classname": "ImageView",
                  "name": "ImageView_lv4_riht_di",
                  "ZOrder": 2,
                  "actiontag": 34,
                  "anchorPointX": 0,
                  "anchorPointY": 0,
                  "classType": null,
                  "colorB": 255,
                  "colorG": 255,
                  "colorR": 255,
                  "flipX": false,
                  "flipY": false,
                  "height": 320,
                  "ignoreSize": false,
                  "layoutParameter": null,
                  "opacity": 255,
                  "positionPercentX": 0.04,
                  "positionPercentY": 0.202325583,
                  "positionType": 0,
                  "rotation": 0,
                  "scaleX": 1,
                  "scaleY": 1,
                  "sizePercentX": 0.919999957,
                  "sizePercentY": 0.74,
                  "sizeType": 0,
                  "tag": 14,
                  "touchAble": false,
                  "useMergedTexture": false,
                  "visible": true,
                  "width": 367,
                  "x": 16,
                  "y": 87,
                  "capInsetsHeight": 0,
                  "capInsetsWidth": 0,
                  "capInsetsX": 0,
                  "capInsetsY": 0,
                  "fileName": null,
                  "fileNameData": {
                    "path": "no1_di.png",
                    "plistFile": null,
                    "resourceType": 0
                  },
                  "scale9Enable": true,
                  "scale9Height": 320,
                  "scale9Width": 367
                }
              }
            ],
            "options": {
              "__type": "ComGUIPanelSurrogate:#EditorCommon.JsonModel.Component.GUI",
              "classname": "Panel",
              "name": "Panel_beibao",
              "ZOrder": 2,
              "actiontag": 492,
              "anchorPointX": 0,
              "anchorPointY": 0,
              "classType": null,
              "colorB": 255,
              "colorG": 255,
              "colorR": 255,
              "flipX": false,
              "flipY": false,
              "height": 430,
              "ignoreSize": false,
              "layoutParameter": null,
              "opacity": 255,
              "positionPercentX": 0.0454545431,
              "positionPercentY": 0,
              "positionType": 0,
              "rotation": 0,
              "scaleX": 1,
              "scaleY": 1,
              "sizePercentX": 0.909999967,
              "sizePercentY": 1,
              "sizeType": 0,
              "tag": 139,
              "touchAble": false,
              "useMergedTexture": false,
              "visible": true,
              "width": 400,
              "x": 20,
              "y": 0,
              "backGroundImage": null,
              "backGroundImageData": null,
              "backGroundScale9Enable": false,
              "bgColorB": 255,
              "bgColorG": 200,
              "bgColorOpacity": 0,
              "bgColorR": 150,
              "bgEndColorB": 255,
              "bgEndColorG": 0,
              "bgEndColorR": 0,
              "bgStartColorB": 255,
              "bgStartColorG": 255,
              "bgStartColorR": 255,
              "capInsetsHeight": 0,
              "capInsetsWidth": 0,
              "capInsetsX": 0,
              "capInsetsY": 0,
              "clipAble": false,
              "colorType": 1,
              "layoutType": 0,
              "vectorX": 0,
              "vectorY": -0.5
            }
          }
        ],
        "options": {
          "__type": "ComGUIPanelSurrogate:#EditorCommon.JsonModel.Component.GUI",
          "classname": "Panel",
          "name": "PanelPac",
          "ZOrder": 2,
          "actiontag": -1,
          "anchorPointX": 0,
          "anchorPointY": 0,
          "classType": null,
          "colorB": 255,
          "colorG": 255,
          "colorR": 255,
          "flipX": false,
          "flipY": false,
          "height": 430,
          "ignoreSize": false,
          "layoutParameter": null,
          "opacity": 255,
          "positionPercentX": 0,
          "positionPercentY": 0,
          "positionType": 0,
          "rotation": 0,
          "scaleX": 1,
          "scaleY": 1,
          "sizePercentX": 1,
          "sizePercentY": 1,
          "sizeType": 0,
          "tag": 1,
          "touchAble": false,
          "useMergedTexture": false,
          "visible": false,
          "width": 440,
          "x": 0,
          "y": 0,
          "backGroundImage": null,
          "backGroundImageData": null,
          "backGroundScale9Enable": false,
          "bgColorB": 255,
          "bgColorG": 200,
          "bgColorOpacity": 0,
          "bgColorR": 150,
          "bgEndColorB": 255,
          "bgEndColorG": 0,
          "bgEndColorR": 0,
          "bgStartColorB": 255,
          "bgStartColorG": 255,
          "bgStartColorR": 255,
          "capInsetsHeight": 0,
          "capInsetsWidth": 0,
          "capInsetsX": 0,
          "capInsetsY": 0,
          "clipAble": false,
          "colorType": 1,
          "layoutType": 0,
          "vectorX": 0,
          "vectorY": -0.5
        }
      },
      {
        "classname": "ImageView",
        "name": null,
        "children": [],
        "options": {
          "__type": "ComGUIImageViewSurrogate:#EditorCommon.JsonModel.Component.GUI",
          "classname": "ImageView",
          "name": "ImageView_di",
          "ZOrder": 0,
          "actiontag": 24,
          "anchorPointX": 0,
          "anchorPointY": 0,
          "classType": null,
          "colorB": 255,
          "colorG": 255,
          "colorR": 255,
          "flipX": false,
          "flipY": false,
          "height": 436,
          "ignoreSize": false,
          "layoutParameter": null,
          "opacity": 255,
          "positionPercentX": -0.0045454544,
          "positionPercentY": -0.0139534874,
          "positionType": 0,
          "rotation": 0,
          "scaleX": 1,
          "scaleY": 1,
          "sizePercentX": 1.02,
          "sizePercentY": 1.01,
          "sizeType": 0,
          "tag": 4,
          "touchAble": false,
          "useMergedTexture": false,
          "visible": true,
          "width": 449,
          "x": -2,
          "y": -6,
          "capInsetsHeight": 0,
          "capInsetsWidth": 0,
          "capInsetsX": 0,
          "capInsetsY": 0,
          "fileName": null,
          "fileNameData": {
            "path": "dikuang_new.png",
            "plistFile": null,
            "resourceType": 0
          },
          "scale9Enable": true,
          "scale9Height": 436,
          "scale9Width": 449
        }
      },
      {
        "classname": "Panel",
        "name": null,
        "children": [
          {
            "classname": "Panel",
            "name": null,
            "children": [
              {
                "classname": "Panel",
                "name": null,
                "children": [
                  {
                    "classname": "LabelBMFont",
                    "name": null,
                    "children": [],
                    "options": {
                      "__type": "ComGUILabelBMFontSurrogate:#EditorCommon.JsonModel.Component.GUI",
                      "classname": "LabelBMFont",
                      "name": "LabelBMFont_fp_value",
                      "ZOrder": 0,
                      "actiontag": 2379,
                      "anchorPointX": 0.5,
                      "anchorPointY": 0.5,
                      "classType": null,
                      "colorB": 255,
                      "colorG": 255,
                      "colorR": 255,
                      "flipX": false,
                      "flipY": false,
                      "height": 35,
                      "ignoreSize": true,
                      "layoutParameter": null,
                      "opacity": 255,
                      "positionPercentX": 0.6501377,
                      "positionPercentY": 0.426767677,
                      "positionType": 0,
                      "rotation": 0,
                      "scaleX": 0.5999999,
                      "scaleY": 0.5999999,
                      "sizePercentX": 0.42,
                      "sizePercentY": 0.0899999961,
                      "sizeType": 0,
                      "tag": 46,
                      "touchAble": false,
                      "useMergedTexture": false,
                      "visible": true,
                      "width": 153,
                      "x": 236,
                      "y": 169,
                      "fileNameData": {
                        "path": "font/ziti_1.fnt",
                        "plistFile": null,
                        "resourceType": 0
                      },
                      "text": "123456789"
                    }
                  },
                  {
                    "classname": "ImageView",
                    "name": null,
                    "children": [],
                    "options": {
                      "__type": "ComGUIImageViewSurrogate:#EditorCommon.JsonModel.Component.GUI",
                      "classname": "ImageView",
                      "name": "ImageView_fp_name",
                      "ZOrder": 3,
                      "actiontag": 2377,
                      "anchorPointX": 0.5,
                      "anchorPointY": 0.5,
                      "classType": null,
                      "colorB": 255,
                      "colorG": 255,
                      "colorR": 255,
                      "flipX": false,
                      "flipY": false,
                      "height": 17,
                      "ignoreSize": true,
                      "layoutParameter": null,
                      "opacity": 255,
                      "positionPercentX": 0.41046828,
                      "positionPercentY": 0.4318182,
                      "positionType": 0,
                      "rotation": 0,
                      "scaleX": 1,
                      "scaleY": 1,
                      "sizePercentX": 0.179999992,
                      "sizePercentY": 0.04,
                      "sizeType": 0,
                      "tag": 44,
                      "touchAble": false,
                      "useMergedTexture": false,
                      "visible": true,
                      "width": 67,
                      "x": 149,
                      "y": 171,
                      "capInsetsHeight": 0,
                      "capInsetsWidth": 0,
                      "capInsetsX": 0,
                      "capInsetsY": 0,
                      "fileName": null,
                      "fileNameData": {
                        "path": "renwubeibao/zi1.png",
                        "plistFile": null,
                        "resourceType": 0
                      },
                      "scale9Enable": false,
                      "scale9Height": 17,
                      "scale9Width": 67
                    }
                  },
                  {
                    "classname": "ImageView",
                    "name": null,
                    "children": [
                      {
                        "classname": "ImageView",
                        "name": null,
                        "children": [],
                        "options": {
                          "__type": "ComGUIImageViewSurrogate:#EditorCommon.JsonModel.Component.GUI",
                          "classname": "ImageView",
                          "name": "Label_jobvalue",
                          "ZOrder": 0,
                          "actiontag": 2406,
                          "anchorPointX": 0.5,
                          "anchorPointY": 0.5,
                          "classType": null,
                          "colorB": 255,
                          "colorG": 255,
                          "colorR": 255,
                          "flipX": false,
                          "flipY": false,
                          "height": 62,
                          "ignoreSize": true,
                          "layoutParameter": null,
                          "opacity": 255,
                          "positionPercentX": -0.3558282,
                          "positionPercentY": -1.41176462,
                          "positionType": 0,
                          "rotation": 0,
                          "scaleX": 1,
                          "scaleY": 1,
                          "sizePercentX": 0.39,
                          "sizePercentY": 1.81999993,
                          "sizeType": 0,
                          "tag": 43,
                          "touchAble": false,
                          "useMergedTexture": false,
                          "visible": true,
                          "width": 64,
                          "x": -58,
                          "y": -48,
                          "capInsetsHeight": 0,
                          "capInsetsWidth": 0,
                          "capInsetsX": 0,
                          "capInsetsY": 0,
                          "fileName": null,
                          "fileNameData": {
                            "path": "renwubeibao/mj.png",
                            "plistFile": null,
                            "resourceType": 0
                          },
                          "scale9Enable": false,
                          "scale9Height": 62,
                          "scale9Width": 64
                        }
                      }
                    ],
                    "options": {
                      "__type": "ComGUIImageViewSurrogate:#EditorCommon.JsonModel.Component.GUI",
                      "classname": "ImageView",
                      "name": "ImageView_2194",
                      "ZOrder": 3,
                      "actiontag": 2194,
                      "anchorPointX": 0.5,
                      "anchorPointY": 0.5,
                      "classType": null,
                      "colorB": 255,
                      "colorG": 255,
                      "colorR": 255,
                      "flipX": false,
                      "flipY": false,
                      "height": 34,
                      "ignoreSize": false,
                      "layoutParameter": null,
                      "opacity": 255,
                      "positionPercentX": 0.553719,
                      "positionPercentY": 0.914141357,
                      "positionType": 0,
                      "rotation": 0,
                      "scaleX": 1,
                      "scaleY": 1,
                      "sizePercentX": 0.45,
                      "sizePercentY": 0.0899999961,
                      "sizeType": 0,
                      "tag": 145,
                      "touchAble": false,
                      "useMergedTexture": false,
                      "visible": true,
                      "width": 163,
                      "x": 201,
                      "y": 362,
                      "capInsetsHeight": 0,
                      "capInsetsWidth": 0,
                      "capInsetsX": 0,
                      "capInsetsY": 0,
                      "fileName": null,
                      "fileNameData": {
                        "path": "no4_di.png",
                        "plistFile": null,
                        "resourceType": 0
                      },
                      "scale9Enable": true,
                      "scale9Height": 34,
                      "scale9Width": 163
                    }
                  },
                  {
                    "classname": "Label",
                    "name": null,
                    "children": [],
                    "options": {
                      "__type": "ComGUILabelSurrogate:#EditorCommon.JsonModel.Component.GUI",
                      "classname": "Label",
                      "name": "Label_roleLevel",
                      "ZOrder": 10,
                      "actiontag": 137,
                      "anchorPointX": 0.5,
                      "anchorPointY": 0.5,
                      "classType": null,
                      "colorB": 15,
                      "colorG": 95,
                      "colorR": 47,
                      "flipX": false,
                      "flipY": false,
                      "height": 18,
                      "ignoreSize": true,
                      "layoutParameter": null,
                      "opacity": 255,
                      "positionPercentX": 0.7052341,
                      "positionPercentY": 0.825757563,
                      "positionType": 0,
                      "rotation": 0,
                      "scaleX": 1,
                      "scaleY": 1,
                      "sizePercentX": 0.12,
                      "sizePercentY": 0.049999997,
                      "sizeType": 0,
                      "tag": 116,
                      "touchAble": false,
                      "useMergedTexture": false,
                      "visible": true,
                      "width": 36,
                      "x": 256,
                      "y": 327,
                      "fontName": "黑体",
                      "fontSize": 18,
                      "fontType": 1,
                      "text": "LV.15",
                      "touchScaleEnable": false
                    }
                  },
                  {
                    "classname": "ImageView",
                    "name": null,
                    "children": [],
                    "options": {
                      "__type": "ComGUIImageViewSurrogate:#EditorCommon.JsonModel.Component.GUI",
                      "classname": "ImageView",
                      "name": "long",
                      "ZOrder": 2,
                      "actiontag": 31,
                      "anchorPointX": 0,
                      "anchorPointY": 0,
                      "classType": null,
                      "colorB": 255,
                      "colorG": 255,
                      "colorR": 255,
                      "flipX": false,
                      "flipY": false,
                      "height": 209,
                      "ignoreSize": true,
                      "layoutParameter": null,
                      "opacity": 255,
                      "positionPercentX": 0.30578512,
                      "positionPercentY": 0.441919178,
                      "positionType": 0,
                      "rotation": 0,
                      "scaleX": 0.8,
                      "scaleY": 0.8,
                      "sizePercentX": 0.61,
                      "sizePercentY": 0.53,
                      "sizeType": 0,
                      "tag": 11,
                      "touchAble": false,
                      "useMergedTexture": false,
                      "visible": true,
                      "width": 221,
                      "x": 111,
                      "y": 175,
                      "capInsetsHeight": 72.3333359,
                      "capInsetsWidth": 73.6666641,
                      "capInsetsX": 73.6666641,
                      "capInsetsY": 72.3333359,
                      "fileName": null,
                      "fileNameData": {
                        "path": "long.png",
                        "plistFile": null,
                        "resourceType": 0
                      },
                      "scale9Enable": false,
                      "scale9Height": 209,
                      "scale9Width": 221
                    }
                  },
                  {
                    "classname": "ImageView",
                    "name": null,
                    "children": [],
                    "options": {
                      "__type": "ComGUIImageViewSurrogate:#EditorCommon.JsonModel.Component.GUI",
                      "classname": "ImageView",
                      "name": "LV3_dikuang_left_upside",
                      "ZOrder": 1,
                      "actiontag": 185,
                      "anchorPointX": 0,
                      "anchorPointY": 0,
                      "classType": null,
                      "colorB": 255,
                      "colorG": 255,
                      "colorR": 255,
                      "flipX": false,
                      "flipY": false,
                      "height": 267,
                      "ignoreSize": false,
                      "layoutParameter": null,
                      "opacity": 255,
                      "positionPercentX": 0.0385674946,
                      "positionPercentY": 0.313131273,
                      "positionType": 0,
                      "rotation": 0,
                      "scaleX": 1,
                      "scaleY": 1,
                      "sizePercentX": 1.02,
                      "sizePercentY": 0.669999957,
                      "sizeType": 0,
                      "tag": 7,
                      "touchAble": true,
                      "useMergedTexture": false,
                      "visible": true,
                      "width": 369,
                      "x": 14,
                      "y": 124,
                      "capInsetsHeight": 1,
                      "capInsetsWidth": 1,
                      "capInsetsX": 14,
                      "capInsetsY": 14,
                      "fileName": null,
                      "fileNameData": {
                        "path": "LV0_dikuang1.png",
                        "plistFile": null,
                        "resourceType": 0
                      },
                      "scale9Enable": true,
                      "scale9Height": 267,
                      "scale9Width": 369
                    }
                  },
                  {
                    "classname": "ImageView",
                    "name": null,
                    "children": [],
                    "options": {
                      "__type": "ComGUIImageViewSurrogate:#EditorCommon.JsonModel.Component.GUI",
                      "classname": "ImageView",
                      "name": "mo",
                      "ZOrder": 2,
                      "actiontag": 69,
                      "anchorPointX": 0,
                      "anchorPointY": 0,
                      "classType": null,
                      "colorB": 255,
                      "colorG": 255,
                      "colorR": 255,
                      "flipX": false,
                      "flipY": false,
                      "height": 64,
                      "ignoreSize": true,
                      "layoutParameter": null,
                      "opacity": 255,
                      "positionPercentX": 0.3581267,
                      "positionPercentY": 0.464646429,
                      "positionType": 0,
                      "rotation": 0,
                      "scaleX": 0.799999952,
                      "scaleY": 0.799999952,
                      "sizePercentX": 0.44,
                      "sizePercentY": 0.16,
                      "sizeType": 0,
                      "tag": 49,
                      "touchAble": false,
                      "useMergedTexture": false,
                      "visible": true,
                      "width": 160,
                      "x": 130,
                      "y": 184,
                      "capInsetsHeight": 39.3333321,
                      "capInsetsWidth": 71,
                      "capInsetsX": 71,
                      "capInsetsY": 39.3333321,
                      "fileName": null,
                      "fileNameData": {
                        "path": "mo.png",
                        "plistFile": null,
                        "resourceType": 0
                      },
                      "scale9Enable": false,
                      "scale9Height": 64,
                      "scale9Width": 160
                    }
                  },
                  {
                    "classname": "ImageView",
                    "name": null,
                    "children": [],
                    "options": {
                      "__type": "ComGUIImageViewSurrogate:#EditorCommon.JsonModel.Component.GUI",
                      "classname": "ImageView",
                      "name": "ImageView_lv4di2",
                      "ZOrder": 0,
                      "actiontag": 186,
                      "anchorPointX": 0,
                      "anchorPointY": 0,
                      "classType": null,
                      "colorB": 255,
                      "colorG": 255,
                      "colorR": 255,
                      "flipX": false,
                      "flipY": false,
                      "height": 123,
                      "ignoreSize": false,
                      "layoutParameter": null,
                      "opacity": 255,
                      "positionPercentX": 0.0358126722,
                      "positionPercentY": 0.00252525229,
                      "positionType": 0,
                      "rotation": 0,
                      "scaleX": 1,
                      "scaleY": 1,
                      "sizePercentX": 1.02,
                      "sizePercentY": 0.31,
                      "sizeType": 0,
                      "tag": 166,
                      "touchAble": false,
                      "useMergedTexture": false,
                      "visible": true,
                      "width": 369,
                      "x": 13,
                      "y": 1,
                      "capInsetsHeight": 0,
                      "capInsetsWidth": 0,
                      "capInsetsX": 0,
                      "capInsetsY": 0,
                      "fileName": null,
                      "fileNameData": {
                        "path": "no1_di.png",
                        "plistFile": null,
                        "resourceType": 0
                      },
                      "scale9Enable": true,
                      "scale9Height": 123,
                      "scale9Width": 369
                    }
                  }
                ],
                "options": {
                  "__type": "ComGUIPanelSurrogate:#EditorCommon.JsonModel.Component.GUI",
                  "classname": "Panel",
                  "name": "Panel_renwu",
                  "ZOrder": 4,
                  "actiontag": 38,
                  "anchorPointX": 0,
                  "anchorPointY": 0,
                  "classType": null,
                  "colorB": 255,
                  "colorG": 255,
                  "colorR": 255,
                  "flipX": false,
                  "flipY": false,
                  "height": 396,
                  "ignoreSize": false,
                  "layoutParameter": null,
                  "opacity": 255,
                  "positionPercentX": 0,
                  "positionPercentY": 0,
                  "positionType": 0,
                  "rotation": 0,
                  "scaleX": 1,
                  "scaleY": 1,
                  "sizePercentX": 1,
                  "sizePercentY": 1,
                  "sizeType": 0,
                  "tag": 18,
                  "touchAble": false,
                  "useMergedTexture": false,
                  "visible": true,
                  "width": 363,
                  "x": 0,
                  "y": 0,
                  "backGroundImage": null,
                  "backGroundImageData": null,
                  "backGroundScale9Enable": false,
                  "bgColorB": 255,
                  "bgColorG": 200,
                  "bgColorOpacity": 0,
                  "bgColorR": 150,
                  "bgEndColorB": 255,
                  "bgEndColorG": 0,
                  "bgEndColorR": 0,
                  "bgStartColorB": 255,
                  "bgStartColorG": 255,
                  "bgStartColorR": 255,
                  "capInsetsHeight": 0,
                  "capInsetsWidth": 0,
                  "capInsetsX": 0,
                  "capInsetsY": 0,
                  "clipAble": false,
                  "colorType": 1,
                  "layoutType": 0,
                  "vectorX": 0,
                  "vectorY": -0.5
                }
              }
            ],
            "options": {
              "__type": "ComGUIPanelSurrogate:#EditorCommon.JsonModel.Component.GUI",
              "classname": "Panel",
              "name": "Panel",
              "ZOrder": 6,
              "actiontag": -1,
              "anchorPointX": 0,
              "anchorPointY": 0,
              "classType": null,
              "colorB": 255,
              "colorG": 255,
              "colorR": 255,
              "flipX": false,
              "flipY": false,
              "height": 396,
              "ignoreSize": false,
              "layoutParameter": null,
              "opacity": 255,
              "positionPercentX": 0.049999997,
              "positionPercentY": 0.05116279,
              "positionType": 0,
              "rotation": 0,
              "scaleX": 1,
              "scaleY": 1,
              "sizePercentX": 0.909999967,
              "sizePercentY": 0.919999957,
              "sizeType": 0,
              "tag": 1,
              "touchAble": false,
              "useMergedTexture": false,
              "visible": true,
              "width": 363,
              "x": 20,
              "y": 22,
              "backGroundImage": null,
              "backGroundImageData": null,
              "backGroundScale9Enable": false,
              "bgColorB": 255,
              "bgColorG": 200,
              "bgColorOpacity": 0,
              "bgColorR": 150,
              "bgEndColorB": 255,
              "bgEndColorG": 0,
              "bgEndColorR": 0,
              "bgStartColorB": 255,
              "bgStartColorG": 255,
              "bgStartColorR": 255,
              "capInsetsHeight": 0,
              "capInsetsWidth": 0,
              "capInsetsX": 0,
              "capInsetsY": 0,
              "clipAble": false,
              "colorType": 1,
              "layoutType": 0,
              "vectorX": 0,
              "vectorY": -0.5
            }
          },
          {
            "classname": "ImageView",
            "name": null,
            "children": [
              {
                "classname": "ImageView",
                "name": null,
                "children": [],
                "options": {
                  "__type": "ComGUIImageViewSurrogate:#EditorCommon.JsonModel.Component.GUI",
                  "classname": "ImageView",
                  "name": "ImageView_vip_lv",
                  "ZOrder": 0,
                  "actiontag": 35,
                  "anchorPointX": 0.5,
                  "anchorPointY": 0.5,
                  "classType": null,
                  "colorB": 255,
                  "colorG": 255,
                  "colorR": 255,
                  "flipX": false,
                  "flipY": false,
                  "height": 11,
                  "ignoreSize": true,
                  "layoutParameter": null,
                  "opacity": 255,
                  "positionPercentX": 0.5,
                  "positionPercentY": 0.444444448,
                  "positionType": 0,
                  "rotation": 0,
                  "scaleX": 1,
                  "scaleY": 1,
                  "sizePercentX": 0.71,
                  "sizePercentY": 0.61,
                  "sizeType": 0,
                  "tag": 15,
                  "touchAble": false,
                  "useMergedTexture": false,
                  "visible": true,
                  "width": 27,
                  "x": 19,
                  "y": 8,
                  "capInsetsHeight": 0,
                  "capInsetsWidth": 0,
                  "capInsetsX": 0,
                  "capInsetsY": 0,
                  "fileName": null,
                  "fileNameData": {
                    "path": "zhuangbeixiangqing/vip1.png",
                    "plistFile": null,
                    "resourceType": 0
                  },
                  "scale9Enable": false,
                  "scale9Height": 11,
                  "scale9Width": 27
                }
              }
            ],
            "options": {
              "__type": "ComGUIImageViewSurrogate:#EditorCommon.JsonModel.Component.GUI",
              "classname": "ImageView",
              "name": "ImageView_vip_logo",
              "ZOrder": 7,
              "actiontag": 34,
              "anchorPointX": 0,
              "anchorPointY": 0,
              "classType": null,
              "colorB": 255,
              "colorG": 255,
              "colorR": 255,
              "flipX": false,
              "flipY": false,
              "height": 18,
              "ignoreSize": true,
              "layoutParameter": null,
              "opacity": 255,
              "positionPercentX": 0.585,
              "positionPercentY": 1.05581391,
              "positionType": 0,
              "rotation": 0,
              "scaleX": 1,
              "scaleY": 1,
              "sizePercentX": 0.099999994,
              "sizePercentY": 0.04,
              "sizeType": 0,
              "tag": 14,
              "touchAble": false,
              "useMergedTexture": false,
              "visible": false,
              "width": 38,
              "x": 234,
              "y": 454,
              "capInsetsHeight": 0,
              "capInsetsWidth": 0,
              "capInsetsX": 0,
              "capInsetsY": 0,
              "fileName": null,
              "fileNameData": {
                "path": "zhuangbeixiangqing/vip_di.png",
                "plistFile": null,
                "resourceType": 0
              },
              "scale9Enable": false,
              "scale9Height": 18,
              "scale9Width": 38
            }
          },
          {
            "classname": "ImageView",
            "name": null,
            "children": [
              {
                "classname": "LabelBMFont",
                "name": null,
                "children": [],
                "options": {
                  "__type": "ComGUILabelBMFontSurrogate:#EditorCommon.JsonModel.Component.GUI",
                  "classname": "LabelBMFont",
                  "name": "LabelBMFont_2239",
                  "ZOrder": 0,
                  "actiontag": 2239,
                  "anchorPointX": 0.5,
                  "anchorPointY": 0.5,
                  "classType": null,
                  "colorB": 255,
                  "colorG": 255,
                  "colorR": 255,
                  "flipX": false,
                  "flipY": false,
                  "height": 33,
                  "ignoreSize": true,
                  "layoutParameter": null,
                  "opacity": 255,
                  "positionPercentX": 0.523809552,
                  "positionPercentY": 0.492063463,
                  "positionType": 0,
                  "rotation": 0,
                  "scaleX": 0.799999952,
                  "scaleY": 0.799999952,
                  "sizePercentX": 0.95,
                  "sizePercentY": 0.52,
                  "sizeType": 0,
                  "tag": 50,
                  "touchAble": false,
                  "useMergedTexture": false,
                  "visible": true,
                  "width": 60,
                  "x": 33,
                  "y": 31,
                  "fileNameData": {
                    "path": "font/ziti_2.fnt",
                    "plistFile": null,
                    "resourceType": 0
                  },
                  "text": "配饰"
                }
              }
            ],
            "options": {
              "__type": "ComGUIImageViewSurrogate:#EditorCommon.JsonModel.Component.GUI",
              "classname": "ImageView",
              "name": "ImageView_accessories",
              "ZOrder": 4,
              "actiontag": 34,
              "anchorPointX": 0,
              "anchorPointY": 0,
              "classType": null,
              "colorB": 255,
              "colorG": 255,
              "colorR": 255,
              "flipX": false,
              "flipY": false,
              "height": 63,
              "ignoreSize": true,
              "layoutParameter": null,
              "opacity": 255,
              "positionPercentX": 0.799999952,
              "positionPercentY": 0.383720934,
              "positionType": 0,
              "rotation": 0,
              "scaleX": 1,
              "scaleY": 1,
              "sizePercentX": 0.16,
              "sizePercentY": 0.149999991,
              "sizeType": 0,
              "tag": 9,
              "touchAble": false,
              "useMergedTexture": false,
              "visible": true,
              "width": 63,
              "x": 320,
              "y": 165,
              "capInsetsHeight": 0,
              "capInsetsWidth": 0,
              "capInsetsX": 0,
              "capInsetsY": 0,
              "fileName": null,
              "fileNameData": {
                "path": "sdi_none.png",
                "plistFile": null,
                "resourceType": 0
              },
              "scale9Enable": false,
              "scale9Height": 63,
              "scale9Width": 63
            }
          },
          {
            "classname": "ImageView",
            "name": null,
            "children": [
              {
                "classname": "LabelBMFont",
                "name": null,
                "children": [],
                "options": {
                  "__type": "ComGUILabelBMFontSurrogate:#EditorCommon.JsonModel.Component.GUI",
                  "classname": "LabelBMFont",
                  "name": "LabelBMFont_2237",
                  "ZOrder": 0,
                  "actiontag": 2237,
                  "anchorPointX": 0.5,
                  "anchorPointY": 0.5,
                  "classType": null,
                  "colorB": 255,
                  "colorG": 255,
                  "colorR": 255,
                  "flipX": false,
                  "flipY": false,
                  "height": 33,
                  "ignoreSize": true,
                  "layoutParameter": null,
                  "opacity": 255,
                  "positionPercentX": 0.523809552,
                  "positionPercentY": 0.492063463,
                  "positionType": 0,
                  "rotation": 0,
                  "scaleX": 0.799999952,
                  "scaleY": 0.799999952,
                  "sizePercentX": 0.95,
                  "sizePercentY": 0.52,
                  "sizeType": 0,
                  "tag": 48,
                  "touchAble": false,
                  "useMergedTexture": false,
                  "visible": true,
                  "width": 60,
                  "x": 33,
                  "y": 31,
                  "fileNameData": {
                    "path": "font/ziti_2.fnt",
                    "plistFile": null,
                    "resourceType": 0
                  },
                  "text": "鞋子"
                }
              }
            ],
            "options": {
              "__type": "ComGUIImageViewSurrogate:#EditorCommon.JsonModel.Component.GUI",
              "classname": "ImageView",
              "name": "ImageView_shoes",
              "ZOrder": 4,
              "actiontag": 33,
              "anchorPointX": 0,
              "anchorPointY": 0,
              "classType": null,
              "colorB": 255,
              "colorG": 255,
              "colorR": 255,
              "flipX": false,
              "flipY": false,
              "height": 63,
              "ignoreSize": true,
              "layoutParameter": null,
              "opacity": 255,
              "positionPercentX": 0.799999952,
              "positionPercentY": 0.572093,
              "positionType": 0,
              "rotation": 0,
              "scaleX": 1,
              "scaleY": 1,
              "sizePercentX": 0.16,
              "sizePercentY": 0.149999991,
              "sizeType": 0,
              "tag": 9,
              "touchAble": false,
              "useMergedTexture": false,
              "visible": true,
              "width": 63,
              "x": 320,
              "y": 246,
              "capInsetsHeight": 0,
              "capInsetsWidth": 0,
              "capInsetsX": 0,
              "capInsetsY": 0,
              "fileName": null,
              "fileNameData": {
                "path": "sdi_none.png",
                "plistFile": null,
                "resourceType": 0
              },
              "scale9Enable": false,
              "scale9Height": 63,
              "scale9Width": 63
            }
          },
          {
            "classname": "ImageView",
            "name": null,
            "children": [
              {
                "classname": "LabelBMFont",
                "name": null,
                "children": [],
                "options": {
                  "__type": "ComGUILabelBMFontSurrogate:#EditorCommon.JsonModel.Component.GUI",
                  "classname": "LabelBMFont",
                  "name": "LabelBMFont_2235",
                  "ZOrder": 0,
                  "actiontag": 2235,
                  "anchorPointX": 0.5,
                  "anchorPointY": 0.5,
                  "classType": null,
                  "colorB": 255,
                  "colorG": 255,
                  "colorR": 255,
                  "flipX": false,
                  "flipY": false,
                  "height": 33,
                  "ignoreSize": true,
                  "layoutParameter": null,
                  "opacity": 255,
                  "positionPercentX": 0.523809552,
                  "positionPercentY": 0.492063463,
                  "positionType": 0,
                  "rotation": 0,
                  "scaleX": 0.799999952,
                  "scaleY": 0.799999952,
                  "sizePercentX": 0.969999969,
                  "sizePercentY": 0.52,
                  "sizeType": 0,
                  "tag": 46,
                  "touchAble": false,
                  "useMergedTexture": false,
                  "visible": true,
                  "width": 61,
                  "x": 33,
                  "y": 31,
                  "fileNameData": {
                    "path": "font/ziti_2.fnt",
                    "plistFile": null,
                    "resourceType": 0
                  },
                  "text": "头盔"
                }
              }
            ],
            "options": {
              "__type": "ComGUIImageViewSurrogate:#EditorCommon.JsonModel.Component.GUI",
              "classname": "ImageView",
              "name": "ImageView_helmet",
              "ZOrder": 4,
              "actiontag": 32,
              "anchorPointX": 0,
              "anchorPointY": 0,
              "classType": null,
              "colorB": 255,
              "colorG": 255,
              "colorR": 255,
              "flipX": false,
              "flipY": false,
              "height": 63,
              "ignoreSize": true,
              "layoutParameter": null,
              "opacity": 255,
              "positionPercentX": 0.799999952,
              "positionPercentY": 0.755813956,
              "positionType": 0,
              "rotation": 0,
              "scaleX": 1,
              "scaleY": 1,
              "sizePercentX": 0.16,
              "sizePercentY": 0.149999991,
              "sizeType": 0,
              "tag": 9,
              "touchAble": false,
              "useMergedTexture": false,
              "visible": true,
              "width": 63,
              "x": 320,
              "y": 325,
              "capInsetsHeight": 0,
              "capInsetsWidth": 0,
              "capInsetsX": 0,
              "capInsetsY": 0,
              "fileName": null,
              "fileNameData": {
                "path": "sdi_none.png",
                "plistFile": null,
                "resourceType": 0
              },
              "scale9Enable": false,
              "scale9Height": 63,
              "scale9Width": 63
            }
          },
          {
            "classname": "ImageView",
            "name": null,
            "children": [
              {
                "classname": "LabelBMFont",
                "name": null,
                "children": [],
                "options": {
                  "__type": "ComGUILabelBMFontSurrogate:#EditorCommon.JsonModel.Component.GUI",
                  "classname": "LabelBMFont",
                  "name": "LabelBMFont_2238",
                  "ZOrder": 0,
                  "actiontag": 2238,
                  "anchorPointX": 0.5,
                  "anchorPointY": 0.5,
                  "classType": null,
                  "colorB": 255,
                  "colorG": 255,
                  "colorR": 255,
                  "flipX": false,
                  "flipY": false,
                  "height": 33,
                  "ignoreSize": true,
                  "layoutParameter": null,
                  "opacity": 255,
                  "positionPercentX": 0.523809552,
                  "positionPercentY": 0.492063463,
                  "positionType": 0,
                  "rotation": 0,
                  "scaleX": 0.799999952,
                  "scaleY": 0.799999952,
                  "sizePercentX": 0.95,
                  "sizePercentY": 0.52,
                  "sizeType": 0,
                  "tag": 49,
                  "touchAble": false,
                  "useMergedTexture": false,
                  "visible": true,
                  "width": 60,
                  "x": 33,
                  "y": 31,
                  "fileNameData": {
                    "path": "font/ziti_2.fnt",
                    "plistFile": null,
                    "resourceType": 0
                  },
                  "text": "戒指"
                }
              }
            ],
            "options": {
              "__type": "ComGUIImageViewSurrogate:#EditorCommon.JsonModel.Component.GUI",
              "classname": "ImageView",
              "name": "ImageView_ring",
              "ZOrder": 4,
              "actiontag": 31,
              "anchorPointX": 0,
              "anchorPointY": 0,
              "classType": null,
              "colorB": 255,
              "colorG": 255,
              "colorR": 255,
              "flipX": false,
              "flipY": false,
              "height": 63,
              "ignoreSize": true,
              "layoutParameter": null,
              "opacity": 255,
              "positionPercentX": 0.135,
              "positionPercentY": 0.38139534,
              "positionType": 0,
              "rotation": 0,
              "scaleX": 1,
              "scaleY": 1,
              "sizePercentX": 0.16,
              "sizePercentY": 0.149999991,
              "sizeType": 0,
              "tag": 9,
              "touchAble": false,
              "useMergedTexture": false,
              "visible": true,
              "width": 63,
              "x": 54,
              "y": 164,
              "capInsetsHeight": 0,
              "capInsetsWidth": 0,
              "capInsetsX": 0,
              "capInsetsY": 0,
              "fileName": null,
              "fileNameData": {
                "path": "sdi_none.png",
                "plistFile": null,
                "resourceType": 0
              },
              "scale9Enable": false,
              "scale9Height": 63,
              "scale9Width": 63
            }
          },
          {
            "classname": "ImageView",
            "name": null,
            "children": [
              {
                "classname": "LabelBMFont",
                "name": null,
                "children": [],
                "options": {
                  "__type": "ComGUILabelBMFontSurrogate:#EditorCommon.JsonModel.Component.GUI",
                  "classname": "LabelBMFont",
                  "name": "LabelBMFont_2236",
                  "ZOrder": 0,
                  "actiontag": 2236,
                  "anchorPointX": 0.5,
                  "anchorPointY": 0.5,
                  "classType": null,
                  "colorB": 255,
                  "colorG": 255,
                  "colorR": 255,
                  "flipX": false,
                  "flipY": false,
                  "height": 33,
                  "ignoreSize": true,
                  "layoutParameter": null,
                  "opacity": 255,
                  "positionPercentX": 0.523809552,
                  "positionPercentY": 0.492063463,
                  "positionType": 0,
                  "rotation": 0,
                  "scaleX": 0.799999952,
                  "scaleY": 0.799999952,
                  "sizePercentX": 0.95,
                  "sizePercentY": 0.52,
                  "sizeType": 0,
                  "tag": 47,
                  "touchAble": false,
                  "useMergedTexture": false,
                  "visible": true,
                  "width": 60,
                  "x": 33,
                  "y": 31,
                  "fileNameData": {
                    "path": "font/ziti_2.fnt",
                    "plistFile": null,
                    "resourceType": 0
                  },
                  "text": "衣服"
                }
              }
            ],
            "options": {
              "__type": "ComGUIImageViewSurrogate:#EditorCommon.JsonModel.Component.GUI",
              "classname": "ImageView",
              "name": "ImageView_clothes",
              "ZOrder": 4,
              "actiontag": 30,
              "anchorPointX": 0,
              "anchorPointY": 0,
              "classType": null,
              "colorB": 255,
              "colorG": 255,
              "colorR": 255,
              "flipX": false,
              "flipY": false,
              "height": 63,
              "ignoreSize": true,
              "layoutParameter": null,
              "opacity": 255,
              "positionPercentX": 0.135,
              "positionPercentY": 0.5697674,
              "positionType": 0,
              "rotation": 0,
              "scaleX": 1,
              "scaleY": 1,
              "sizePercentX": 0.16,
              "sizePercentY": 0.149999991,
              "sizeType": 0,
              "tag": 9,
              "touchAble": false,
              "useMergedTexture": false,
              "visible": true,
              "width": 63,
              "x": 54,
              "y": 245,
              "capInsetsHeight": 0,
              "capInsetsWidth": 0,
              "capInsetsX": 0,
              "capInsetsY": 0,
              "fileName": null,
              "fileNameData": {
                "path": "sdi_none.png",
                "plistFile": null,
                "resourceType": 0
              },
              "scale9Enable": false,
              "scale9Height": 63,
              "scale9Width": 63
            }
          },
          {
            "classname": "ImageView",
            "name": null,
            "children": [
              {
                "classname": "LabelBMFont",
                "name": null,
                "children": [],
                "options": {
                  "__type": "ComGUILabelBMFontSurrogate:#EditorCommon.JsonModel.Component.GUI",
                  "classname": "LabelBMFont",
                  "name": "LabelBMFont_2234",
                  "ZOrder": 0,
                  "actiontag": 2234,
                  "anchorPointX": 0.5,
                  "anchorPointY": 0.5,
                  "classType": null,
                  "colorB": 255,
                  "colorG": 255,
                  "colorR": 255,
                  "flipX": false,
                  "flipY": false,
                  "height": 33,
                  "ignoreSize": true,
                  "layoutParameter": null,
                  "opacity": 255,
                  "positionPercentX": 0.523809552,
                  "positionPercentY": 0.492063463,
                  "positionType": 0,
                  "rotation": 0,
                  "scaleX": 0.799999952,
                  "scaleY": 0.799999952,
                  "sizePercentX": 0.95,
                  "sizePercentY": 0.52,
                  "sizeType": 0,
                  "tag": 45,
                  "touchAble": false,
                  "useMergedTexture": false,
                  "visible": true,
                  "width": 60,
                  "x": 33,
                  "y": 31,
                  "fileNameData": {
                    "path": "font/ziti_2.fnt",
                    "plistFile": null,
                    "resourceType": 0
                  },
                  "text": "武器"
                }
              }
            ],
            "options": {
              "__type": "ComGUIImageViewSurrogate:#EditorCommon.JsonModel.Component.GUI",
              "classname": "ImageView",
              "name": "ImageView_arms",
              "ZOrder": 4,
              "actiontag": 29,
              "anchorPointX": 0,
              "anchorPointY": 0,
              "classType": null,
              "colorB": 255,
              "colorG": 255,
              "colorR": 255,
              "flipX": false,
              "flipY": false,
              "height": 63,
              "ignoreSize": true,
              "layoutParameter": null,
              "opacity": 255,
              "positionPercentX": 0.135,
              "positionPercentY": 0.755813956,
              "positionType": 0,
              "rotation": 0,
              "scaleX": 1,
              "scaleY": 1,
              "sizePercentX": 0.16,
              "sizePercentY": 0.149999991,
              "sizeType": 0,
              "tag": 9,
              "touchAble": false,
              "useMergedTexture": false,
              "visible": true,
              "width": 63,
              "x": 54,
              "y": 325,
              "capInsetsHeight": 0,
              "capInsetsWidth": 0,
              "capInsetsX": 0,
              "capInsetsY": 0,
              "fileName": null,
              "fileNameData": {
                "path": "sdi_none.png",
                "plistFile": null,
                "resourceType": 0
              },
              "scale9Enable": false,
              "scale9Height": 63,
              "scale9Width": 63
            }
          }
        ],
        "options": {
          "__type": "ComGUIPanelSurrogate:#EditorCommon.JsonModel.Component.GUI",
          "classname": "Panel",
          "name": "PanelRole",
          "ZOrder": 1,
          "actiontag": -1,
          "anchorPointX": 0,
          "anchorPointY": 0,
          "classType": null,
          "colorB": 255,
          "colorG": 255,
          "colorR": 255,
          "flipX": false,
          "flipY": false,
          "height": 430,
          "ignoreSize": false,
          "layoutParameter": null,
          "opacity": 255,
          "positionPercentX": 0.0022727272,
          "positionPercentY": 0,
          "positionType": 0,
          "rotation": 0,
          "scaleX": 1,
          "scaleY": 1,
          "sizePercentX": 0.909999967,
          "sizePercentY": 1,
          "sizeType": 0,
          "tag": 1,
          "touchAble": false,
          "useMergedTexture": false,
          "visible": true,
          "width": 400,
          "x": 1,
          "y": 0,
          "backGroundImage": null,
          "backGroundImageData": null,
          "backGroundScale9Enable": false,
          "bgColorB": 255,
          "bgColorG": 200,
          "bgColorOpacity": 0,
          "bgColorR": 150,
          "bgEndColorB": 255,
          "bgEndColorG": 0,
          "bgEndColorR": 0,
          "bgStartColorB": 255,
          "bgStartColorG": 255,
          "bgStartColorR": 255,
          "capInsetsHeight": 0,
          "capInsetsWidth": 0,
          "capInsetsX": 0,
          "capInsetsY": 0,
          "clipAble": false,
          "colorType": 1,
          "layoutType": 0,
          "vectorX": 0,
          "vectorY": -0.5
        }
      }
    ],
    "options": {
      "__type": "ComGUIPanelSurrogate:#EditorCommon.JsonModel.Component.GUI",
      "classname": "Panel",
      "name": "Panel_20",
      "ZOrder": 0,
      "actiontag": -1,
      "anchorPointX": 0,
      "anchorPointY": 0,
      "classType": null,
      "colorB": 255,
      "colorG": 255,
      "colorR": 255,
      "flipX": false,
      "flipY": false,
      "height": 430,
      "ignoreSize": false,
      "layoutParameter": null,
      "opacity": 255,
      "positionPercentX": 0,
      "positionPercentY": 0,
      "positionType": 0,
      "rotation": 0,
      "scaleX": 1,
      "scaleY": 1,
      "sizePercentX": 0.01,
      "sizePercentY": 0.01,
      "sizeType": 0,
      "tag": 1,
      "touchAble": false,
      "useMergedTexture": false,
      "visible": true,
      "width": 440,
      "x": 0,
      "y": 0,
      "backGroundImage": null,
      "backGroundImageData": null,
      "backGroundScale9Enable": false,
      "bgColorB": 255,
      "bgColorG": 200,
      "bgColorOpacity": 0,
      "bgColorR": 150,
      "bgEndColorB": 255,
      "bgEndColorG": 0,
      "bgEndColorR": 0,
      "bgStartColorB": 255,
      "bgStartColorG": 255,
      "bgStartColorR": 255,
      "capInsetsHeight": 0,
      "capInsetsWidth": 0,
      "capInsetsX": 0,
      "capInsetsY": 0,
      "clipAble": false,
      "colorType": 1,
      "layoutType": 0,
      "vectorX": 0,
      "vectorY": -0.5
    }
  }
}