{
  "classname": "CCNode",
  "name": null,
  "canedit": true,
  "objecttag": 10000,
  "rotation": 0,
  "scalex": 1,
  "scaley": 1,
  "visible": 1,
  "x": 0,
  "y": 0,
  "zorder": 1,
  "gameobjects": [
    {
      "__type": "ComGameObjectSurrogate:#EditorCommon.JsonModel",
      "classname": "CCNode",
      "name": null,
      "canedit": true,
      "objecttag": 10047,
      "rotation": 0,
      "scalex": 1,
      "scaley": 1,
      "visible": 1,
      "x": 1920,
      "y": 1152,
      "zorder": 1,
      "gameobjects": [],
      "components": [
        {
          "__type": "ComSpriteSurrogate:#EditorCommon.JsonModel.Component",
          "classname": "CCSprite",
          "name": "CCSprite",
          "file": null,
          "fileData": {
            "path": "images/bg.png",
            "plistFile": null,
            "resourceType": 0
          }
        }
      ]
    },
    {
      "__type": "ComGameObjectSurrogate:#EditorCommon.JsonModel",
      "classname": "CCNode",
      "name": null,
      "canedit": true,
      "objecttag": 10048,
      "rotation": 0,
      "scalex": 0.799999952,
      "scaley": 0.799999952,
      "visible": 1,
      "x": 1787.666748046875,
      "y": 2107.33349609375,
      "zorder": 1,
      "gameobjects": [],
      "components": [
        {
          "__type": "ComParticleSystemSurrogate:#EditorCommon.JsonModel.Component",
          "classname": "CCParticleSystemQuad",
          "name": "CCParticleSystemQuad",
          "file": null,
          "fileData": {
            "path": "animation/texiao/particledesigner/xue1.plist",
            "plistFile": null,
            "resourceType": 0
          }
        }
      ]
    },
    {
      "__type": "ComGameObjectSurrogate:#EditorCommon.JsonModel",
      "classname": "CCNode",
      "name": "_Copy",
      "canedit": true,
      "objecttag": 10049,
      "rotation": 0,
      "scalex": 0.799999952,
      "scaley": 0.799999952,
      "visible": 1,
      "x": 721.00018310546875,
      "y": 1552.3333740234375,
      "zorder": 1,
      "gameobjects": [],
      "components": [
        {
          "__type": "ComParticleSystemSurrogate:#EditorCommon.JsonModel.Component",
          "classname": "CCParticleSystemQuad",
          "name": "CCParticleSystemQuad",
          "file": null,
          "fileData": {
            "path": "animation/texiao/particledesigner/xue1.plist",
            "plistFile": null,
            "resourceType": 0
          }
        }
      ]
    },
    {
      "__type": "ComGameObjectSurrogate:#EditorCommon.JsonModel",
      "classname": "CCNode",
      "name": "_Copy",
      "canedit": true,
      "objecttag": 10050,
      "rotation": 0,
      "scalex": 0.799999952,
      "scaley": 0.799999952,
      "visible": 1,
      "x": 577.6668701171875,
      "y": 1297.3333740234375,
      "zorder": 1,
      "gameobjects": [],
      "components": [
        {
          "__type": "ComParticleSystemSurrogate:#EditorCommon.JsonModel.Component",
          "classname": "CCParticleSystemQuad",
          "name": "CCParticleSystemQuad",
          "file": null,
          "fileData": {
            "path": "animation/texiao/particledesigner/xue1.plist",
            "plistFile": null,
            "resourceType": 0
          }
        }
      ]
    },
    {
      "__type": "ComGameObjectSurrogate:#EditorCommon.JsonModel",
      "classname": "CCNode",
      "name": "_Copy",
      "canedit": true,
      "objecttag": 10051,
      "rotation": 0,
      "scalex": 0.799999952,
      "scaley": 0.799999952,
      "visible": 1,
      "x": 697.66693115234375,
      "y": 2157.333251953125,
      "zorder": 1,
      "gameobjects": [],
      "components": [
        {
          "__type": "ComParticleSystemSurrogate:#EditorCommon.JsonModel.Component",
          "classname": "CCParticleSystemQuad",
          "name": "CCParticleSystemQuad",
          "file": null,
          "fileData": {
            "path": "animation/texiao/particledesigner/xue1.plist",
            "plistFile": null,
            "resourceType": 0
          }
        }
      ]
    },
    {
      "__type": "ComGameObjectSurrogate:#EditorCommon.JsonModel",
      "classname": "CCNode",
      "name": "_Copy",
      "canedit": true,
      "objecttag": 10052,
      "rotation": 0,
      "scalex": 0.799999952,
      "scaley": 0.799999952,
      "visible": 1,
      "x": 1431.0006103515625,
      "y": 682.33367919921875,
      "zorder": 1,
      "gameobjects": [],
      "components": [
        {
          "__type": "ComParticleSystemSurrogate:#EditorCommon.JsonModel.Component",
          "classname": "CCParticleSystemQuad",
          "name": "CCParticleSystemQuad",
          "file": null,
          "fileData": {
            "path": "animation/texiao/particledesigner/xue1.plist",
            "plistFile": null,
            "resourceType": 0
          }
        }
      ]
    },
    {
      "__type": "ComGameObjectSurrogate:#EditorCommon.JsonModel",
      "classname": "CCNode",
      "name": "_Copy_Copy",
      "canedit": true,
      "objecttag": 10053,
      "rotation": 0,
      "scalex": 0.799999952,
      "scaley": 0.799999952,
      "visible": 1,
      "x": 2164.333740234375,
      "y": 2217.33349609375,
      "zorder": 1,
      "gameobjects": [],
      "components": [
        {
          "__type": "ComParticleSystemSurrogate:#EditorCommon.JsonModel.Component",
          "classname": "CCParticleSystemQuad",
          "name": "CCParticleSystemQuad",
          "file": null,
          "fileData": {
            "path": "animation/texiao/particledesigner/xue1.plist",
            "plistFile": null,
            "resourceType": 0
          }
        }
      ]
    },
    {
      "__type": "ComGameObjectSurrogate:#EditorCommon.JsonModel",
      "classname": "CCNode",
      "name": "_Copy_Copy",
      "canedit": true,
      "objecttag": 10054,
      "rotation": 0,
      "scalex": 0.799999952,
      "scaley": 0.799999952,
      "visible": 1,
      "x": 3362.667236328125,
      "y": 1552.3336181640625,
      "zorder": 1,
      "gameobjects": [],
      "components": [
        {
          "__type": "ComParticleSystemSurrogate:#EditorCommon.JsonModel.Component",
          "classname": "CCParticleSystemQuad",
          "name": "CCParticleSystemQuad",
          "file": null,
          "fileData": {
            "path": "animation/texiao/particledesigner/xue1.plist",
            "plistFile": null,
            "resourceType": 0
          }
        }
      ]
    },
    {
      "__type": "ComGameObjectSurrogate:#EditorCommon.JsonModel",
      "classname": "CCNode",
      "name": "_Copy_Copy",
      "canedit": true,
      "objecttag": 10055,
      "rotation": 0,
      "scalex": 0.799999952,
      "scaley": 0.799999952,
      "visible": 1,
      "x": 2942.667236328125,
      "y": 1315.6669921875,
      "zorder": 1,
      "gameobjects": [],
      "components": [
        {
          "__type": "ComParticleSystemSurrogate:#EditorCommon.JsonModel.Component",
          "classname": "CCParticleSystemQuad",
          "name": "CCParticleSystemQuad",
          "file": null,
          "fileData": {
            "path": "animation/texiao/particledesigner/xue1.plist",
            "plistFile": null,
            "resourceType": 0
          }
        }
      ]
    },
    {
      "__type": "ComGameObjectSurrogate:#EditorCommon.JsonModel",
      "classname": "CCNode",
      "name": "_Copy_Copy",
      "canedit": true,
      "objecttag": 10056,
      "rotation": 0,
      "scalex": 0.799999952,
      "scaley": 0.799999952,
      "visible": 1,
      "x": 2584.333984375,
      "y": 1064.0003662109375,
      "zorder": 1,
      "gameobjects": [],
      "components": [
        {
          "__type": "ComParticleSystemSurrogate:#EditorCommon.JsonModel.Component",
          "classname": "CCParticleSystemQuad",
          "name": "CCParticleSystemQuad",
          "file": null,
          "fileData": {
            "path": "animation/texiao/particledesigner/xue1.plist",
            "plistFile": null,
            "resourceType": 0
          }
        }
      ]
    },
    {
      "__type": "ComGameObjectSurrogate:#EditorCommon.JsonModel",
      "classname": "CCNode",
      "name": "_Copy_Copy",
      "canedit": true,
      "objecttag": 10057,
      "rotation": 0,
      "scalex": 0.6999999,
      "scaley": 0.7,
      "visible": 1,
      "x": 2044.78857421875,
      "y": 829.45489501953125,
      "zorder": 1,
      "gameobjects": [],
      "components": [
        {
          "__type": "ComParticleSystemSurrogate:#EditorCommon.JsonModel.Component",
          "classname": "CCParticleSystemQuad",
          "name": "CCParticleSystemQuad",
          "file": null,
          "fileData": {
            "path": "animation/texiao/particledesigner/xue1.plist",
            "plistFile": null,
            "resourceType": 0
          }
        }
      ]
    }
  ],
  "CanvasSize": {
    "_height": 2304,
    "_width": 3840
  },
  "Version": "1.1.0.0",
  "components": [
    {
      "__type": "ComSceneSurrogate:#EditorCommon.JsonModel.Component",
      "classname": "CCScene",
      "name": "CCScene",
      "scenename": "jzz"
    },
    {
      "__type": "ComSimpleAudioSurrogate:#EditorCommon.JsonModel.Component",
      "classname": "CCBackgroundAudio",
      "name": "CCBackgroundAudio",
      "file": null,
      "fileData": {
        "path": null,
        "plistFile": null,
        "resourceType": 0
      },
      "loop": 0
    }
  ]
}