^D:\3QANHHUNG\CLIENT\COCOS2D-X-2.2.0\COCOSDENSHION\WIN32\MCIPLAYER.CPP
D:\3QANHHUNG\CLIENT\COCOS2D-X-2.2.0\COCOSDENSHION\WIN32\MCIPLAYER.H
D:\3QANHHUNG\CLIENT\COCOS2D-X-2.2.0\COCOS2DX\PLATFORM\WIN32\CCSTDC.H
D:\3QANHHUNG\CLIENT\COCOS2D-X-2.2.0\COCOS2DX\PLATFORM\CCPLATFORMMACROS.H
D:\3QANHHUNG\CLIENT\COCOS2D-X-2.2.0\COCOS2DX\INCLUDE\CCCONFIG.H
D:\3QANHHUNG\CLIENT\COCOS2D-X-2.2.0\COCOS2DX\PLATFORM\CCPLATFORMCONFIG.H
D:\3QANHHUNG\CLIENT\COCOS2D-X-2.2.0\COCOS2DX\PLATFORM\WIN32\CCPLATFORMDEFINE.H
C:\PROGRAM FILES (X86)\MICROSOFT VISUAL STUDIO 11.0\VC\INCLUDE\ASSERT.H
C:\PROGRAM FILES (X86)\MICROSOFT VISUAL STUDIO 11.0\VC\INCLUDE\CRTDEFS.H
C:\PROGRAM FILES (X86)\MICROSOFT VISUAL STUDIO 11.0\VC\INCLUDE\SAL.H
C:\PROGRAM FILES (X86)\MICROSOFT VISUAL STUDIO 11.0\VC\INCLUDE\CONCURRENCYSAL.H
C:\PROGRAM FILES (X86)\MICROSOFT VISUAL STUDIO 11.0\VC\INCLUDE\VADEFS.H
C:\PROGRAM FILES (X86)\MICROSOFT VISUAL STUDIO 11.0\VC\INCLUDE\FLOAT.H
C:\PROGRAM FILES (X86)\MICROSOFT VISUAL STUDIO 11.0\VC\INCLUDE\CRTWRN.H
C:\PROGRAM FILES (X86)\MICROSOFT VISUAL STUDIO 11.0\VC\INCLUDE\MATH.H
C:\PROGRAM FILES (X86)\MICROSOFT VISUAL STUDIO 11.0\VC\INCLUDE\STRING.H
C:\PROGRAM FILES (X86)\MICROSOFT VISUAL STUDIO 11.0\VC\INCLUDE\STDARG.H
C:\PROGRAM FILES (X86)\MICROSOFT VISUAL STUDIO 11.0\VC\INCLUDE\STDIO.H
C:\PROGRAM FILES (X86)\MICROSOFT VISUAL STUDIO 11.0\VC\INCLUDE\SWPRINTF.INL
C:\PROGRAM FILES (X86)\MICROSOFT VISUAL STUDIO 11.0\VC\INCLUDE\STDLIB.H
C:\PROGRAM FILES (X86)\MICROSOFT VISUAL STUDIO 11.0\VC\INCLUDE\LIMITS.H
C:\PROGRAM FILES (X86)\MICROSOFT VISUAL STUDIO 11.0\VC\INCLUDE\TIME.H
C:\PROGRAM FILES (X86)\MICROSOFT VISUAL STUDIO 11.0\VC\INCLUDE\WTIME.INL
C:\PROGRAM FILES (X86)\MICROSOFT VISUAL STUDIO 11.0\VC\INCLUDE\TIME.INL
C:\PROGRAM FILES (X86)\MICROSOFT VISUAL STUDIO 11.0\VC\INCLUDE\STDINT.H
C:\PROGRAM FILES (X86)\WINDOWS KITS\8.0\INCLUDE\UM\WINDOWS.H
C:\PROGRAM FILES (X86)\WINDOWS KITS\8.0\INCLUDE\SHARED\WINAPIFAMILY.H
C:\PROGRAM FILES (X86)\WINDOWS KITS\8.0\INCLUDE\SHARED\SDKDDKVER.H
C:\PROGRAM FILES (X86)\MICROSOFT VISUAL STUDIO 11.0\VC\INCLUDE\EXCPT.H
C:\PROGRAM FILES (X86)\WINDOWS KITS\8.0\INCLUDE\SHARED\WINDEF.H
C:\PROGRAM FILES (X86)\WINDOWS KITS\8.0\INCLUDE\SHARED\MINWINDEF.H
C:\PROGRAM FILES (X86)\WINDOWS KITS\8.0\INCLUDE\SHARED\SPECSTRINGS.H
C:\PROGRAM FILES (X86)\WINDOWS KITS\8.0\INCLUDE\SHARED\SPECSTRINGS_STRICT.H
C:\PROGRAM FILES (X86)\WINDOWS KITS\8.0\INCLUDE\SHARED\SPECSTRINGS_UNDEF.H
C:\PROGRAM FILES (X86)\WINDOWS KITS\8.0\INCLUDE\SHARED\DRIVERSPECS.H
C:\PROGRAM FILES (X86)\WINDOWS KITS\8.0\INCLUDE\SHARED\SDV_DRIVERSPECS.H
C:\PROGRAM FILES (X86)\WINDOWS KITS\8.0\INCLUDE\UM\WINNT.H
C:\PROGRAM FILES (X86)\MICROSOFT VISUAL STUDIO 11.0\VC\INCLUDE\CTYPE.H
C:\PROGRAM FILES (X86)\WINDOWS KITS\8.0\INCLUDE\SHARED\KERNELSPECS.H
C:\PROGRAM FILES (X86)\WINDOWS KITS\8.0\INCLUDE\SHARED\BASETSD.H
C:\PROGRAM FILES (X86)\WINDOWS KITS\8.0\INCLUDE\SHARED\GUIDDEF.H
C:\PROGRAM FILES (X86)\WINDOWS KITS\8.0\INCLUDE\SHARED\PSHPACK4.H
C:\PROGRAM FILES (X86)\WINDOWS KITS\8.0\INCLUDE\SHARED\POPPACK.H
C:\PROGRAM FILES (X86)\WINDOWS KITS\8.0\INCLUDE\SHARED\PSHPACK2.H
C:\PROGRAM FILES (X86)\WINDOWS KITS\8.0\INCLUDE\SHARED\PSHPACK8.H
C:\PROGRAM FILES (X86)\WINDOWS KITS\8.0\INCLUDE\SHARED\APISET.H
C:\PROGRAM FILES (X86)\WINDOWS KITS\8.0\INCLUDE\SHARED\KTMTYPES.H
C:\PROGRAM FILES (X86)\WINDOWS KITS\8.0\INCLUDE\UM\WINBASE.H
C:\PROGRAM FILES (X86)\WINDOWS KITS\8.0\INCLUDE\SHARED\APISETCCONV.H
C:\PROGRAM FILES (X86)\WINDOWS KITS\8.0\INCLUDE\UM\MINWINBASE.H
C:\PROGRAM FILES (X86)\WINDOWS KITS\8.0\INCLUDE\UM\PROCESSENV.H
C:\PROGRAM FILES (X86)\WINDOWS KITS\8.0\INCLUDE\UM\FILEAPI.H
C:\PROGRAM FILES (X86)\WINDOWS KITS\8.0\INCLUDE\UM\DEBUGAPI.H
C:\PROGRAM FILES (X86)\WINDOWS KITS\8.0\INCLUDE\UM\UTILAPISET.H
C:\PROGRAM FILES (X86)\WINDOWS KITS\8.0\INCLUDE\UM\HANDLEAPI.H
C:\PROGRAM FILES (X86)\WINDOWS KITS\8.0\INCLUDE\UM\ERRHANDLINGAPI.H
C:\PROGRAM FILES (X86)\WINDOWS KITS\8.0\INCLUDE\UM\FIBERSAPI.H
C:\PROGRAM FILES (X86)\WINDOWS KITS\8.0\INCLUDE\UM\NAMEDPIPEAPI.H
C:\PROGRAM FILES (X86)\WINDOWS KITS\8.0\INCLUDE\UM\PROFILEAPI.H
C:\PROGRAM FILES (X86)\WINDOWS KITS\8.0\INCLUDE\UM\HEAPAPI.H
C:\PROGRAM FILES (X86)\WINDOWS KITS\8.0\INCLUDE\UM\IOAPISET.H
C:\PROGRAM FILES (X86)\WINDOWS KITS\8.0\INCLUDE\UM\SYNCHAPI.H
C:\PROGRAM FILES (X86)\WINDOWS KITS\8.0\INCLUDE\UM\INTERLOCKEDAPI.H
C:\PROGRAM FILES (X86)\WINDOWS KITS\8.0\INCLUDE\UM\PROCESSTHREADSAPI.H
C:\PROGRAM FILES (X86)\WINDOWS KITS\8.0\INCLUDE\UM\SYSINFOAPI.H
C:\PROGRAM FILES (X86)\WINDOWS KITS\8.0\INCLUDE\UM\MEMORYAPI.H
C:\PROGRAM FILES (X86)\WINDOWS KITS\8.0\INCLUDE\UM\THREADPOOLLEGACYAPISET.H
C:\PROGRAM FILES (X86)\WINDOWS KITS\8.0\INCLUDE\UM\THREADPOOLAPISET.H
C:\PROGRAM FILES (X86)\WINDOWS KITS\8.0\INCLUDE\UM\BEMAPISET.H
C:\PROGRAM FILES (X86)\WINDOWS KITS\8.0\INCLUDE\UM\JOBAPI.H
C:\PROGRAM FILES (X86)\WINDOWS KITS\8.0\INCLUDE\UM\WOW64APISET.H
C:\PROGRAM FILES (X86)\WINDOWS KITS\8.0\INCLUDE\UM\LIBLOADERAPI.H
C:\PROGRAM FILES (X86)\WINDOWS KITS\8.0\INCLUDE\UM\SECURITYBASEAPI.H
C:\PROGRAM FILES (X86)\WINDOWS KITS\8.0\INCLUDE\UM\NAMESPACEAPI.H
C:\PROGRAM FILES (X86)\WINDOWS KITS\8.0\INCLUDE\UM\SYSTEMTOPOLOGYAPI.H
C:\PROGRAM FILES (X86)\WINDOWS KITS\8.0\INCLUDE\UM\PROCESSTOPOLOGYAPI.H
C:\PROGRAM FILES (X86)\WINDOWS KITS\8.0\INCLUDE\UM\SECURITYAPPCONTAINER.H
C:\PROGRAM FILES (X86)\WINDOWS KITS\8.0\INCLUDE\UM\REALTIMEAPISET.H
C:\PROGRAM FILES (X86)\WINDOWS KITS\8.0\INCLUDE\SHARED\WINERROR.H
C:\PROGRAM FILES (X86)\WINDOWS KITS\8.0\INCLUDE\UM\TIMEZONEAPI.H
C:\PROGRAM FILES (X86)\WINDOWS KITS\8.0\INCLUDE\UM\WINGDI.H
C:\PROGRAM FILES (X86)\WINDOWS KITS\8.0\INCLUDE\SHARED\PSHPACK1.H
C:\PROGRAM FILES (X86)\WINDOWS KITS\8.0\INCLUDE\UM\WINUSER.H
C:\PROGRAM FILES (X86)\WINDOWS KITS\8.0\INCLUDE\SHARED\TVOUT.H
C:\PROGRAM FILES (X86)\WINDOWS KITS\8.0\INCLUDE\UM\WINNLS.H
C:\PROGRAM FILES (X86)\WINDOWS KITS\8.0\INCLUDE\UM\DATETIMEAPI.H
C:\PROGRAM FILES (X86)\WINDOWS KITS\8.0\INCLUDE\UM\STRINGAPISET.H
C:\PROGRAM FILES (X86)\WINDOWS KITS\8.0\INCLUDE\UM\WINCON.H
C:\PROGRAM FILES (X86)\WINDOWS KITS\8.0\INCLUDE\UM\CONSOLEAPI.H
C:\PROGRAM FILES (X86)\WINDOWS KITS\8.0\INCLUDE\UM\WINVER.H
C:\PROGRAM FILES (X86)\WINDOWS KITS\8.0\INCLUDE\UM\VERRSRC.H
C:\PROGRAM FILES (X86)\WINDOWS KITS\8.0\INCLUDE\UM\WINREG.H
C:\PROGRAM FILES (X86)\WINDOWS KITS\8.0\INCLUDE\UM\REASON.H
C:\PROGRAM FILES (X86)\WINDOWS KITS\8.0\INCLUDE\UM\WINNETWK.H
C:\PROGRAM FILES (X86)\WINDOWS KITS\8.0\INCLUDE\SHARED\WNNC.H
C:\PROGRAM FILES (X86)\WINDOWS KITS\8.0\INCLUDE\SHARED\CDERR.H
C:\PROGRAM FILES (X86)\WINDOWS KITS\8.0\INCLUDE\UM\DDE.H
C:\PROGRAM FILES (X86)\WINDOWS KITS\8.0\INCLUDE\UM\DDEML.H
C:\PROGRAM FILES (X86)\WINDOWS KITS\8.0\INCLUDE\UM\DLGS.H
C:\PROGRAM FILES (X86)\WINDOWS KITS\8.0\INCLUDE\UM\LZEXPAND.H
C:\PROGRAM FILES (X86)\WINDOWS KITS\8.0\INCLUDE\UM\MMSYSTEM.H
C:\PROGRAM FILES (X86)\WINDOWS KITS\8.0\INCLUDE\UM\MMSYSCOM.H
C:\PROGRAM FILES (X86)\WINDOWS KITS\8.0\INCLUDE\UM\MCIAPI.H
C:\PROGRAM FILES (X86)\WINDOWS KITS\8.0\INCLUDE\UM\MMISCAPI.H
C:\PROGRAM FILES (X86)\WINDOWS KITS\8.0\INCLUDE\UM\MMISCAPI2.H
C:\PROGRAM FILES (X86)\WINDOWS KITS\8.0\INCLUDE\UM\PLAYSOUNDAPI.H
C:\PROGRAM FILES (X86)\WINDOWS KITS\8.0\INCLUDE\UM\MMEAPI.H
C:\PROGRAM FILES (X86)\WINDOWS KITS\8.0\INCLUDE\UM\TIMEAPI.H
C:\PROGRAM FILES (X86)\WINDOWS KITS\8.0\INCLUDE\UM\JOYSTICKAPI.H
C:\PROGRAM FILES (X86)\WINDOWS KITS\8.0\INCLUDE\UM\NB30.H
C:\PROGRAM FILES (X86)\WINDOWS KITS\8.0\INCLUDE\SHARED\RPC.H
C:\PROGRAM FILES (X86)\WINDOWS KITS\8.0\INCLUDE\SHARED\RPCDCE.H
C:\PROGRAM FILES (X86)\WINDOWS KITS\8.0\INCLUDE\SHARED\RPCDCEP.H
C:\PROGRAM FILES (X86)\WINDOWS KITS\8.0\INCLUDE\UM\RPCNSI.H
C:\PROGRAM FILES (X86)\WINDOWS KITS\8.0\INCLUDE\SHARED\RPCNTERR.H
C:\PROGRAM FILES (X86)\WINDOWS KITS\8.0\INCLUDE\SHARED\RPCASYNC.H
C:\PROGRAM FILES (X86)\WINDOWS KITS\8.0\INCLUDE\UM\SHELLAPI.H
C:\PROGRAM FILES (X86)\WINDOWS KITS\8.0\INCLUDE\UM\WINPERF.H
C:\PROGRAM FILES (X86)\WINDOWS KITS\8.0\INCLUDE\UM\WINSOCK.H
C:\PROGRAM FILES (X86)\WINDOWS KITS\8.0\INCLUDE\UM\WINCRYPT.H
C:\PROGRAM FILES (X86)\WINDOWS KITS\8.0\INCLUDE\SHARED\BCRYPT.H
C:\PROGRAM FILES (X86)\WINDOWS KITS\8.0\INCLUDE\UM\NCRYPT.H
C:\PROGRAM FILES (X86)\WINDOWS KITS\8.0\INCLUDE\UM\DPAPI.H
C:\PROGRAM FILES (X86)\WINDOWS KITS\8.0\INCLUDE\UM\WINEFS.H
C:\PROGRAM FILES (X86)\WINDOWS KITS\8.0\INCLUDE\UM\WINSCARD.H
C:\PROGRAM FILES (X86)\WINDOWS KITS\8.0\INCLUDE\SHARED\WTYPES.H
C:\PROGRAM FILES (X86)\WINDOWS KITS\8.0\INCLUDE\SHARED\RPCNDR.H
C:\PROGRAM FILES (X86)\WINDOWS KITS\8.0\INCLUDE\UM\RPCNSIP.H
C:\PROGRAM FILES (X86)\WINDOWS KITS\8.0\INCLUDE\SHARED\RPCSAL.H
C:\PROGRAM FILES (X86)\WINDOWS KITS\8.0\INCLUDE\SHARED\WTYPESBASE.H
C:\PROGRAM FILES (X86)\WINDOWS KITS\8.0\INCLUDE\UM\WINIOCTL.H
C:\PROGRAM FILES (X86)\WINDOWS KITS\8.0\INCLUDE\SHARED\WINSMCRD.H
C:\PROGRAM FILES (X86)\WINDOWS KITS\8.0\INCLUDE\UM\WINSPOOL.H
C:\PROGRAM FILES (X86)\WINDOWS KITS\8.0\INCLUDE\UM\PRSHT.H
C:\PROGRAM FILES (X86)\WINDOWS KITS\8.0\INCLUDE\UM\OLE2.H
C:\PROGRAM FILES (X86)\WINDOWS KITS\8.0\INCLUDE\UM\OBJBASE.H
C:\PROGRAM FILES (X86)\WINDOWS KITS\8.0\INCLUDE\UM\COMBASEAPI.H
C:\PROGRAM FILES (X86)\WINDOWS KITS\8.0\INCLUDE\UM\UNKNWNBASE.H
C:\PROGRAM FILES (X86)\WINDOWS KITS\8.0\INCLUDE\UM\OBJIDLBASE.H
C:\PROGRAM FILES (X86)\WINDOWS KITS\8.0\INCLUDE\UM\CGUID.H
C:\PROGRAM FILES (X86)\WINDOWS KITS\8.0\INCLUDE\UM\OBJIDL.H
C:\PROGRAM FILES (X86)\WINDOWS KITS\8.0\INCLUDE\UM\UNKNWN.H
C:\PROGRAM FILES (X86)\WINDOWS KITS\8.0\INCLUDE\UM\URLMON.H
C:\PROGRAM FILES (X86)\WINDOWS KITS\8.0\INCLUDE\UM\OLEIDL.H
C:\PROGRAM FILES (X86)\WINDOWS KITS\8.0\INCLUDE\UM\SERVPROV.H
C:\PROGRAM FILES (X86)\WINDOWS KITS\8.0\INCLUDE\UM\MSXML.H
C:\PROGRAM FILES (X86)\WINDOWS KITS\8.0\INCLUDE\UM\OAIDL.H
C:\PROGRAM FILES (X86)\WINDOWS KITS\8.0\INCLUDE\UM\PROPIDL.H
C:\PROGRAM FILES (X86)\WINDOWS KITS\8.0\INCLUDE\UM\OLEAUTO.H
C:\PROGRAM FILES (X86)\WINDOWS KITS\8.0\INCLUDE\UM\COMMDLG.H
C:\PROGRAM FILES (X86)\WINDOWS KITS\8.0\INCLUDE\SHARED\STRALIGN.H
C:\PROGRAM FILES (X86)\WINDOWS KITS\8.0\INCLUDE\UM\WINSVC.H
C:\PROGRAM FILES (X86)\WINDOWS KITS\8.0\INCLUDE\UM\MCX.H
C:\PROGRAM FILES (X86)\WINDOWS KITS\8.0\INCLUDE\UM\IMM.H
C:\PROGRAM FILES (X86)\WINDOWS KITS\8.0\INCLUDE\UM\IME_CMODES.H
C:\PROGRAM FILES (X86)\WINDOWS KITS\8.0\INCLUDE\UM\WINSOCK2.H
C:\PROGRAM FILES (X86)\WINDOWS KITS\8.0\INCLUDE\SHARED\WS2DEF.H
C:\PROGRAM FILES (X86)\WINDOWS KITS\8.0\INCLUDE\SHARED\INADDR.H
C:\PROGRAM FILES (X86)\WINDOWS KITS\8.0\INCLUDE\SHARED\QOS.H
^D:\3QANHHUNG\CLIENT\COCOS2D-X-2.2.0\COCOSDENSHION\WIN32\SIMPLEAUDIOENGINE.CPP
D:\3QANHHUNG\CLIENT\COCOS2D-X-2.2.0\COCOSDENSHION\INCLUDE\SIMPLEAUDIOENGINE.H
C:\PROGRAM FILES (X86)\MICROSOFT VISUAL STUDIO 11.0\VC\INCLUDE\STDDEF.H
C:\PROGRAM FILES (X86)\MICROSOFT VISUAL STUDIO 11.0\VC\INCLUDE\CRTDEFS.H
C:\PROGRAM FILES (X86)\MICROSOFT VISUAL STUDIO 11.0\VC\INCLUDE\SAL.H
C:\PROGRAM FILES (X86)\MICROSOFT VISUAL STUDIO 11.0\VC\INCLUDE\CONCURRENCYSAL.H
C:\PROGRAM FILES (X86)\MICROSOFT VISUAL STUDIO 11.0\VC\INCLUDE\VADEFS.H
D:\3QANHHUNG\CLIENT\COCOS2D-X-2.2.0\COCOSDENSHION\INCLUDE\EXPORT.H
C:\PROGRAM FILES (X86)\MICROSOFT VISUAL STUDIO 11.0\VC\INCLUDE\TYPEINFO
C:\PROGRAM FILES (X86)\MICROSOFT VISUAL STUDIO 11.0\VC\INCLUDE\XSTDDEF
C:\PROGRAM FILES (X86)\MICROSOFT VISUAL STUDIO 11.0\VC\INCLUDE\YVALS.H
C:\PROGRAM FILES (X86)\MICROSOFT VISUAL STUDIO 11.0\VC\INCLUDE\XKEYCHECK.H
C:\PROGRAM FILES (X86)\MICROSOFT VISUAL STUDIO 11.0\VC\INCLUDE\USE_ANSI.H
C:\PROGRAM FILES (X86)\MICROSOFT VISUAL STUDIO 11.0\VC\INCLUDE\XTR1COMMON
C:\PROGRAM FILES (X86)\MICROSOFT VISUAL STUDIO 11.0\VC\INCLUDE\STDLIB.H
C:\PROGRAM FILES (X86)\MICROSOFT VISUAL STUDIO 11.0\VC\INCLUDE\LIMITS.H
C:\PROGRAM FILES (X86)\MICROSOFT VISUAL STUDIO 11.0\VC\INCLUDE\CSTDDEF
C:\PROGRAM FILES (X86)\MICROSOFT VISUAL STUDIO 11.0\VC\INCLUDE\STRING.H
C:\PROGRAM FILES (X86)\MICROSOFT VISUAL STUDIO 11.0\VC\INCLUDE\EXCEPTION
C:\PROGRAM FILES (X86)\MICROSOFT VISUAL STUDIO 11.0\VC\INCLUDE\EH.H
C:\PROGRAM FILES (X86)\MICROSOFT VISUAL STUDIO 11.0\VC\INCLUDE\MALLOC.H
C:\PROGRAM FILES (X86)\MICROSOFT VISUAL STUDIO 11.0\VC\INCLUDE\CTYPE.H
C:\PROGRAM FILES (X86)\MICROSOFT VISUAL STUDIO 11.0\VC\INCLUDE\MAP
C:\PROGRAM FILES (X86)\MICROSOFT VISUAL STUDIO 11.0\VC\INCLUDE\XTREE
C:\PROGRAM FILES (X86)\MICROSOFT VISUAL STUDIO 11.0\VC\INCLUDE\XMEMORY
C:\PROGRAM FILES (X86)\MICROSOFT VISUAL STUDIO 11.0\VC\INCLUDE\XMEMORY0
C:\PROGRAM FILES (X86)\MICROSOFT VISUAL STUDIO 11.0\VC\INCLUDE\CSTDLIB
C:\PROGRAM FILES (X86)\MICROSOFT VISUAL STUDIO 11.0\VC\INCLUDE\LIMITS
C:\PROGRAM FILES (X86)\MICROSOFT VISUAL STUDIO 11.0\VC\INCLUDE\YMATH.H
C:\PROGRAM FILES (X86)\MICROSOFT VISUAL STUDIO 11.0\VC\INCLUDE\CFLOAT
C:\PROGRAM FILES (X86)\MICROSOFT VISUAL STUDIO 11.0\VC\INCLUDE\FLOAT.H
C:\PROGRAM FILES (X86)\MICROSOFT VISUAL STUDIO 11.0\VC\INCLUDE\CRTWRN.H
C:\PROGRAM FILES (X86)\MICROSOFT VISUAL STUDIO 11.0\VC\INCLUDE\CLIMITS
C:\PROGRAM FILES (X86)\MICROSOFT VISUAL STUDIO 11.0\VC\INCLUDE\CMATH
C:\PROGRAM FILES (X86)\MICROSOFT VISUAL STUDIO 11.0\VC\INCLUDE\MATH.H
C:\PROGRAM FILES (X86)\MICROSOFT VISUAL STUDIO 11.0\VC\INCLUDE\XTGMATH.H
C:\PROGRAM FILES (X86)\MICROSOFT VISUAL STUDIO 11.0\VC\INCLUDE\CWCHAR
C:\PROGRAM FILES (X86)\MICROSOFT VISUAL STUDIO 11.0\VC\INCLUDE\WCHAR.H
C:\PROGRAM FILES (X86)\MICROSOFT VISUAL STUDIO 11.0\VC\INCLUDE\SWPRINTF.INL
C:\PROGRAM FILES (X86)\MICROSOFT VISUAL STUDIO 11.0\VC\INCLUDE\WTIME.INL
C:\PROGRAM FILES (X86)\MICROSOFT VISUAL STUDIO 11.0\VC\INCLUDE\NEW
C:\PROGRAM FILES (X86)\MICROSOFT VISUAL STUDIO 11.0\VC\INCLUDE\XUTILITY
C:\PROGRAM FILES (X86)\MICROSOFT VISUAL STUDIO 11.0\VC\INCLUDE\UTILITY
C:\PROGRAM FILES (X86)\MICROSOFT VISUAL STUDIO 11.0\VC\INCLUDE\IOSFWD
C:\PROGRAM FILES (X86)\MICROSOFT VISUAL STUDIO 11.0\VC\INCLUDE\CSTDIO
C:\PROGRAM FILES (X86)\MICROSOFT VISUAL STUDIO 11.0\VC\INCLUDE\STDIO.H
C:\PROGRAM FILES (X86)\MICROSOFT VISUAL STUDIO 11.0\VC\INCLUDE\CSTRING
C:\PROGRAM FILES (X86)\MICROSOFT VISUAL STUDIO 11.0\VC\INCLUDE\CRTDBG.H
C:\PROGRAM FILES (X86)\MICROSOFT VISUAL STUDIO 11.0\VC\INCLUDE\TYPE_TRAITS
C:\PROGRAM FILES (X86)\MICROSOFT VISUAL STUDIO 11.0\VC\INCLUDE\XREFWRAP
C:\PROGRAM FILES (X86)\MICROSOFT VISUAL STUDIO 11.0\VC\INCLUDE\XATOMIC0.H
C:\PROGRAM FILES (X86)\MICROSOFT VISUAL STUDIO 11.0\VC\INCLUDE\INTRIN.H
C:\PROGRAM FILES (X86)\MICROSOFT VISUAL STUDIO 11.0\VC\INCLUDE\SETJMP.H
C:\PROGRAM FILES (X86)\MICROSOFT VISUAL STUDIO 11.0\VC\INCLUDE\IMMINTRIN.H
C:\PROGRAM FILES (X86)\MICROSOFT VISUAL STUDIO 11.0\VC\INCLUDE\WMMINTRIN.H
C:\PROGRAM FILES (X86)\MICROSOFT VISUAL STUDIO 11.0\VC\INCLUDE\NMMINTRIN.H
C:\PROGRAM FILES (X86)\MICROSOFT VISUAL STUDIO 11.0\VC\INCLUDE\SMMINTRIN.H
C:\PROGRAM FILES (X86)\MICROSOFT VISUAL STUDIO 11.0\VC\INCLUDE\TMMINTRIN.H
C:\PROGRAM FILES (X86)\MICROSOFT VISUAL STUDIO 11.0\VC\INCLUDE\PMMINTRIN.H
C:\PROGRAM FILES (X86)\MICROSOFT VISUAL STUDIO 11.0\VC\INCLUDE\EMMINTRIN.H
C:\PROGRAM FILES (X86)\MICROSOFT VISUAL STUDIO 11.0\VC\INCLUDE\XMMINTRIN.H
C:\PROGRAM FILES (X86)\MICROSOFT VISUAL STUDIO 11.0\VC\INCLUDE\MMINTRIN.H
C:\PROGRAM FILES (X86)\MICROSOFT VISUAL STUDIO 11.0\VC\INCLUDE\AMMINTRIN.H
C:\PROGRAM FILES (X86)\MICROSOFT VISUAL STUDIO 11.0\VC\INCLUDE\MM3DNOW.H
C:\PROGRAM FILES (X86)\MICROSOFT VISUAL STUDIO 11.0\VC\INCLUDE\STDEXCEPT
C:\PROGRAM FILES (X86)\MICROSOFT VISUAL STUDIO 11.0\VC\INCLUDE\XSTRING
D:\3QANHHUNG\CLIENT\COCOS2D-X-2.2.0\COCOSDENSHION\WIN32\MCIPLAYER.H
D:\3QANHHUNG\CLIENT\COCOS2D-X-2.2.0\COCOS2DX\PLATFORM\WIN32\CCSTDC.H
D:\3QANHHUNG\CLIENT\COCOS2D-X-2.2.0\COCOS2DX\PLATFORM\CCPLATFORMMACROS.H
D:\3QANHHUNG\CLIENT\COCOS2D-X-2.2.0\COCOS2DX\INCLUDE\CCCONFIG.H
D:\3QANHHUNG\CLIENT\COCOS2D-X-2.2.0\COCOS2DX\PLATFORM\CCPLATFORMCONFIG.H
D:\3QANHHUNG\CLIENT\COCOS2D-X-2.2.0\COCOS2DX\PLATFORM\WIN32\CCPLATFORMDEFINE.H
C:\PROGRAM FILES (X86)\MICROSOFT VISUAL STUDIO 11.0\VC\INCLUDE\ASSERT.H
C:\PROGRAM FILES (X86)\MICROSOFT VISUAL STUDIO 11.0\VC\INCLUDE\STDARG.H
C:\PROGRAM FILES (X86)\MICROSOFT VISUAL STUDIO 11.0\VC\INCLUDE\TIME.H
C:\PROGRAM FILES (X86)\MICROSOFT VISUAL STUDIO 11.0\VC\INCLUDE\TIME.INL
C:\PROGRAM FILES (X86)\MICROSOFT VISUAL STUDIO 11.0\VC\INCLUDE\STDINT.H
C:\PROGRAM FILES (X86)\WINDOWS KITS\8.0\INCLUDE\UM\WINDOWS.H
C:\PROGRAM FILES (X86)\WINDOWS KITS\8.0\INCLUDE\SHARED\WINAPIFAMILY.H
C:\PROGRAM FILES (X86)\WINDOWS KITS\8.0\INCLUDE\SHARED\SDKDDKVER.H
C:\PROGRAM FILES (X86)\MICROSOFT VISUAL STUDIO 11.0\VC\INCLUDE\EXCPT.H
C:\PROGRAM FILES (X86)\WINDOWS KITS\8.0\INCLUDE\SHARED\WINDEF.H
C:\PROGRAM FILES (X86)\WINDOWS KITS\8.0\INCLUDE\SHARED\MINWINDEF.H
C:\PROGRAM FILES (X86)\WINDOWS KITS\8.0\INCLUDE\SHARED\SPECSTRINGS.H
C:\PROGRAM FILES (X86)\WINDOWS KITS\8.0\INCLUDE\SHARED\SPECSTRINGS_STRICT.H
C:\PROGRAM FILES (X86)\WINDOWS KITS\8.0\INCLUDE\SHARED\SPECSTRINGS_UNDEF.H
C:\PROGRAM FILES (X86)\WINDOWS KITS\8.0\INCLUDE\SHARED\DRIVERSPECS.H
C:\PROGRAM FILES (X86)\WINDOWS KITS\8.0\INCLUDE\SHARED\SDV_DRIVERSPECS.H
C:\PROGRAM FILES (X86)\WINDOWS KITS\8.0\INCLUDE\UM\WINNT.H
C:\PROGRAM FILES (X86)\WINDOWS KITS\8.0\INCLUDE\SHARED\KERNELSPECS.H
C:\PROGRAM FILES (X86)\WINDOWS KITS\8.0\INCLUDE\SHARED\BASETSD.H
C:\PROGRAM FILES (X86)\WINDOWS KITS\8.0\INCLUDE\SHARED\GUIDDEF.H
C:\PROGRAM FILES (X86)\WINDOWS KITS\8.0\INCLUDE\SHARED\PSHPACK4.H
C:\PROGRAM FILES (X86)\WINDOWS KITS\8.0\INCLUDE\SHARED\POPPACK.H
C:\PROGRAM FILES (X86)\WINDOWS KITS\8.0\INCLUDE\SHARED\PSHPACK2.H
C:\PROGRAM FILES (X86)\WINDOWS KITS\8.0\INCLUDE\SHARED\PSHPACK8.H
C:\PROGRAM FILES (X86)\WINDOWS KITS\8.0\INCLUDE\SHARED\APISET.H
C:\PROGRAM FILES (X86)\WINDOWS KITS\8.0\INCLUDE\SHARED\KTMTYPES.H
C:\PROGRAM FILES (X86)\WINDOWS KITS\8.0\INCLUDE\UM\WINBASE.H
C:\PROGRAM FILES (X86)\WINDOWS KITS\8.0\INCLUDE\SHARED\APISETCCONV.H
C:\PROGRAM FILES (X86)\WINDOWS KITS\8.0\INCLUDE\UM\MINWINBASE.H
C:\PROGRAM FILES (X86)\WINDOWS KITS\8.0\INCLUDE\UM\PROCESSENV.H
C:\PROGRAM FILES (X86)\WINDOWS KITS\8.0\INCLUDE\UM\FILEAPI.H
C:\PROGRAM FILES (X86)\WINDOWS KITS\8.0\INCLUDE\UM\DEBUGAPI.H
C:\PROGRAM FILES (X86)\WINDOWS KITS\8.0\INCLUDE\UM\UTILAPISET.H
C:\PROGRAM FILES (X86)\WINDOWS KITS\8.0\INCLUDE\UM\HANDLEAPI.H
C:\PROGRAM FILES (X86)\WINDOWS KITS\8.0\INCLUDE\UM\ERRHANDLINGAPI.H
C:\PROGRAM FILES (X86)\WINDOWS KITS\8.0\INCLUDE\UM\FIBERSAPI.H
C:\PROGRAM FILES (X86)\WINDOWS KITS\8.0\INCLUDE\UM\NAMEDPIPEAPI.H
C:\PROGRAM FILES (X86)\WINDOWS KITS\8.0\INCLUDE\UM\PROFILEAPI.H
C:\PROGRAM FILES (X86)\WINDOWS KITS\8.0\INCLUDE\UM\HEAPAPI.H
C:\PROGRAM FILES (X86)\WINDOWS KITS\8.0\INCLUDE\UM\IOAPISET.H
C:\PROGRAM FILES (X86)\WINDOWS KITS\8.0\INCLUDE\UM\SYNCHAPI.H
C:\PROGRAM FILES (X86)\WINDOWS KITS\8.0\INCLUDE\UM\INTERLOCKEDAPI.H
C:\PROGRAM FILES (X86)\WINDOWS KITS\8.0\INCLUDE\UM\PROCESSTHREADSAPI.H
C:\PROGRAM FILES (X86)\WINDOWS KITS\8.0\INCLUDE\UM\SYSINFOAPI.H
C:\PROGRAM FILES (X86)\WINDOWS KITS\8.0\INCLUDE\UM\MEMORYAPI.H
C:\PROGRAM FILES (X86)\WINDOWS KITS\8.0\INCLUDE\UM\THREADPOOLLEGACYAPISET.H
C:\PROGRAM FILES (X86)\WINDOWS KITS\8.0\INCLUDE\UM\THREADPOOLAPISET.H
C:\PROGRAM FILES (X86)\WINDOWS KITS\8.0\INCLUDE\UM\BEMAPISET.H
C:\PROGRAM FILES (X86)\WINDOWS KITS\8.0\INCLUDE\UM\JOBAPI.H
C:\PROGRAM FILES (X86)\WINDOWS KITS\8.0\INCLUDE\UM\WOW64APISET.H
C:\PROGRAM FILES (X86)\WINDOWS KITS\8.0\INCLUDE\UM\LIBLOADERAPI.H
C:\PROGRAM FILES (X86)\WINDOWS KITS\8.0\INCLUDE\UM\SECURITYBASEAPI.H
C:\PROGRAM FILES (X86)\WINDOWS KITS\8.0\INCLUDE\UM\NAMESPACEAPI.H
C:\PROGRAM FILES (X86)\WINDOWS KITS\8.0\INCLUDE\UM\SYSTEMTOPOLOGYAPI.H
C:\PROGRAM FILES (X86)\WINDOWS KITS\8.0\INCLUDE\UM\PROCESSTOPOLOGYAPI.H
C:\PROGRAM FILES (X86)\WINDOWS KITS\8.0\INCLUDE\UM\SECURITYAPPCONTAINER.H
C:\PROGRAM FILES (X86)\WINDOWS KITS\8.0\INCLUDE\UM\REALTIMEAPISET.H
C:\PROGRAM FILES (X86)\WINDOWS KITS\8.0\INCLUDE\SHARED\WINERROR.H
C:\PROGRAM FILES (X86)\WINDOWS KITS\8.0\INCLUDE\UM\TIMEZONEAPI.H
C:\PROGRAM FILES (X86)\WINDOWS KITS\8.0\INCLUDE\UM\WINGDI.H
C:\PROGRAM FILES (X86)\WINDOWS KITS\8.0\INCLUDE\SHARED\PSHPACK1.H
C:\PROGRAM FILES (X86)\WINDOWS KITS\8.0\INCLUDE\UM\WINUSER.H
C:\PROGRAM FILES (X86)\WINDOWS KITS\8.0\INCLUDE\SHARED\TVOUT.H
C:\PROGRAM FILES (X86)\WINDOWS KITS\8.0\INCLUDE\UM\WINNLS.H
C:\PROGRAM FILES (X86)\WINDOWS KITS\8.0\INCLUDE\UM\DATETIMEAPI.H
C:\PROGRAM FILES (X86)\WINDOWS KITS\8.0\INCLUDE\UM\STRINGAPISET.H
C:\PROGRAM FILES (X86)\WINDOWS KITS\8.0\INCLUDE\UM\WINCON.H
C:\PROGRAM FILES (X86)\WINDOWS KITS\8.0\INCLUDE\UM\CONSOLEAPI.H
C:\PROGRAM FILES (X86)\WINDOWS KITS\8.0\INCLUDE\UM\WINVER.H
C:\PROGRAM FILES (X86)\WINDOWS KITS\8.0\INCLUDE\UM\VERRSRC.H
C:\PROGRAM FILES (X86)\WINDOWS KITS\8.0\INCLUDE\UM\WINREG.H
C:\PROGRAM FILES (X86)\WINDOWS KITS\8.0\INCLUDE\UM\REASON.H
C:\PROGRAM FILES (X86)\WINDOWS KITS\8.0\INCLUDE\UM\WINNETWK.H
C:\PROGRAM FILES (X86)\WINDOWS KITS\8.0\INCLUDE\SHARED\WNNC.H
C:\PROGRAM FILES (X86)\WINDOWS KITS\8.0\INCLUDE\SHARED\CDERR.H
C:\PROGRAM FILES (X86)\WINDOWS KITS\8.0\INCLUDE\UM\DDE.H
C:\PROGRAM FILES (X86)\WINDOWS KITS\8.0\INCLUDE\UM\DDEML.H
C:\PROGRAM FILES (X86)\WINDOWS KITS\8.0\INCLUDE\UM\DLGS.H
C:\PROGRAM FILES (X86)\WINDOWS KITS\8.0\INCLUDE\UM\LZEXPAND.H
C:\PROGRAM FILES (X86)\WINDOWS KITS\8.0\INCLUDE\UM\MMSYSTEM.H
C:\PROGRAM FILES (X86)\WINDOWS KITS\8.0\INCLUDE\UM\MMSYSCOM.H
C:\PROGRAM FILES (X86)\WINDOWS KITS\8.0\INCLUDE\UM\MCIAPI.H
C:\PROGRAM FILES (X86)\WINDOWS KITS\8.0\INCLUDE\UM\MMISCAPI.H
C:\PROGRAM FILES (X86)\WINDOWS KITS\8.0\INCLUDE\UM\MMISCAPI2.H
C:\PROGRAM FILES (X86)\WINDOWS KITS\8.0\INCLUDE\UM\PLAYSOUNDAPI.H
C:\PROGRAM FILES (X86)\WINDOWS KITS\8.0\INCLUDE\UM\MMEAPI.H
C:\PROGRAM FILES (X86)\WINDOWS KITS\8.0\INCLUDE\UM\TIMEAPI.H
C:\PROGRAM FILES (X86)\WINDOWS KITS\8.0\INCLUDE\UM\JOYSTICKAPI.H
C:\PROGRAM FILES (X86)\WINDOWS KITS\8.0\INCLUDE\UM\NB30.H
C:\PROGRAM FILES (X86)\WINDOWS KITS\8.0\INCLUDE\SHARED\RPC.H
C:\PROGRAM FILES (X86)\WINDOWS KITS\8.0\INCLUDE\SHARED\RPCDCE.H
C:\PROGRAM FILES (X86)\WINDOWS KITS\8.0\INCLUDE\SHARED\RPCDCEP.H
C:\PROGRAM FILES (X86)\WINDOWS KITS\8.0\INCLUDE\UM\RPCNSI.H
C:\PROGRAM FILES (X86)\WINDOWS KITS\8.0\INCLUDE\SHARED\RPCNTERR.H
C:\PROGRAM FILES (X86)\WINDOWS KITS\8.0\INCLUDE\SHARED\RPCASYNC.H
C:\PROGRAM FILES (X86)\WINDOWS KITS\8.0\INCLUDE\UM\SHELLAPI.H
C:\PROGRAM FILES (X86)\WINDOWS KITS\8.0\INCLUDE\UM\WINPERF.H
C:\PROGRAM FILES (X86)\WINDOWS KITS\8.0\INCLUDE\UM\WINSOCK.H
C:\PROGRAM FILES (X86)\WINDOWS KITS\8.0\INCLUDE\UM\WINCRYPT.H
C:\PROGRAM FILES (X86)\WINDOWS KITS\8.0\INCLUDE\SHARED\BCRYPT.H
C:\PROGRAM FILES (X86)\WINDOWS KITS\8.0\INCLUDE\UM\NCRYPT.H
C:\PROGRAM FILES (X86)\WINDOWS KITS\8.0\INCLUDE\UM\DPAPI.H
C:\PROGRAM FILES (X86)\WINDOWS KITS\8.0\INCLUDE\UM\WINEFS.H
C:\PROGRAM FILES (X86)\WINDOWS KITS\8.0\INCLUDE\UM\WINSCARD.H
C:\PROGRAM FILES (X86)\WINDOWS KITS\8.0\INCLUDE\SHARED\WTYPES.H
C:\PROGRAM FILES (X86)\WINDOWS KITS\8.0\INCLUDE\SHARED\RPCNDR.H
C:\PROGRAM FILES (X86)\WINDOWS KITS\8.0\INCLUDE\UM\RPCNSIP.H
C:\PROGRAM FILES (X86)\WINDOWS KITS\8.0\INCLUDE\SHARED\RPCSAL.H
C:\PROGRAM FILES (X86)\WINDOWS KITS\8.0\INCLUDE\SHARED\WTYPESBASE.H
C:\PROGRAM FILES (X86)\WINDOWS KITS\8.0\INCLUDE\UM\WINIOCTL.H
C:\PROGRAM FILES (X86)\WINDOWS KITS\8.0\INCLUDE\SHARED\WINSMCRD.H
C:\PROGRAM FILES (X86)\WINDOWS KITS\8.0\INCLUDE\UM\WINSPOOL.H
C:\PROGRAM FILES (X86)\WINDOWS KITS\8.0\INCLUDE\UM\PRSHT.H
C:\PROGRAM FILES (X86)\WINDOWS KITS\8.0\INCLUDE\UM\OLE2.H
C:\PROGRAM FILES (X86)\WINDOWS KITS\8.0\INCLUDE\UM\OBJBASE.H
C:\PROGRAM FILES (X86)\WINDOWS KITS\8.0\INCLUDE\UM\COMBASEAPI.H
C:\PROGRAM FILES (X86)\WINDOWS KITS\8.0\INCLUDE\UM\UNKNWNBASE.H
C:\PROGRAM FILES (X86)\WINDOWS KITS\8.0\INCLUDE\UM\OBJIDLBASE.H
C:\PROGRAM FILES (X86)\WINDOWS KITS\8.0\INCLUDE\UM\CGUID.H
C:\PROGRAM FILES (X86)\WINDOWS KITS\8.0\INCLUDE\UM\OBJIDL.H
C:\PROGRAM FILES (X86)\WINDOWS KITS\8.0\INCLUDE\UM\UNKNWN.H
C:\PROGRAM FILES (X86)\WINDOWS KITS\8.0\INCLUDE\UM\URLMON.H
C:\PROGRAM FILES (X86)\WINDOWS KITS\8.0\INCLUDE\UM\OLEIDL.H
C:\PROGRAM FILES (X86)\WINDOWS KITS\8.0\INCLUDE\UM\SERVPROV.H
C:\PROGRAM FILES (X86)\WINDOWS KITS\8.0\INCLUDE\UM\MSXML.H
C:\PROGRAM FILES (X86)\WINDOWS KITS\8.0\INCLUDE\UM\OAIDL.H
C:\PROGRAM FILES (X86)\WINDOWS KITS\8.0\INCLUDE\UM\PROPIDL.H
C:\PROGRAM FILES (X86)\WINDOWS KITS\8.0\INCLUDE\UM\OLEAUTO.H
C:\PROGRAM FILES (X86)\WINDOWS KITS\8.0\INCLUDE\UM\COMMDLG.H
C:\PROGRAM FILES (X86)\WINDOWS KITS\8.0\INCLUDE\SHARED\STRALIGN.H
C:\PROGRAM FILES (X86)\WINDOWS KITS\8.0\INCLUDE\UM\WINSVC.H
C:\PROGRAM FILES (X86)\WINDOWS KITS\8.0\INCLUDE\UM\MCX.H
C:\PROGRAM FILES (X86)\WINDOWS KITS\8.0\INCLUDE\UM\IMM.H
C:\PROGRAM FILES (X86)\WINDOWS KITS\8.0\INCLUDE\UM\IME_CMODES.H
C:\PROGRAM FILES (X86)\WINDOWS KITS\8.0\INCLUDE\UM\WINSOCK2.H
C:\PROGRAM FILES (X86)\WINDOWS KITS\8.0\INCLUDE\SHARED\WS2DEF.H
C:\PROGRAM FILES (X86)\WINDOWS KITS\8.0\INCLUDE\SHARED\INADDR.H
C:\PROGRAM FILES (X86)\WINDOWS KITS\8.0\INCLUDE\SHARED\QOS.H
D:\3QANHHUNG\CLIENT\COCOS2D-X-2.2.0\COCOS2DX\INCLUDE\COCOS2D.H
D:\3QANHHUNG\CLIENT\COCOS2D-X-2.2.0\COCOS2DX\ACTIONS\CCACTION.H
D:\3QANHHUNG\CLIENT\COCOS2D-X-2.2.0\COCOS2DX\COCOA\CCOBJECT.H
D:\3QANHHUNG\CLIENT\COCOS2D-X-2.2.0\COCOS2DX\COCOA\CCDATAVISITOR.H
C:\PROGRAM FILES (X86)\MICROSOFT VISUAL STUDIO 11.0\VC\INCLUDE\STRING
C:\PROGRAM FILES (X86)\MICROSOFT VISUAL STUDIO 11.0\VC\INCLUDE\ITERATOR
C:\PROGRAM FILES (X86)\MICROSOFT VISUAL STUDIO 11.0\VC\INCLUDE\ISTREAM
C:\PROGRAM FILES (X86)\MICROSOFT VISUAL STUDIO 11.0\VC\INCLUDE\OSTREAM
C:\PROGRAM FILES (X86)\MICROSOFT VISUAL STUDIO 11.0\VC\INCLUDE\IOS
C:\PROGRAM FILES (X86)\MICROSOFT VISUAL STUDIO 11.0\VC\INCLUDE\XLOCNUM
C:\PROGRAM FILES (X86)\MICROSOFT VISUAL STUDIO 11.0\VC\INCLUDE\STREAMBUF
C:\PROGRAM FILES (X86)\MICROSOFT VISUAL STUDIO 11.0\VC\INCLUDE\XIOSBASE
C:\PROGRAM FILES (X86)\MICROSOFT VISUAL STUDIO 11.0\VC\INCLUDE\XLOCALE
C:\PROGRAM FILES (X86)\MICROSOFT VISUAL STUDIO 11.0\VC\INCLUDE\XLOCINFO
C:\PROGRAM FILES (X86)\MICROSOFT VISUAL STUDIO 11.0\VC\INCLUDE\XLOCINFO.H
C:\PROGRAM FILES (X86)\MICROSOFT VISUAL STUDIO 11.0\VC\INCLUDE\LOCALE.H
C:\PROGRAM FILES (X86)\MICROSOFT VISUAL STUDIO 11.0\VC\INCLUDE\XDEBUG
C:\PROGRAM FILES (X86)\MICROSOFT VISUAL STUDIO 11.0\VC\INCLUDE\XFACET
C:\PROGRAM FILES (X86)\MICROSOFT VISUAL STUDIO 11.0\VC\INCLUDE\SYSTEM_ERROR
C:\PROGRAM FILES (X86)\MICROSOFT VISUAL STUDIO 11.0\VC\INCLUDE\CERRNO
C:\PROGRAM FILES (X86)\MICROSOFT VISUAL STUDIO 11.0\VC\INCLUDE\ERRNO.H
C:\PROGRAM FILES (X86)\MICROSOFT VISUAL STUDIO 11.0\VC\INCLUDE\SHARE.H
D:\3QANHHUNG\CLIENT\COCOS2D-X-2.2.0\COCOS2DX\COCOA\CCGEOMETRY.H
D:\3QANHHUNG\CLIENT\COCOS2D-X-2.2.0\COCOS2DX\ACTIONS\CCACTIONINTERVAL.H
D:\3QANHHUNG\CLIENT\COCOS2D-X-2.2.0\COCOS2DX\BASE_NODES\CCNODE.H
D:\3QANHHUNG\CLIENT\COCOS2D-X-2.2.0\COCOS2DX\INCLUDE\CCMACROS.H
D:\3QANHHUNG\CLIENT\COCOS2D-X-2.2.0\COCOS2DX\PLATFORM\CCCOMMON.H
D:\3QANHHUNG\CLIENT\COCOS2D-X-2.2.0\COCOS2DX\COCOA\CCAFFINETRANSFORM.H
D:\3QANHHUNG\CLIENT\COCOS2D-X-2.2.0\COCOS2DX\COCOA\CCARRAY.H
D:\3QANHHUNG\CLIENT\COCOS2D-X-2.2.0\COCOS2DX\SUPPORT\DATA_SUPPORT\CCCARRAY.H
D:\3QANHHUNG\CLIENT\COCOS2D-X-2.2.0\COCOS2DX\PLATFORM\WIN32\CCGL.H
D:\3QANHHUNG\CLIENT\COCOS2D-X-2.2.0\COCOS2DX\PLATFORM\THIRD_PARTY\WIN32\OGLES\GL\GLEW.H
C:\PROGRAM FILES (X86)\WINDOWS KITS\8.0\INCLUDE\UM\GL\GLU.H
C:\PROGRAM FILES (X86)\WINDOWS KITS\8.0\INCLUDE\UM\GL\GL.H
D:\3QANHHUNG\CLIENT\COCOS2D-X-2.2.0\COCOS2DX\SHADERS\CCGLSTATECACHE.H
D:\3QANHHUNG\CLIENT\COCOS2D-X-2.2.0\COCOS2DX\SHADERS\CCGLPROGRAM.H
D:\3QANHHUNG\CLIENT\COCOS2D-X-2.2.0\COCOS2DX\KAZMATH\INCLUDE\KAZMATH\KAZMATH.H
D:\3QANHHUNG\CLIENT\COCOS2D-X-2.2.0\COCOS2DX\KAZMATH\INCLUDE\KAZMATH\VEC2.H
D:\3QANHHUNG\CLIENT\COCOS2D-X-2.2.0\COCOS2DX\KAZMATH\INCLUDE\KAZMATH\VEC3.H
D:\3QANHHUNG\CLIENT\COCOS2D-X-2.2.0\COCOS2DX\KAZMATH\INCLUDE\KAZMATH\MAT3.H
D:\3QANHHUNG\CLIENT\COCOS2D-X-2.2.0\COCOS2DX\KAZMATH\INCLUDE\KAZMATH\UTILITY.H
D:\3QANHHUNG\CLIENT\COCOS2D-X-2.2.0\COCOS2DX\KAZMATH\INCLUDE\KAZMATH\MAT4.H
D:\3QANHHUNG\CLIENT\COCOS2D-X-2.2.0\COCOS2DX\KAZMATH\INCLUDE\KAZMATH\QUATERNION.H
D:\3QANHHUNG\CLIENT\COCOS2D-X-2.2.0\COCOS2DX\KAZMATH\INCLUDE\KAZMATH\PLANE.H
D:\3QANHHUNG\CLIENT\COCOS2D-X-2.2.0\COCOS2DX\KAZMATH\INCLUDE\KAZMATH\AABB.H
D:\3QANHHUNG\CLIENT\COCOS2D-X-2.2.0\COCOS2DX\KAZMATH\INCLUDE\KAZMATH\RAY2.H
D:\3QANHHUNG\CLIENT\COCOS2D-X-2.2.0\COCOS2DX\SCRIPT_SUPPORT\CCSCRIPTSUPPORT.H
D:\3QANHHUNG\CLIENT\COCOS2D-X-2.2.0\COCOS2DX\PLATFORM\WIN32\CCACCELEROMETER.H
D:\3QANHHUNG\CLIENT\COCOS2D-X-2.2.0\COCOS2DX\PLATFORM\CCACCELEROMETERDELEGATE.H
D:\3QANHHUNG\CLIENT\COCOS2D-X-2.2.0\COCOS2DX\TOUCH_DISPATCHER\CCTOUCH.H
D:\3QANHHUNG\CLIENT\COCOS2D-X-2.2.0\COCOS2DX\COCOA\CCSET.H
C:\PROGRAM FILES (X86)\MICROSOFT VISUAL STUDIO 11.0\VC\INCLUDE\SET
C:\PROGRAM FILES (X86)\MICROSOFT VISUAL STUDIO 11.0\VC\INCLUDE\LIST
D:\3QANHHUNG\CLIENT\COCOS2D-X-2.2.0\COCOS2DX\INCLUDE\CCPROTOCOLS.H
D:\3QANHHUNG\CLIENT\COCOS2D-X-2.2.0\COCOS2DX\INCLUDE\CCTYPES.H
D:\3QANHHUNG\CLIENT\COCOS2D-X-2.2.0\COCOS2DX\TEXTURES\CCTEXTURE2D.H
D:\3QANHHUNG\CLIENT\COCOS2D-X-2.2.0\COCOS2DX\SPRITE_NODES\CCSPRITEFRAME.H
D:\3QANHHUNG\CLIENT\COCOS2D-X-2.2.0\COCOS2DX\SPRITE_NODES\CCANIMATION.H
D:\3QANHHUNG\CLIENT\COCOS2D-X-2.2.0\COCOS2DX\COCOA\CCDICTIONARY.H
D:\3QANHHUNG\CLIENT\COCOS2D-X-2.2.0\COCOS2DX\SUPPORT\DATA_SUPPORT\UTHASH.H
D:\3QANHHUNG\CLIENT\COCOS2D-X-2.2.0\COCOS2DX\COCOA\CCSTRING.H
C:\PROGRAM FILES (X86)\MICROSOFT VISUAL STUDIO 11.0\VC\INCLUDE\FUNCTIONAL
C:\PROGRAM FILES (X86)\MICROSOFT VISUAL STUDIO 11.0\VC\INCLUDE\XFUNCTIONAL
C:\PROGRAM FILES (X86)\MICROSOFT VISUAL STUDIO 11.0\VC\INCLUDE\TUPLE
C:\PROGRAM FILES (X86)\MICROSOFT VISUAL STUDIO 11.0\VC\INCLUDE\VECTOR
D:\3QANHHUNG\CLIENT\COCOS2D-X-2.2.0\COCOS2DX\ACTIONS\CCACTIONCAMERA.H
D:\3QANHHUNG\CLIENT\COCOS2D-X-2.2.0\COCOS2DX\ACTIONS\CCACTIONMANAGER.H
D:\3QANHHUNG\CLIENT\COCOS2D-X-2.2.0\COCOS2DX\ACTIONS\CCACTIONEASE.H
D:\3QANHHUNG\CLIENT\COCOS2D-X-2.2.0\COCOS2DX\ACTIONS\CCACTIONPAGETURN3D.H
D:\3QANHHUNG\CLIENT\COCOS2D-X-2.2.0\COCOS2DX\ACTIONS\CCACTIONGRID3D.H
D:\3QANHHUNG\CLIENT\COCOS2D-X-2.2.0\COCOS2DX\ACTIONS\CCACTIONGRID.H
D:\3QANHHUNG\CLIENT\COCOS2D-X-2.2.0\COCOS2DX\ACTIONS\CCACTIONINSTANT.H
D:\3QANHHUNG\CLIENT\COCOS2D-X-2.2.0\COCOS2DX\INCLUDE\CCTYPEINFO.H
D:\3QANHHUNG\CLIENT\COCOS2D-X-2.2.0\COCOS2DX\ACTIONS\CCACTIONPROGRESSTIMER.H
D:\3QANHHUNG\CLIENT\COCOS2D-X-2.2.0\COCOS2DX\ACTIONS\CCACTIONTILEDGRID.H
D:\3QANHHUNG\CLIENT\COCOS2D-X-2.2.0\COCOS2DX\ACTIONS\CCACTIONTWEEN.H
D:\3QANHHUNG\CLIENT\COCOS2D-X-2.2.0\COCOS2DX\ACTIONS\CCACTIONCATMULLROM.H
D:\3QANHHUNG\CLIENT\COCOS2D-X-2.2.0\COCOS2DX\BASE_NODES\CCATLASNODE.H
D:\3QANHHUNG\CLIENT\COCOS2D-X-2.2.0\COCOS2DX\COCOA\CCAUTORELEASEPOOL.H
D:\3QANHHUNG\CLIENT\COCOS2D-X-2.2.0\COCOS2DX\COCOA\CCINTEGER.H
D:\3QANHHUNG\CLIENT\COCOS2D-X-2.2.0\COCOS2DX\COCOA\CCFLOAT.H
D:\3QANHHUNG\CLIENT\COCOS2D-X-2.2.0\COCOS2DX\COCOA\CCDOUBLE.H
D:\3QANHHUNG\CLIENT\COCOS2D-X-2.2.0\COCOS2DX\COCOA\CCBOOL.H
D:\3QANHHUNG\CLIENT\COCOS2D-X-2.2.0\COCOS2DX\COCOA\CCNS.H
D:\3QANHHUNG\CLIENT\COCOS2D-X-2.2.0\COCOS2DX\COCOA\CCZONE.H
D:\3QANHHUNG\CLIENT\COCOS2D-X-2.2.0\COCOS2DX\DRAW_NODES\CCDRAWINGPRIMITIVES.H
D:\3QANHHUNG\CLIENT\COCOS2D-X-2.2.0\COCOS2DX\DRAW_NODES\CCDRAWNODE.H
D:\3QANHHUNG\CLIENT\COCOS2D-X-2.2.0\COCOS2DX\EFFECTS\CCGRABBER.H
D:\3QANHHUNG\CLIENT\COCOS2D-X-2.2.0\COCOS2DX\CCCONFIGURATION.H
D:\3QANHHUNG\CLIENT\COCOS2D-X-2.2.0\COCOS2DX\EFFECTS\CCGRID.H
D:\3QANHHUNG\CLIENT\COCOS2D-X-2.2.0\COCOS2DX\CCCAMERA.H
D:\3QANHHUNG\CLIENT\COCOS2D-X-2.2.0\COCOS2DX\CCDIRECTOR.H
D:\3QANHHUNG\CLIENT\COCOS2D-X-2.2.0\COCOS2DX\LABEL_NODES\CCLABELATLAS.H
D:\3QANHHUNG\CLIENT\COCOS2D-X-2.2.0\COCOS2DX\INCLUDE\CCEVENTTYPE.H
D:\3QANHHUNG\CLIENT\COCOS2D-X-2.2.0\COCOS2DX\KAZMATH\INCLUDE\KAZMATH\GL\MATRIX.H
D:\3QANHHUNG\CLIENT\COCOS2D-X-2.2.0\COCOS2DX\KEYPAD_DISPATCHER\CCKEYPADDELEGATE.H
D:\3QANHHUNG\CLIENT\COCOS2D-X-2.2.0\COCOS2DX\KEYPAD_DISPATCHER\CCKEYPADDISPATCHER.H
D:\3QANHHUNG\CLIENT\COCOS2D-X-2.2.0\COCOS2DX\LABEL_NODES\CCLABELTTF.H
D:\3QANHHUNG\CLIENT\COCOS2D-X-2.2.0\COCOS2DX\SPRITE_NODES\CCSPRITE.H
D:\3QANHHUNG\CLIENT\COCOS2D-X-2.2.0\COCOS2DX\TEXTURES\CCTEXTUREATLAS.H
D:\3QANHHUNG\CLIENT\COCOS2D-X-2.2.0\COCOS2DX\LABEL_NODES\CCLABELBMFONT.H
D:\3QANHHUNG\CLIENT\COCOS2D-X-2.2.0\COCOS2DX\SPRITE_NODES\CCSPRITEBATCHNODE.H
C:\PROGRAM FILES (X86)\MICROSOFT VISUAL STUDIO 11.0\VC\INCLUDE\SSTREAM
C:\PROGRAM FILES (X86)\MICROSOFT VISUAL STUDIO 11.0\VC\INCLUDE\IOSTREAM
D:\3QANHHUNG\CLIENT\COCOS2D-X-2.2.0\COCOS2DX\LAYERS_SCENES_TRANSITIONS_NODES\CCLAYER.H
D:\3QANHHUNG\CLIENT\COCOS2D-X-2.2.0\COCOS2DX\TOUCH_DISPATCHER\CCTOUCHDELEGATEPROTOCOL.H
D:\3QANHHUNG\CLIENT\COCOS2D-X-2.2.0\COCOS2DX\LAYERS_SCENES_TRANSITIONS_NODES\CCSCENE.H
D:\3QANHHUNG\CLIENT\COCOS2D-X-2.2.0\COCOS2DX\LAYERS_SCENES_TRANSITIONS_NODES\CCTRANSITION.H
D:\3QANHHUNG\CLIENT\COCOS2D-X-2.2.0\COCOS2DX\LAYERS_SCENES_TRANSITIONS_NODES\CCTRANSITIONPAGETURN.H
D:\3QANHHUNG\CLIENT\COCOS2D-X-2.2.0\COCOS2DX\LAYERS_SCENES_TRANSITIONS_NODES\CCTRANSITIONPROGRESS.H
D:\3QANHHUNG\CLIENT\COCOS2D-X-2.2.0\COCOS2DX\MENU_NODES\CCMENU.H
D:\3QANHHUNG\CLIENT\COCOS2D-X-2.2.0\COCOS2DX\MENU_NODES\CCMENUITEM.H
D:\3QANHHUNG\CLIENT\COCOS2D-X-2.2.0\COCOS2DX\MISC_NODES\CCCLIPPINGNODE.H
D:\3QANHHUNG\CLIENT\COCOS2D-X-2.2.0\COCOS2DX\MISC_NODES\CCMOTIONSTREAK.H
D:\3QANHHUNG\CLIENT\COCOS2D-X-2.2.0\COCOS2DX\MISC_NODES\CCPROGRESSTIMER.H
D:\3QANHHUNG\CLIENT\COCOS2D-X-2.2.0\COCOS2DX\MISC_NODES\CCRENDERTEXTURE.H
D:\3QANHHUNG\CLIENT\COCOS2D-X-2.2.0\COCOS2DX\PARTICLE_NODES\CCPARTICLEBATCHNODE.H
D:\3QANHHUNG\CLIENT\COCOS2D-X-2.2.0\COCOS2DX\PARTICLE_NODES\CCPARTICLESYSTEM.H
D:\3QANHHUNG\CLIENT\COCOS2D-X-2.2.0\COCOS2DX\PARTICLE_NODES\CCPARTICLEEXAMPLES.H
D:\3QANHHUNG\CLIENT\COCOS2D-X-2.2.0\COCOS2DX\PARTICLE_NODES\CCPARTICLESYSTEMQUAD.H
D:\3QANHHUNG\CLIENT\COCOS2D-X-2.2.0\COCOS2DX\PLATFORM\CCDEVICE.H
D:\3QANHHUNG\CLIENT\COCOS2D-X-2.2.0\COCOS2DX\PLATFORM\CCFILEUTILS.H
D:\3QANHHUNG\CLIENT\COCOS2D-X-2.2.0\COCOS2DX\PLATFORM\CCIMAGE.H
D:\3QANHHUNG\CLIENT\COCOS2D-X-2.2.0\COCOS2DX\PLATFORM\CCSAXPARSER.H
D:\3QANHHUNG\CLIENT\COCOS2D-X-2.2.0\COCOS2DX\PLATFORM\CCTHREAD.H
D:\3QANHHUNG\CLIENT\COCOS2D-X-2.2.0\COCOS2DX\PLATFORM\PLATFORM.H
D:\3QANHHUNG\CLIENT\COCOS2D-X-2.2.0\COCOS2DX\PLATFORM\WIN32\CCAPPLICATION.H
D:\3QANHHUNG\CLIENT\COCOS2D-X-2.2.0\COCOS2DX\PLATFORM\CCAPPLICATIONPROTOCOL.H
D:\3QANHHUNG\CLIENT\COCOS2D-X-2.2.0\COCOS2DX\PLATFORM\WIN32\CCEGLVIEW.H
D:\3QANHHUNG\CLIENT\COCOS2D-X-2.2.0\COCOS2DX\PLATFORM\CCEGLVIEWPROTOCOL.H
D:\3QANHHUNG\CLIENT\COCOS2D-X-2.2.0\COCOS2DX\SHADERS\CCSHADERCACHE.H
D:\3QANHHUNG\CLIENT\COCOS2D-X-2.2.0\COCOS2DX\SHADERS\CCSHADERS.H
D:\3QANHHUNG\CLIENT\COCOS2D-X-2.2.0\COCOS2DX\SPRITE_NODES\CCANIMATIONCACHE.H
D:\3QANHHUNG\CLIENT\COCOS2D-X-2.2.0\COCOS2DX\SPRITE_NODES\CCSPRITEFRAMECACHE.H
D:\3QANHHUNG\CLIENT\COCOS2D-X-2.2.0\COCOS2DX\SUPPORT\CCUTF8.H
D:\3QANHHUNG\CLIENT\COCOS2D-X-2.2.0\COCOS2DX\SUPPORT\CCNOTIFICATIONCENTER.H
D:\3QANHHUNG\CLIENT\COCOS2D-X-2.2.0\COCOS2DX\SUPPORT\CCPOINTEXTENSION.H
D:\3QANHHUNG\CLIENT\COCOS2D-X-2.2.0\COCOS2DX\SUPPORT\CCPROFILING.H
D:\3QANHHUNG\CLIENT\COCOS2D-X-2.2.0\COCOS2DX\SUPPORT\USER_DEFAULT\CCUSERDEFAULT.H
D:\3QANHHUNG\CLIENT\COCOS2D-X-2.2.0\COCOS2DX\SUPPORT\CCVERTEX.H
D:\3QANHHUNG\CLIENT\COCOS2D-X-2.2.0\COCOS2DX\SUPPORT\TINYXML2\TINYXML2.H
C:\PROGRAM FILES (X86)\MICROSOFT VISUAL STUDIO 11.0\VC\INCLUDE\CCTYPE
C:\PROGRAM FILES (X86)\MICROSOFT VISUAL STUDIO 11.0\VC\INCLUDE\CSTDARG
D:\3QANHHUNG\CLIENT\COCOS2D-X-2.2.0\COCOS2DX\TEXT_INPUT_NODE\CCIMEDELEGATE.H
D:\3QANHHUNG\CLIENT\COCOS2D-X-2.2.0\COCOS2DX\TEXT_INPUT_NODE\CCIMEDISPATCHER.H
D:\3QANHHUNG\CLIENT\COCOS2D-X-2.2.0\COCOS2DX\TEXT_INPUT_NODE\CCTEXTFIELDTTF.H
D:\3QANHHUNG\CLIENT\COCOS2D-X-2.2.0\COCOS2DX\TEXTURES\CCTEXTURECACHE.H
D:\3QANHHUNG\CLIENT\COCOS2D-X-2.2.0\COCOS2DX\TEXTURES\CCTEXTUREPVR.H
D:\3QANHHUNG\CLIENT\COCOS2D-X-2.2.0\COCOS2DX\TILEMAP_PARALLAX_NODES\CCPARALLAXNODE.H
D:\3QANHHUNG\CLIENT\COCOS2D-X-2.2.0\COCOS2DX\TILEMAP_PARALLAX_NODES\CCTMXLAYER.H
D:\3QANHHUNG\CLIENT\COCOS2D-X-2.2.0\COCOS2DX\TILEMAP_PARALLAX_NODES\CCTMXOBJECTGROUP.H
D:\3QANHHUNG\CLIENT\COCOS2D-X-2.2.0\COCOS2DX\TILEMAP_PARALLAX_NODES\CCTMXXMLPARSER.H
D:\3QANHHUNG\CLIENT\COCOS2D-X-2.2.0\COCOS2DX\TILEMAP_PARALLAX_NODES\CCTMXTILEDMAP.H
D:\3QANHHUNG\CLIENT\COCOS2D-X-2.2.0\COCOS2DX\TILEMAP_PARALLAX_NODES\CCTILEMAPATLAS.H
D:\3QANHHUNG\CLIENT\COCOS2D-X-2.2.0\COCOS2DX\TOUCH_DISPATCHER\CCTOUCHDISPATCHER.H
D:\3QANHHUNG\CLIENT\COCOS2D-X-2.2.0\COCOS2DX\TOUCH_DISPATCHER\CCTOUCHHANDLER.H
D:\3QANHHUNG\CLIENT\COCOS2D-X-2.2.0\COCOS2DX\CCSCHEDULER.H
D:\3QANHHUNG\CLIENT\COCOS2D-X-2.2.0\COCOS2DX\SUPPORT\COMPONENT\CCCOMPONENT.H
D:\3QANHHUNG\CLIENT\COCOS2D-X-2.2.0\COCOS2DX\SUPPORT\COMPONENT\CCCOMPONENTCONTAINER.H
